{
    ".data": {
        "entropy": 0.0,
        "hash": "c991fe74c201cae9",
        "is_executable": false,
        "is_readable": true,
        "is_writable": true,
        "is_writable_and_executable": false,
        "raw_size": 0,
        "raw_virtual_size_ratio": 0.0005081300813008131,
        "virtual_size": 1968
    },
    ".rsrc": {
        "entropy": 4.066474728196617,
        "hash": "ec90bf1f378e525e",
        "is_executable": false,
        "is_readable": true,
        "is_writable": false,
        "is_writable_and_executable": false,
        "raw_size": 2048,
        "raw_virtual_size_ratio": 1.1130434782608696,
        "virtual_size": 1840
    },
    ".text": {
        "entropy": 0.0,
        "hash": "cee59ff65a277ac3",
        "is_executable": true,
        "is_readable": true,
        "is_writable": false,
        "is_writable_and_executable": false,
        "raw_size": 0,
        "raw_virtual_size_ratio": 8.97827258035554e-05,
        "virtual_size": 11138
    },
    "file": {
        "SOC": 11264,
        "SOH": 240,
        "SOHO": 1024,
        "SOI": 1712128,
        "SOID": 8704,
        "SOS": 97,
        "SOUID": 0,
        "avg_str_len": 9.7,
        "n_execute_sections": 3,
        "n_import_funcs": 16,
        "n_imports": 5,
        "n_read_sections": 9,
        "n_sections": 9,
        "n_standart_sections": 4,
        "n_strings": 10,
        "n_symdols": 0,
        "n_write_and_execute_sections": 1,
        "n_write_sections": 3,
        "timestamp": 1524363317
    },
    "packer": "vmprotect",
    "path": "../vmprotect/data/srdelayed.vmp.exe"
}