{
    ".rsrc": {
        "entropy": 6.670523784066342,
        "hash": "69c8447e73b4afbe",
        "is_executable": false,
        "is_readable": true,
        "is_writable": false,
        "is_writable_and_executable": false,
        "raw_size": 53248,
        "raw_virtual_size_ratio": 1.0,
        "virtual_size": 53248
    },
    "file": {
        "SOC": 65536,
        "SOH": 240,
        "SOHO": 1024,
        "SOI": 10088448,
        "SOID": 219136,
        "SOS": 123,
        "SOUID": 0,
        "avg_str_len": 11.181818181818182,
        "n_execute_sections": 3,
        "n_import_funcs": 14,
        "n_imports": 14,
        "n_read_sections": 10,
        "n_sections": 10,
        "n_standart_sections": 2,
        "n_strings": 11,
        "n_symdols": 0,
        "n_write_and_execute_sections": 1,
        "n_write_sections": 3,
        "timestamp": 1799284653
    },
    "packer": "themida",
    "path": "../themida/themida/PresentationHost_protected.exe"
}