{
    ".data": {
        "entropy": 0.0,
        "hash": "4a857854f4538294",
        "is_executable": false,
        "is_readable": true,
        "is_writable": true,
        "is_writable_and_executable": false,
        "raw_size": 0,
        "raw_virtual_size_ratio": 3.3200531208499335e-05,
        "virtual_size": 30120
    },
    ".rsrc": {
        "entropy": 3.3772067147136786,
        "hash": "382af26c0f8c6c08",
        "is_executable": false,
        "is_readable": true,
        "is_writable": false,
        "is_writable_and_executable": false,
        "raw_size": 1024,
        "raw_virtual_size_ratio": 1.0078740157480315,
        "virtual_size": 1016
    },
    ".text": {
        "entropy": 0.0,
        "hash": "7cce0831fa950315",
        "is_executable": true,
        "is_readable": true,
        "is_writable": false,
        "is_writable_and_executable": false,
        "raw_size": 0,
        "raw_virtual_size_ratio": 5.599856643669922e-06,
        "virtual_size": 178576
    },
    "file": {
        "SOC": 178688,
        "SOH": 240,
        "SOHO": 1024,
        "SOI": 3444736,
        "SOID": 115712,
        "SOS": 99,
        "SOUID": 0,
        "avg_str_len": 9.9,
        "n_execute_sections": 3,
        "n_import_funcs": 52,
        "n_imports": 42,
        "n_read_sections": 9,
        "n_sections": 9,
        "n_standart_sections": 4,
        "n_strings": 10,
        "n_symdols": 0,
        "n_write_and_execute_sections": 0,
        "n_write_sections": 2,
        "timestamp": 2541521786
    },
    "packer": "vmprotect",
    "path": "../vmprotect/data/WpcTok.vmp.exe"
}