{
    ".data": {
        "entropy": 0.30140680731160896,
        "hash": "5761c7b1aa9e2477",
        "is_executable": false,
        "is_readable": true,
        "is_writable": true,
        "is_writable_and_executable": false,
        "raw_size": 512,
        "raw_virtual_size_ratio": 0.3033175355450237,
        "virtual_size": 1688
    },
    ".rsrc": {
        "entropy": 4.328235011626619,
        "hash": "4ee2e74da610bef6",
        "is_executable": false,
        "is_readable": true,
        "is_writable": false,
        "is_writable_and_executable": false,
        "raw_size": 2048,
        "raw_virtual_size_ratio": 1.0158730158730158,
        "virtual_size": 2016
    },
    ".text": {
        "entropy": 5.7813617589278525,
        "hash": "d5c8d5a76b5e0c92",
        "is_executable": true,
        "is_readable": true,
        "is_writable": false,
        "is_writable_and_executable": false,
        "raw_size": 6656,
        "raw_virtual_size_ratio": 1.0452261306532664,
        "virtual_size": 6368
    },
    "file": {
        "SOC": 6656,
        "SOH": 240,
        "SOHO": 1024,
        "SOI": 36864,
        "SOID": 11776,
        "SOS": 86,
        "SOUID": 0,
        "avg_str_len": 10.75,
        "n_execute_sections": 1,
        "n_import_funcs": 57,
        "n_imports": 7,
        "n_read_sections": 6,
        "n_sections": 6,
        "n_standart_sections": 4,
        "n_strings": 8,
        "n_symdols": 0,
        "n_write_and_execute_sections": 0,
        "n_write_sections": 1,
        "timestamp": 2667319890
    },
    "packer": "origin",
    "path": "../origin/wowreg32.exe"
}