{
    ".data": {
        "entropy": 0.30140680731160896,
        "hash": "f1aea5a566c05c2b",
        "is_executable": false,
        "is_readable": true,
        "is_writable": true,
        "is_writable_and_executable": false,
        "raw_size": 512,
        "raw_virtual_size_ratio": 0.30917874396135264,
        "virtual_size": 1656
    },
    ".rsrc": {
        "entropy": 4.277515385528305,
        "hash": "cb4c55e44330790c",
        "is_executable": false,
        "is_readable": true,
        "is_writable": false,
        "is_writable_and_executable": false,
        "raw_size": 2048,
        "raw_virtual_size_ratio": 1.024,
        "virtual_size": 2000
    },
    ".text": {
        "entropy": 5.496332352393849,
        "hash": "935d484232e7540c",
        "is_executable": true,
        "is_readable": true,
        "is_writable": false,
        "is_writable_and_executable": false,
        "raw_size": 7168,
        "raw_virtual_size_ratio": 1.0566037735849056,
        "virtual_size": 6784
    },
    "file": {
        "SOC": 7168,
        "SOH": 240,
        "SOHO": 1024,
        "SOI": 36864,
        "SOID": 10752,
        "SOS": 95,
        "SOUID": 0,
        "avg_str_len": 10.555555555555555,
        "n_execute_sections": 1,
        "n_import_funcs": 83,
        "n_imports": 4,
        "n_read_sections": 6,
        "n_sections": 6,
        "n_standart_sections": 4,
        "n_strings": 9,
        "n_symdols": 0,
        "n_write_and_execute_sections": 0,
        "n_write_sections": 1,
        "timestamp": 618241020
    },
    "packer": "origin",
    "path": "../origin/subst.exe"
}