{
    ".data": {
        "entropy": 0.30140680731160896,
        "hash": "08406e7a49f95299",
        "is_executable": false,
        "is_readable": true,
        "is_writable": true,
        "is_writable_and_executable": false,
        "raw_size": 512,
        "raw_virtual_size_ratio": 0.02830605926581159,
        "virtual_size": 18088
    },
    ".rsrc": {
        "entropy": 4.2929037179897955,
        "hash": "5aff7318d12094c0",
        "is_executable": false,
        "is_readable": true,
        "is_writable": false,
        "is_writable_and_executable": false,
        "raw_size": 2560,
        "raw_virtual_size_ratio": 1.0921501706484642,
        "virtual_size": 2344
    },
    ".text": {
        "entropy": 6.163282296701299,
        "hash": "5997ea3ac0a46cf7",
        "is_executable": true,
        "is_readable": true,
        "is_writable": false,
        "is_writable_and_executable": false,
        "raw_size": 31232,
        "raw_virtual_size_ratio": 1.0119232763089683,
        "virtual_size": 30864
    },
    "file": {
        "SOC": 31232,
        "SOH": 240,
        "SOHO": 1024,
        "SOI": 86016,
        "SOID": 36352,
        "SOS": 81,
        "SOUID": 0,
        "avg_str_len": 11.571428571428571,
        "n_execute_sections": 1,
        "n_import_funcs": 105,
        "n_imports": 24,
        "n_read_sections": 6,
        "n_sections": 6,
        "n_standart_sections": 4,
        "n_strings": 7,
        "n_symdols": 0,
        "n_write_and_execute_sections": 0,
        "n_write_sections": 1,
        "timestamp": 592984857
    },
    "packer": "origin",
    "path": "../origin/iscsicli.exe"
}