{
    ".data": {
        "entropy": 2.2822538988817698,
        "hash": "c43d2c874034376f",
        "is_executable": false,
        "is_readable": true,
        "is_writable": true,
        "is_writable_and_executable": false,
        "raw_size": 512,
        "raw_virtual_size_ratio": 0.24334600760456274,
        "virtual_size": 2104
    },
    ".rsrc": {
        "entropy": 4.639074634540705,
        "hash": "a6da66da2d92df55",
        "is_executable": false,
        "is_readable": true,
        "is_writable": false,
        "is_writable_and_executable": false,
        "raw_size": 2560,
        "raw_virtual_size_ratio": 1.019108280254777,
        "virtual_size": 2512
    },
    ".text": {
        "entropy": 6.109209680235964,
        "hash": "66d3a4167cdafcf4",
        "is_executable": true,
        "is_readable": true,
        "is_writable": false,
        "is_writable_and_executable": false,
        "raw_size": 32256,
        "raw_virtual_size_ratio": 1.0060193993076132,
        "virtual_size": 32063
    },
    "file": {
        "SOC": 32256,
        "SOH": 240,
        "SOHO": 1024,
        "SOI": 77824,
        "SOID": 26112,
        "SOS": 94,
        "SOUID": 0,
        "avg_str_len": 10.444444444444445,
        "n_execute_sections": 1,
        "n_import_funcs": 123,
        "n_imports": 16,
        "n_read_sections": 7,
        "n_sections": 7,
        "n_standart_sections": 4,
        "n_strings": 9,
        "n_symdols": 0,
        "n_write_and_execute_sections": 0,
        "n_write_sections": 2,
        "timestamp": 1619518496
    },
    "packer": "origin",
    "path": "../origin/RdpSa.exe"
}