{
    ".data": {
        "entropy": 2.4921514836760985,
        "hash": "06e9f5e437b3729c",
        "is_executable": false,
        "is_readable": true,
        "is_writable": true,
        "is_writable_and_executable": false,
        "raw_size": 1536,
        "raw_virtual_size_ratio": 0.49230769230769234,
        "virtual_size": 3120
    },
    ".rsrc": {
        "entropy": 3.7360826726437795,
        "hash": "1ee846cf60c21bd4",
        "is_executable": false,
        "is_readable": true,
        "is_writable": false,
        "is_writable_and_executable": false,
        "raw_size": 2560,
        "raw_virtual_size_ratio": 1.2403100775193798,
        "virtual_size": 2064
    },
    ".text": {
        "entropy": 6.078815621747022,
        "hash": "ea34034eba6acf2e",
        "is_executable": true,
        "is_readable": true,
        "is_writable": false,
        "is_writable_and_executable": false,
        "raw_size": 14848,
        "raw_virtual_size_ratio": 1.020761721435446,
        "virtual_size": 14546
    },
    "file": {
        "SOC": 14848,
        "SOH": 240,
        "SOHO": 1024,
        "SOI": 49152,
        "SOID": 17408,
        "SOS": 123,
        "SOUID": 0,
        "avg_str_len": 8.2,
        "n_execute_sections": 1,
        "n_import_funcs": 79,
        "n_imports": 22,
        "n_read_sections": 6,
        "n_sections": 6,
        "n_standart_sections": 4,
        "n_strings": 15,
        "n_symdols": 0,
        "n_write_and_execute_sections": 0,
        "n_write_sections": 1,
        "timestamp": 3808035345
    },
    "packer": "origin",
    "path": "../origin/fltMC.exe"
}