{
    ".data": {
        "entropy": 3.237996915655215,
        "hash": "d364ab51db51398c",
        "is_executable": false,
        "is_readable": true,
        "is_writable": true,
        "is_writable_and_executable": false,
        "raw_size": 1536,
        "raw_virtual_size_ratio": 0.47058823529411764,
        "virtual_size": 3264
    },
    ".rsrc": {
        "entropy": 4.267973927662562,
        "hash": "15949670b237fd74",
        "is_executable": false,
        "is_readable": true,
        "is_writable": false,
        "is_writable_and_executable": false,
        "raw_size": 7168,
        "raw_virtual_size_ratio": 1.0406504065040652,
        "virtual_size": 6888
    },
    ".text": {
        "entropy": 6.066183140012052,
        "hash": "57f4ac4751c8bb37",
        "is_executable": true,
        "is_readable": true,
        "is_writable": false,
        "is_writable_and_executable": false,
        "raw_size": 46080,
        "raw_virtual_size_ratio": 1.003921568627451,
        "virtual_size": 45900
    },
    "file": {
        "SOC": 46080,
        "SOH": 240,
        "SOHO": 1024,
        "SOI": 98304,
        "SOID": 38912,
        "SOS": 81,
        "SOUID": 0,
        "avg_str_len": 11.571428571428571,
        "n_execute_sections": 1,
        "n_import_funcs": 127,
        "n_imports": 21,
        "n_read_sections": 6,
        "n_sections": 6,
        "n_standart_sections": 4,
        "n_strings": 7,
        "n_symdols": 0,
        "n_write_and_execute_sections": 0,
        "n_write_sections": 1,
        "timestamp": 1692075438
    },
    "packer": "origin",
    "path": "../origin/MsSpellCheckingHost.exe"
}