{
    ".data": {
        "entropy": 0.36477206883569097,
        "hash": "3fff8a2027323308",
        "is_executable": false,
        "is_readable": true,
        "is_writable": true,
        "is_writable_and_executable": false,
        "raw_size": 1536,
        "raw_virtual_size_ratio": 0.518918918918919,
        "virtual_size": 2960
    },
    ".rsrc": {
        "entropy": 7.506731102088554,
        "hash": "e45476af26802638",
        "is_executable": false,
        "is_readable": true,
        "is_writable": false,
        "is_writable_and_executable": false,
        "raw_size": 102400,
        "raw_virtual_size_ratio": 1.0002344299445183,
        "virtual_size": 102376
    },
    ".text": {
        "entropy": 6.103771106494569,
        "hash": "87420cc0ffa59775",
        "is_executable": true,
        "is_readable": true,
        "is_writable": false,
        "is_writable_and_executable": false,
        "raw_size": 41472,
        "raw_virtual_size_ratio": 1.011561539587297,
        "virtual_size": 40998
    },
    "file": {
        "SOC": 41472,
        "SOH": 240,
        "SOHO": 1024,
        "SOI": 196608,
        "SOID": 140800,
        "SOS": 86,
        "SOUID": 0,
        "avg_str_len": 10.75,
        "n_execute_sections": 1,
        "n_import_funcs": 183,
        "n_imports": 13,
        "n_read_sections": 6,
        "n_sections": 6,
        "n_standart_sections": 4,
        "n_strings": 8,
        "n_symdols": 0,
        "n_write_and_execute_sections": 0,
        "n_write_sections": 1,
        "timestamp": 264110752
    },
    "packer": "origin",
    "path": "../origin/perfmon.exe"
}