{
    ".data": {
        "entropy": 0.30140680731160896,
        "hash": "d70c14381181d107",
        "is_executable": false,
        "is_readable": true,
        "is_writable": true,
        "is_writable_and_executable": false,
        "raw_size": 512,
        "raw_virtual_size_ratio": 0.3076923076923077,
        "virtual_size": 1664
    },
    ".rsrc": {
        "entropy": 3.970015367007392,
        "hash": "028f60be0515097c",
        "is_executable": false,
        "is_readable": true,
        "is_writable": false,
        "is_writable_and_executable": false,
        "raw_size": 5120,
        "raw_virtual_size_ratio": 1.0720268006700167,
        "virtual_size": 4776
    },
    ".text": {
        "entropy": 5.585779889960308,
        "hash": "9c9b2ccc0d55a5c7",
        "is_executable": true,
        "is_readable": true,
        "is_writable": false,
        "is_writable_and_executable": false,
        "raw_size": 3584,
        "raw_virtual_size_ratio": 1.0717703349282297,
        "virtual_size": 3344
    },
    "file": {
        "SOC": 3584,
        "SOH": 240,
        "SOHO": 1024,
        "SOI": 32768,
        "SOID": 11776,
        "SOS": 121,
        "SOUID": 0,
        "avg_str_len": 8.066666666666666,
        "n_execute_sections": 1,
        "n_import_funcs": 43,
        "n_imports": 3,
        "n_read_sections": 6,
        "n_sections": 6,
        "n_standart_sections": 4,
        "n_strings": 15,
        "n_symdols": 0,
        "n_write_and_execute_sections": 0,
        "n_write_sections": 1,
        "timestamp": 308511772
    },
    "packer": "origin",
    "path": "../origin/mshta.exe"
}