{
    ".data": {
        "entropy": 1.3625791734232677,
        "hash": "9f8a2c35f350b131",
        "is_executable": false,
        "is_readable": true,
        "is_writable": true,
        "is_writable_and_executable": false,
        "raw_size": 512,
        "raw_virtual_size_ratio": 0.18658892128279883,
        "virtual_size": 2744
    },
    ".rsrc": {
        "entropy": 3.2972615876975744,
        "hash": "85ff3494bd594e5e",
        "is_executable": false,
        "is_readable": true,
        "is_writable": false,
        "is_writable_and_executable": false,
        "raw_size": 1024,
        "raw_virtual_size_ratio": 1.024,
        "virtual_size": 1000
    },
    ".text": {
        "entropy": 6.0529465000917,
        "hash": "6991b8f95b05181b",
        "is_executable": true,
        "is_readable": true,
        "is_writable": false,
        "is_writable_and_executable": false,
        "raw_size": 49664,
        "raw_virtual_size_ratio": 1.007117798552106,
        "virtual_size": 49313
    },
    "file": {
        "SOC": 49664,
        "SOH": 240,
        "SOHO": 1024,
        "SOI": 102400,
        "SOID": 29696,
        "SOS": 93,
        "SOUID": 0,
        "avg_str_len": 10.333333333333334,
        "n_execute_sections": 1,
        "n_import_funcs": 209,
        "n_imports": 11,
        "n_read_sections": 7,
        "n_sections": 7,
        "n_standart_sections": 4,
        "n_strings": 9,
        "n_symdols": 0,
        "n_write_and_execute_sections": 0,
        "n_write_sections": 2,
        "timestamp": 2852659866
    },
    "packer": "origin",
    "path": "../origin/ie4ushowIE.exe"
}