{
    ".data": {
        "entropy": 0.30140680731160896,
        "hash": "400f8da97a1ad7d6",
        "is_executable": false,
        "is_readable": true,
        "is_writable": true,
        "is_writable_and_executable": false,
        "raw_size": 512,
        "raw_virtual_size_ratio": 0.30917874396135264,
        "virtual_size": 1656
    },
    ".rsrc": {
        "entropy": 4.3521431598047045,
        "hash": "7441b2dfd8763dc7",
        "is_executable": false,
        "is_readable": true,
        "is_writable": false,
        "is_writable_and_executable": false,
        "raw_size": 2048,
        "raw_virtual_size_ratio": 1.0,
        "virtual_size": 2048
    },
    ".text": {
        "entropy": 5.552118109645148,
        "hash": "c5c0f8fc562f39b0",
        "is_executable": true,
        "is_readable": true,
        "is_writable": false,
        "is_writable_and_executable": false,
        "raw_size": 9728,
        "raw_virtual_size_ratio": 1.0357751277683134,
        "virtual_size": 9392
    },
    "file": {
        "SOC": 9728,
        "SOH": 240,
        "SOHO": 1024,
        "SOI": 40960,
        "SOID": 11264,
        "SOS": 95,
        "SOUID": 0,
        "avg_str_len": 10.555555555555555,
        "n_execute_sections": 1,
        "n_import_funcs": 90,
        "n_imports": 4,
        "n_read_sections": 6,
        "n_sections": 6,
        "n_standart_sections": 4,
        "n_strings": 9,
        "n_symdols": 0,
        "n_write_and_execute_sections": 0,
        "n_write_sections": 1,
        "timestamp": 2550999096
    },
    "packer": "origin",
    "path": "../origin/doskey.exe"
}