{
    ".data": {
        "entropy": 2.8298573402294918,
        "hash": "cd22d7f278a5627f",
        "is_executable": false,
        "is_readable": true,
        "is_writable": true,
        "is_writable_and_executable": false,
        "raw_size": 512,
        "raw_virtual_size_ratio": 0.21805792163543442,
        "virtual_size": 2348
    },
    ".rsrc": {
        "entropy": 7.118773366287508,
        "hash": "3e1e2ec1a98e67ee",
        "is_executable": false,
        "is_readable": true,
        "is_writable": false,
        "is_writable_and_executable": false,
        "raw_size": 90624,
        "raw_virtual_size_ratio": 1.0028328611898016,
        "virtual_size": 90368
    },
    ".text": {
        "entropy": 6.229757540325976,
        "hash": "ef45161b0858a9b8",
        "is_executable": true,
        "is_readable": true,
        "is_writable": false,
        "is_writable_and_executable": false,
        "raw_size": 96768,
        "raw_virtual_size_ratio": 1.0050685500623182,
        "virtual_size": 96280
    },
    "file": {
        "SOC": 96768,
        "SOH": 240,
        "SOHO": 1024,
        "SOI": 249856,
        "SOID": 131584,
        "SOS": 87,
        "SOUID": 0,
        "avg_str_len": 10.875,
        "n_execute_sections": 1,
        "n_import_funcs": 120,
        "n_imports": 12,
        "n_read_sections": 7,
        "n_sections": 7,
        "n_standart_sections": 4,
        "n_strings": 8,
        "n_symdols": 0,
        "n_write_and_execute_sections": 0,
        "n_write_sections": 2,
        "timestamp": 3222247668
    },
    "packer": "origin",
    "path": "../origin/manage-bde.exe"
}