{
    ".data": {
        "entropy": 1.471854432962443,
        "hash": "6752d18022febb4a",
        "is_executable": false,
        "is_readable": true,
        "is_writable": true,
        "is_writable_and_executable": false,
        "raw_size": 1024,
        "raw_virtual_size_ratio": 0.3545706371191136,
        "virtual_size": 2888
    },
    ".rsrc": {
        "entropy": 2.480488626628193,
        "hash": "3dab053446e998d0",
        "is_executable": false,
        "is_readable": true,
        "is_writable": false,
        "is_writable_and_executable": false,
        "raw_size": 1536,
        "raw_virtual_size_ratio": 1.4545454545454546,
        "virtual_size": 1056
    },
    ".text": {
        "entropy": 6.066452789818024,
        "hash": "7a8fa8d50c199a5f",
        "is_executable": true,
        "is_readable": true,
        "is_writable": false,
        "is_writable_and_executable": false,
        "raw_size": 57856,
        "raw_virtual_size_ratio": 1.0055093067310867,
        "virtual_size": 57539
    },
    "file": {
        "SOC": 57856,
        "SOH": 240,
        "SOHO": 1024,
        "SOI": 110592,
        "SOID": 29696,
        "SOS": 92,
        "SOUID": 0,
        "avg_str_len": 10.222222222222221,
        "n_execute_sections": 1,
        "n_import_funcs": 139,
        "n_imports": 38,
        "n_read_sections": 7,
        "n_sections": 7,
        "n_standart_sections": 4,
        "n_strings": 9,
        "n_symdols": 0,
        "n_write_and_execute_sections": 0,
        "n_write_sections": 2,
        "timestamp": 2234392452
    },
    "packer": "origin",
    "path": "../origin/desktopimgdownldr.exe"
}