{
    ".data": {
        "entropy": 0.30140680731160896,
        "hash": "53c0e5e6871b809e",
        "is_executable": false,
        "is_readable": true,
        "is_writable": true,
        "is_writable_and_executable": false,
        "raw_size": 512,
        "raw_virtual_size_ratio": 0.24334600760456274,
        "virtual_size": 2104
    },
    ".rsrc": {
        "entropy": 3.7936442272559154,
        "hash": "fa47f533135c9eb9",
        "is_executable": false,
        "is_readable": true,
        "is_writable": false,
        "is_writable_and_executable": false,
        "raw_size": 2560,
        "raw_virtual_size_ratio": 1.2213740458015268,
        "virtual_size": 2096
    },
    ".text": {
        "entropy": 5.815182034592133,
        "hash": "670479602ef8b96b",
        "is_executable": true,
        "is_readable": true,
        "is_writable": false,
        "is_writable_and_executable": false,
        "raw_size": 6144,
        "raw_virtual_size_ratio": 1.0078740157480315,
        "virtual_size": 6096
    },
    "file": {
        "SOC": 6144,
        "SOH": 240,
        "SOHO": 1024,
        "SOI": 36864,
        "SOID": 11264,
        "SOS": 88,
        "SOUID": 0,
        "avg_str_len": 11.0,
        "n_execute_sections": 1,
        "n_import_funcs": 65,
        "n_imports": 17,
        "n_read_sections": 6,
        "n_sections": 6,
        "n_standart_sections": 4,
        "n_strings": 8,
        "n_symdols": 0,
        "n_write_and_execute_sections": 0,
        "n_write_sections": 1,
        "timestamp": 113074552
    },
    "packer": "origin",
    "path": "../origin/finger.exe"
}