{
    ".data": {
        "entropy": 2.702316276171022,
        "hash": "6ccb67aec5ff49f7",
        "is_executable": false,
        "is_readable": true,
        "is_writable": true,
        "is_writable_and_executable": false,
        "raw_size": 1536,
        "raw_virtual_size_ratio": 0.43243243243243246,
        "virtual_size": 3552
    },
    ".rsrc": {
        "entropy": 2.336222582035044,
        "hash": "1b81016f979e6674",
        "is_executable": false,
        "is_readable": true,
        "is_writable": false,
        "is_writable_and_executable": false,
        "raw_size": 45568,
        "raw_virtual_size_ratio": 1.0022875241949674,
        "virtual_size": 45464
    },
    ".text": {
        "entropy": 6.013061179115096,
        "hash": "ded605fb135811aa",
        "is_executable": true,
        "is_readable": true,
        "is_writable": false,
        "is_writable_and_executable": false,
        "raw_size": 24064,
        "raw_virtual_size_ratio": 1.0056416899995821,
        "virtual_size": 23929
    },
    "file": {
        "SOC": 24064,
        "SOH": 240,
        "SOHO": 1024,
        "SOI": 102400,
        "SOID": 62976,
        "SOS": 86,
        "SOUID": 0,
        "avg_str_len": 10.75,
        "n_execute_sections": 1,
        "n_import_funcs": 107,
        "n_imports": 18,
        "n_read_sections": 6,
        "n_sections": 6,
        "n_standart_sections": 4,
        "n_strings": 8,
        "n_symdols": 0,
        "n_write_and_execute_sections": 0,
        "n_write_sections": 1,
        "timestamp": 2960078997
    },
    "packer": "origin",
    "path": "../origin/SecurityHealthSystray.exe"
}