{
    ".data": {
        "entropy": 0.37479724348767507,
        "hash": "e34e07ad76f7f9fe",
        "is_executable": false,
        "is_readable": true,
        "is_writable": true,
        "is_writable_and_executable": false,
        "raw_size": 512,
        "raw_virtual_size_ratio": 0.15724815724815724,
        "virtual_size": 3256
    },
    ".rsrc": {
        "entropy": 3.814594790682507,
        "hash": "eab5fc03e0a58cf6",
        "is_executable": false,
        "is_readable": true,
        "is_writable": false,
        "is_writable_and_executable": false,
        "raw_size": 2560,
        "raw_virtual_size_ratio": 1.2121212121212122,
        "virtual_size": 2112
    },
    ".text": {
        "entropy": 5.962114545979641,
        "hash": "fb5fd4e99eb1e21a",
        "is_executable": true,
        "is_readable": true,
        "is_writable": false,
        "is_writable_and_executable": false,
        "raw_size": 12288,
        "raw_virtual_size_ratio": 1.0263949214834613,
        "virtual_size": 11972
    },
    "file": {
        "SOC": 12288,
        "SOH": 240,
        "SOHO": 1024,
        "SOI": 40960,
        "SOID": 15360,
        "SOS": 87,
        "SOUID": 0,
        "avg_str_len": 10.875,
        "n_execute_sections": 1,
        "n_import_funcs": 76,
        "n_imports": 22,
        "n_read_sections": 6,
        "n_sections": 6,
        "n_standart_sections": 4,
        "n_strings": 8,
        "n_symdols": 0,
        "n_write_and_execute_sections": 0,
        "n_write_sections": 1,
        "timestamp": 3140904377
    },
    "packer": "origin",
    "path": "../origin/diskperf.exe"
}