{
    ".data": {
        "entropy": 2.668400377380568,
        "hash": "ac6682ecfc822921",
        "is_executable": false,
        "is_readable": true,
        "is_writable": true,
        "is_writable_and_executable": false,
        "raw_size": 512,
        "raw_virtual_size_ratio": 0.1933534743202417,
        "virtual_size": 2648
    },
    ".rsrc": {
        "entropy": 3.8386968210629977,
        "hash": "e8cec1607a642925",
        "is_executable": false,
        "is_readable": true,
        "is_writable": false,
        "is_writable_and_executable": false,
        "raw_size": 2560,
        "raw_virtual_size_ratio": 1.2121212121212122,
        "virtual_size": 2112
    },
    ".text": {
        "entropy": 6.058323009902556,
        "hash": "0cf9f158cb5e6904",
        "is_executable": true,
        "is_readable": true,
        "is_writable": false,
        "is_writable_and_executable": false,
        "raw_size": 46080,
        "raw_virtual_size_ratio": 1.0063991962784196,
        "virtual_size": 45787
    },
    "file": {
        "SOC": 46080,
        "SOH": 240,
        "SOHO": 1024,
        "SOI": 94208,
        "SOID": 28160,
        "SOS": 132,
        "SOUID": 0,
        "avg_str_len": 11.0,
        "n_execute_sections": 1,
        "n_import_funcs": 113,
        "n_imports": 21,
        "n_read_sections": 7,
        "n_sections": 7,
        "n_standart_sections": 4,
        "n_strings": 12,
        "n_symdols": 0,
        "n_write_and_execute_sections": 0,
        "n_write_sections": 2,
        "timestamp": 3287780476
    },
    "packer": "origin",
    "path": "../origin/lpremove.exe"
}