{
    ".data": {
        "entropy": 2.5626380195252563,
        "hash": "0653746d51509ae6",
        "is_executable": false,
        "is_readable": true,
        "is_writable": true,
        "is_writable_and_executable": false,
        "raw_size": 512,
        "raw_virtual_size_ratio": 0.15201900237529692,
        "virtual_size": 3368
    },
    ".rsrc": {
        "entropy": 4.499265337323366,
        "hash": "dc974a703cece6d5",
        "is_executable": false,
        "is_readable": true,
        "is_writable": false,
        "is_writable_and_executable": false,
        "raw_size": 3584,
        "raw_virtual_size_ratio": 1.0228310502283104,
        "virtual_size": 3504
    },
    ".text": {
        "entropy": 5.9745509473588845,
        "hash": "0c7fd559266d0d12",
        "is_executable": true,
        "is_readable": true,
        "is_writable": false,
        "is_writable_and_executable": false,
        "raw_size": 62976,
        "raw_virtual_size_ratio": 1.0076804915514592,
        "virtual_size": 62496
    },
    "file": {
        "SOC": 62976,
        "SOH": 240,
        "SOHO": 1024,
        "SOI": 114688,
        "SOID": 37376,
        "SOS": 88,
        "SOUID": 0,
        "avg_str_len": 11.0,
        "n_execute_sections": 1,
        "n_import_funcs": 129,
        "n_imports": 8,
        "n_read_sections": 6,
        "n_sections": 6,
        "n_standart_sections": 4,
        "n_strings": 8,
        "n_symdols": 0,
        "n_write_and_execute_sections": 0,
        "n_write_sections": 1,
        "timestamp": 920304493
    },
    "packer": "origin",
    "path": "../origin/cmstp.exe"
}