{
    ".data": {
        "entropy": 1.0127942755595205,
        "hash": "29a287b7c0fce27e",
        "is_executable": false,
        "is_readable": true,
        "is_writable": true,
        "is_writable_and_executable": false,
        "raw_size": 512,
        "raw_virtual_size_ratio": 0.24334600760456274,
        "virtual_size": 2104
    },
    ".rsrc": {
        "entropy": 4.709423333524068,
        "hash": "2c8ae58109fdc813",
        "is_executable": false,
        "is_readable": true,
        "is_writable": false,
        "is_writable_and_executable": false,
        "raw_size": 2560,
        "raw_virtual_size_ratio": 1.0062893081761006,
        "virtual_size": 2544
    },
    ".text": {
        "entropy": 5.677297094985434,
        "hash": "ebf8ec0b0abf6e25",
        "is_executable": true,
        "is_readable": true,
        "is_writable": false,
        "is_writable_and_executable": false,
        "raw_size": 13312,
        "raw_virtual_size_ratio": 1.0361145703611456,
        "virtual_size": 12848
    },
    "file": {
        "SOC": 13312,
        "SOH": 240,
        "SOHO": 1024,
        "SOI": 45056,
        "SOID": 14848,
        "SOS": 87,
        "SOUID": 0,
        "avg_str_len": 10.875,
        "n_execute_sections": 1,
        "n_import_funcs": 77,
        "n_imports": 8,
        "n_read_sections": 6,
        "n_sections": 6,
        "n_standart_sections": 4,
        "n_strings": 8,
        "n_symdols": 0,
        "n_write_and_execute_sections": 0,
        "n_write_sections": 1,
        "timestamp": 698516785
    },
    "packer": "origin",
    "path": "../origin/vdsldr.exe"
}