{
    ".data": {
        "entropy": 2.334182510168593,
        "hash": "54365747081a30b2",
        "is_executable": false,
        "is_readable": true,
        "is_writable": true,
        "is_writable_and_executable": false,
        "raw_size": 512,
        "raw_virtual_size_ratio": 0.22695035460992907,
        "virtual_size": 2256
    },
    ".rsrc": {
        "entropy": 2.4185419046867938,
        "hash": "ee8661c3e173c721",
        "is_executable": false,
        "is_readable": true,
        "is_writable": false,
        "is_writable_and_executable": false,
        "raw_size": 1536,
        "raw_virtual_size_ratio": 1.4883720930232558,
        "virtual_size": 1032
    },
    ".text": {
        "entropy": 6.172145330835087,
        "hash": "8560ad82150ad94a",
        "is_executable": true,
        "is_readable": true,
        "is_writable": false,
        "is_writable_and_executable": false,
        "raw_size": 54272,
        "raw_virtual_size_ratio": 1.0004424126235067,
        "virtual_size": 54248
    },
    "file": {
        "SOC": 54272,
        "SOH": 240,
        "SOHO": 1024,
        "SOI": 102400,
        "SOID": 31232,
        "SOS": 87,
        "SOUID": 0,
        "avg_str_len": 10.875,
        "n_execute_sections": 1,
        "n_import_funcs": 127,
        "n_imports": 31,
        "n_read_sections": 6,
        "n_sections": 6,
        "n_standart_sections": 4,
        "n_strings": 8,
        "n_symdols": 0,
        "n_write_and_execute_sections": 0,
        "n_write_sections": 1,
        "timestamp": 3322813467
    },
    "packer": "origin",
    "path": "../origin/DiskSnapshot.exe"
}