{
    ".data": {
        "entropy": 0.31780982431271465,
        "hash": "74f0dab17524092d",
        "is_executable": false,
        "is_readable": true,
        "is_writable": true,
        "is_writable_and_executable": false,
        "raw_size": 512,
        "raw_virtual_size_ratio": 0.04610951008645533,
        "virtual_size": 11104
    },
    ".rsrc": {
        "entropy": 4.3491993402943585,
        "hash": "4f3682bb6884bc35",
        "is_executable": false,
        "is_readable": true,
        "is_writable": false,
        "is_writable_and_executable": false,
        "raw_size": 2048,
        "raw_virtual_size_ratio": 1.0,
        "virtual_size": 2048
    },
    ".text": {
        "entropy": 6.067607080191457,
        "hash": "398fe4cd779a1a04",
        "is_executable": true,
        "is_readable": true,
        "is_writable": false,
        "is_writable_and_executable": false,
        "raw_size": 32768,
        "raw_virtual_size_ratio": 1.0088669950738915,
        "virtual_size": 32480
    },
    "file": {
        "SOC": 32768,
        "SOH": 240,
        "SOHO": 1024,
        "SOI": 77824,
        "SOID": 26624,
        "SOS": 94,
        "SOUID": 0,
        "avg_str_len": 10.444444444444445,
        "n_execute_sections": 1,
        "n_import_funcs": 153,
        "n_imports": 12,
        "n_read_sections": 7,
        "n_sections": 7,
        "n_standart_sections": 4,
        "n_strings": 9,
        "n_symdols": 0,
        "n_write_and_execute_sections": 0,
        "n_write_sections": 2,
        "timestamp": 344809389
    },
    "packer": "origin",
    "path": "../origin/cipher.exe"
}