{
    ".data": {
        "entropy": 3.0967969393900914,
        "hash": "f2bb0f250900ca78",
        "is_executable": false,
        "is_readable": true,
        "is_writable": true,
        "is_writable_and_executable": false,
        "raw_size": 3072,
        "raw_virtual_size_ratio": 0.44547563805104406,
        "virtual_size": 6896
    },
    ".rsrc": {
        "entropy": 4.312159161750041,
        "hash": "57e8bbf4071c2586",
        "is_executable": false,
        "is_readable": true,
        "is_writable": false,
        "is_writable_and_executable": false,
        "raw_size": 2560,
        "raw_virtual_size_ratio": 1.1387900355871887,
        "virtual_size": 2248
    },
    ".text": {
        "entropy": 6.305867196800043,
        "hash": "7c99d151db40501d",
        "is_executable": true,
        "is_readable": true,
        "is_writable": false,
        "is_writable_and_executable": false,
        "raw_size": 174080,
        "raw_virtual_size_ratio": 1.0009544947502789,
        "virtual_size": 173914
    },
    "file": {
        "SOC": 174080,
        "SOH": 240,
        "SOHO": 1024,
        "SOI": 290816,
        "SOID": 100352,
        "SOS": 86,
        "SOUID": 0,
        "avg_str_len": 10.75,
        "n_execute_sections": 1,
        "n_import_funcs": 188,
        "n_imports": 36,
        "n_read_sections": 6,
        "n_sections": 6,
        "n_standart_sections": 4,
        "n_strings": 8,
        "n_symdols": 0,
        "n_write_and_execute_sections": 0,
        "n_write_sections": 1,
        "timestamp": 1577296357
    },
    "packer": "origin",
    "path": "../origin/ttdinject.exe"
}