{
    ".data": {
        "entropy": 0.4798591104882788,
        "hash": "88bbbf7f709a3b3c",
        "is_executable": false,
        "is_readable": true,
        "is_writable": true,
        "is_writable_and_executable": false,
        "raw_size": 512,
        "raw_virtual_size_ratio": 0.29906542056074764,
        "virtual_size": 1712
    },
    ".rsrc": {
        "entropy": 2.5028653137811565,
        "hash": "bff77f8046fd97d4",
        "is_executable": false,
        "is_readable": true,
        "is_writable": false,
        "is_writable_and_executable": false,
        "raw_size": 1536,
        "raw_virtual_size_ratio": 1.443609022556391,
        "virtual_size": 1064
    },
    ".text": {
        "entropy": 5.977527798453613,
        "hash": "f508d5b2d71d315a",
        "is_executable": true,
        "is_readable": true,
        "is_writable": false,
        "is_writable_and_executable": false,
        "raw_size": 22528,
        "raw_virtual_size_ratio": 1.0097714029583147,
        "virtual_size": 22310
    },
    "file": {
        "SOC": 22528,
        "SOH": 240,
        "SOHO": 1024,
        "SOI": 57344,
        "SOID": 16896,
        "SOS": 87,
        "SOUID": 0,
        "avg_str_len": 10.875,
        "n_execute_sections": 1,
        "n_import_funcs": 106,
        "n_imports": 9,
        "n_read_sections": 6,
        "n_sections": 6,
        "n_standart_sections": 4,
        "n_strings": 8,
        "n_symdols": 0,
        "n_write_and_execute_sections": 0,
        "n_write_sections": 1,
        "timestamp": 1060157695
    },
    "packer": "origin",
    "path": "../origin/wiawow64.exe"
}