{
    ".data": {
        "entropy": 2.3627664414834366,
        "hash": "4029b9debb91ded7",
        "is_executable": false,
        "is_readable": true,
        "is_writable": true,
        "is_writable_and_executable": false,
        "raw_size": 2048,
        "raw_virtual_size_ratio": 0.023807309588021946,
        "virtual_size": 86024
    },
    ".rsrc": {
        "entropy": 3.7323080976404657,
        "hash": "5d49d0d96f00429c",
        "is_executable": false,
        "is_readable": true,
        "is_writable": false,
        "is_writable_and_executable": false,
        "raw_size": 2560,
        "raw_virtual_size_ratio": 1.2403100775193798,
        "virtual_size": 2064
    },
    ".text": {
        "entropy": 6.105330024552631,
        "hash": "42f28d8481c442b7",
        "is_executable": true,
        "is_readable": true,
        "is_writable": false,
        "is_writable_and_executable": false,
        "raw_size": 94720,
        "raw_virtual_size_ratio": 1.0020841488315013,
        "virtual_size": 94523
    },
    "file": {
        "SOC": 94720,
        "SOH": 240,
        "SOHO": 1024,
        "SOI": 315392,
        "SOID": 200192,
        "SOS": 87,
        "SOUID": 0,
        "avg_str_len": 10.875,
        "n_execute_sections": 1,
        "n_import_funcs": 154,
        "n_imports": 21,
        "n_read_sections": 7,
        "n_sections": 7,
        "n_standart_sections": 4,
        "n_strings": 8,
        "n_symdols": 0,
        "n_write_and_execute_sections": 0,
        "n_write_sections": 2,
        "timestamp": 3783109450
    },
    "packer": "origin",
    "path": "../origin/bitsadmin.exe"
}