{
    ".data": {
        "entropy": 1.926009706337356,
        "hash": "22f100ac4908d9dc",
        "is_executable": false,
        "is_readable": true,
        "is_writable": true,
        "is_writable_and_executable": false,
        "raw_size": 1024,
        "raw_virtual_size_ratio": 0.3902439024390244,
        "virtual_size": 2624
    },
    ".rsrc": {
        "entropy": 4.757462864914959,
        "hash": "2c2243d3aa9a787b",
        "is_executable": false,
        "is_readable": true,
        "is_writable": false,
        "is_writable_and_executable": false,
        "raw_size": 3072,
        "raw_virtual_size_ratio": 1.0212765957446808,
        "virtual_size": 3008
    },
    ".text": {
        "entropy": 5.998883526725031,
        "hash": "74e02c61bb9e2c4b",
        "is_executable": true,
        "is_readable": true,
        "is_writable": false,
        "is_writable_and_executable": false,
        "raw_size": 59392,
        "raw_virtual_size_ratio": 1.00533202430726,
        "virtual_size": 59077
    },
    "file": {
        "SOC": 59392,
        "SOH": 240,
        "SOHO": 1024,
        "SOI": 110592,
        "SOID": 35840,
        "SOS": 86,
        "SOUID": 0,
        "avg_str_len": 10.75,
        "n_execute_sections": 1,
        "n_import_funcs": 197,
        "n_imports": 36,
        "n_read_sections": 6,
        "n_sections": 6,
        "n_standart_sections": 4,
        "n_strings": 8,
        "n_symdols": 0,
        "n_write_and_execute_sections": 0,
        "n_write_sections": 1,
        "timestamp": 1609860367
    },
    "packer": "origin",
    "path": "../origin/DiagnosticsHub.StandardCollector.Service.exe"
}