{
    ".data": {
        "entropy": 3.315270059241067,
        "hash": "38b4c98e7a0b47ce",
        "is_executable": false,
        "is_readable": true,
        "is_writable": true,
        "is_writable_and_executable": false,
        "raw_size": 1536,
        "raw_virtual_size_ratio": 0.46601941747572817,
        "virtual_size": 3296
    },
    ".rsrc": {
        "entropy": 3.7453204250075536,
        "hash": "5197fdef3c838092",
        "is_executable": false,
        "is_readable": true,
        "is_writable": false,
        "is_writable_and_executable": false,
        "raw_size": 2560,
        "raw_virtual_size_ratio": 1.2355212355212355,
        "virtual_size": 2072
    },
    ".text": {
        "entropy": 6.147346806316345,
        "hash": "fcb3b8a83e02c96d",
        "is_executable": true,
        "is_readable": true,
        "is_writable": false,
        "is_writable_and_executable": false,
        "raw_size": 62976,
        "raw_virtual_size_ratio": 1.0038255547054322,
        "virtual_size": 62736
    },
    "file": {
        "SOC": 62976,
        "SOH": 240,
        "SOHO": 1024,
        "SOI": 126976,
        "SOID": 45056,
        "SOS": 92,
        "SOUID": 0,
        "avg_str_len": 10.222222222222221,
        "n_execute_sections": 1,
        "n_import_funcs": 112,
        "n_imports": 24,
        "n_read_sections": 7,
        "n_sections": 7,
        "n_standart_sections": 4,
        "n_strings": 9,
        "n_symdols": 0,
        "n_write_and_execute_sections": 0,
        "n_write_sections": 2,
        "timestamp": 2906817322
    },
    "packer": "origin",
    "path": "../origin/wecutil.exe"
}