{
    ".data": {
        "entropy": 1.609667408152304,
        "hash": "d39b0294b2ca0afe",
        "is_executable": false,
        "is_readable": true,
        "is_writable": true,
        "is_writable_and_executable": false,
        "raw_size": 512,
        "raw_virtual_size_ratio": 0.012371931181132804,
        "virtual_size": 41384
    },
    ".rsrc": {
        "entropy": 3.832690430088164,
        "hash": "9951518faa6714ae",
        "is_executable": false,
        "is_readable": true,
        "is_writable": false,
        "is_writable_and_executable": false,
        "raw_size": 2560,
        "raw_virtual_size_ratio": 1.2121212121212122,
        "virtual_size": 2112
    },
    ".text": {
        "entropy": 6.028226991600533,
        "hash": "f5d12537b2246bb1",
        "is_executable": true,
        "is_readable": true,
        "is_writable": false,
        "is_writable_and_executable": false,
        "raw_size": 9728,
        "raw_virtual_size_ratio": 1.015025041736227,
        "virtual_size": 9584
    },
    "file": {
        "SOC": 9728,
        "SOH": 240,
        "SOHO": 1024,
        "SOI": 81920,
        "SOID": 50688,
        "SOS": 81,
        "SOUID": 0,
        "avg_str_len": 11.571428571428571,
        "n_execute_sections": 1,
        "n_import_funcs": 67,
        "n_imports": 19,
        "n_read_sections": 6,
        "n_sections": 6,
        "n_standart_sections": 4,
        "n_strings": 7,
        "n_symdols": 0,
        "n_write_and_execute_sections": 0,
        "n_write_sections": 1,
        "timestamp": 3393453881
    },
    "packer": "origin",
    "path": "../origin/PATHPING.EXE"
}