{
    ".data": {
        "entropy": 0.3584113039007212,
        "hash": "339cf60f31df8991",
        "is_executable": false,
        "is_readable": true,
        "is_writable": true,
        "is_writable_and_executable": false,
        "raw_size": 512,
        "raw_virtual_size_ratio": 0.036056338028169016,
        "virtual_size": 14200
    },
    ".rsrc": {
        "entropy": 6.852687180646494,
        "hash": "f3b4056efaa21290",
        "is_executable": false,
        "is_readable": true,
        "is_writable": false,
        "is_writable_and_executable": false,
        "raw_size": 64512,
        "raw_virtual_size_ratio": 1.0002480774001488,
        "virtual_size": 64496
    },
    ".text": {
        "entropy": 5.855045670091389,
        "hash": "cfdbf1b44d141e29",
        "is_executable": true,
        "is_readable": true,
        "is_writable": false,
        "is_writable_and_executable": false,
        "raw_size": 8704,
        "raw_virtual_size_ratio": 1.048169556840077,
        "virtual_size": 8304
    },
    "file": {
        "SOC": 8704,
        "SOH": 240,
        "SOHO": 1024,
        "SOI": 118784,
        "SOID": 87040,
        "SOS": 92,
        "SOUID": 0,
        "avg_str_len": 10.222222222222221,
        "n_execute_sections": 1,
        "n_import_funcs": 66,
        "n_imports": 21,
        "n_read_sections": 7,
        "n_sections": 7,
        "n_standart_sections": 4,
        "n_strings": 9,
        "n_symdols": 0,
        "n_write_and_execute_sections": 0,
        "n_write_sections": 2,
        "timestamp": 3909338192
    },
    "packer": "origin",
    "path": "../origin/WinMgmt.exe"
}