{
    ".data": {
        "entropy": 1.7779647580653746,
        "hash": "f77ebdd4d1f7601b",
        "is_executable": false,
        "is_readable": true,
        "is_writable": true,
        "is_writable_and_executable": false,
        "raw_size": 1024,
        "raw_virtual_size_ratio": 0.2490272373540856,
        "virtual_size": 4112
    },
    ".rsrc": {
        "entropy": 3.347622755722783,
        "hash": "396707889922d926",
        "is_executable": false,
        "is_readable": true,
        "is_writable": false,
        "is_writable_and_executable": false,
        "raw_size": 3584,
        "raw_virtual_size_ratio": 1.0228310502283104,
        "virtual_size": 3504
    },
    ".text": {
        "entropy": 6.1709127487281,
        "hash": "d4679c0e87a6aaf2",
        "is_executable": true,
        "is_readable": true,
        "is_writable": false,
        "is_writable_and_executable": false,
        "raw_size": 51712,
        "raw_virtual_size_ratio": 1.0049946555242444,
        "virtual_size": 51455
    },
    "file": {
        "SOC": 51712,
        "SOH": 240,
        "SOHO": 1024,
        "SOI": 106496,
        "SOID": 39936,
        "SOS": 81,
        "SOUID": 0,
        "avg_str_len": 11.571428571428571,
        "n_execute_sections": 1,
        "n_import_funcs": 146,
        "n_imports": 25,
        "n_read_sections": 6,
        "n_sections": 6,
        "n_standart_sections": 4,
        "n_strings": 7,
        "n_symdols": 0,
        "n_write_and_execute_sections": 0,
        "n_write_sections": 1,
        "timestamp": 1162424647
    },
    "packer": "origin",
    "path": "../origin/omadmprc.exe"
}