{
    ".data": {
        "entropy": 1.7184322319894365,
        "hash": "3b520461cd39e1c5",
        "is_executable": false,
        "is_readable": true,
        "is_writable": true,
        "is_writable_and_executable": false,
        "raw_size": 1024,
        "raw_virtual_size_ratio": 0.3069544364508393,
        "virtual_size": 3336
    },
    ".rsrc": {
        "entropy": 4.39097956150059,
        "hash": "87b115f299e907ae",
        "is_executable": false,
        "is_readable": true,
        "is_writable": false,
        "is_writable_and_executable": false,
        "raw_size": 2560,
        "raw_virtual_size_ratio": 1.118881118881119,
        "virtual_size": 2288
    },
    ".text": {
        "entropy": 6.105360623603221,
        "hash": "b560b99ec94f29a8",
        "is_executable": true,
        "is_readable": true,
        "is_writable": false,
        "is_writable_and_executable": false,
        "raw_size": 76288,
        "raw_virtual_size_ratio": 1.0012731162473258,
        "virtual_size": 76191
    },
    "file": {
        "SOC": 76288,
        "SOH": 240,
        "SOHO": 1024,
        "SOI": 135168,
        "SOID": 41472,
        "SOS": 88,
        "SOUID": 512,
        "avg_str_len": 11.0,
        "n_execute_sections": 1,
        "n_import_funcs": 131,
        "n_imports": 23,
        "n_read_sections": 7,
        "n_sections": 7,
        "n_standart_sections": 4,
        "n_strings": 8,
        "n_symdols": 0,
        "n_write_and_execute_sections": 0,
        "n_write_sections": 2,
        "timestamp": 435754996
    },
    "packer": "origin",
    "path": "../origin/PickerHost.exe"
}