{
    ".data": {
        "entropy": 0.30140680731160896,
        "hash": "851c8d63214c2600",
        "is_executable": false,
        "is_readable": true,
        "is_writable": true,
        "is_writable_and_executable": false,
        "raw_size": 512,
        "raw_virtual_size_ratio": 0.30917874396135264,
        "virtual_size": 1656
    },
    ".rsrc": {
        "entropy": 7.273262525950371,
        "hash": "cafa47209bd271cf",
        "is_executable": false,
        "is_readable": true,
        "is_writable": false,
        "is_writable_and_executable": false,
        "raw_size": 75776,
        "raw_virtual_size_ratio": 1.0030710579265063,
        "virtual_size": 75544
    },
    ".text": {
        "entropy": 5.58005297663194,
        "hash": "711f415d05cd4477",
        "is_executable": true,
        "is_readable": true,
        "is_writable": false,
        "is_writable_and_executable": false,
        "raw_size": 2560,
        "raw_virtual_size_ratio": 1.0526315789473684,
        "virtual_size": 2432
    },
    "file": {
        "SOC": 2560,
        "SOH": 240,
        "SOHO": 1024,
        "SOI": 102400,
        "SOID": 81920,
        "SOS": 86,
        "SOUID": 0,
        "avg_str_len": 10.75,
        "n_execute_sections": 1,
        "n_import_funcs": 30,
        "n_imports": 9,
        "n_read_sections": 6,
        "n_sections": 6,
        "n_standart_sections": 4,
        "n_strings": 8,
        "n_symdols": 0,
        "n_write_and_execute_sections": 0,
        "n_write_sections": 1,
        "timestamp": 832507606
    },
    "packer": "origin",
    "path": "../origin/SystemPropertiesHardware.exe"
}