{
    ".data": {
        "entropy": 1.0793943720805557,
        "hash": "45a3edf31f10154e",
        "is_executable": false,
        "is_readable": true,
        "is_writable": true,
        "is_writable_and_executable": false,
        "raw_size": 512,
        "raw_virtual_size_ratio": 0.25098039215686274,
        "virtual_size": 2040
    },
    ".rsrc": {
        "entropy": 3.725290471602953,
        "hash": "7c85493382e70bb4",
        "is_executable": false,
        "is_readable": true,
        "is_writable": false,
        "is_writable_and_executable": false,
        "raw_size": 2560,
        "raw_virtual_size_ratio": 1.2355212355212355,
        "virtual_size": 2072
    },
    ".text": {
        "entropy": 5.9178475175788074,
        "hash": "048829fb36a98977",
        "is_executable": true,
        "is_readable": true,
        "is_writable": false,
        "is_writable_and_executable": false,
        "raw_size": 75264,
        "raw_virtual_size_ratio": 1.0034129692832765,
        "virtual_size": 75008
    },
    "file": {
        "SOC": 75264,
        "SOH": 240,
        "SOHO": 1024,
        "SOI": 126976,
        "SOID": 35328,
        "SOS": 86,
        "SOUID": 0,
        "avg_str_len": 10.75,
        "n_execute_sections": 1,
        "n_import_funcs": 151,
        "n_imports": 13,
        "n_read_sections": 6,
        "n_sections": 6,
        "n_standart_sections": 4,
        "n_strings": 8,
        "n_symdols": 0,
        "n_write_and_execute_sections": 0,
        "n_write_sections": 1,
        "timestamp": 122932528
    },
    "packer": "origin",
    "path": "../origin/systeminfo.exe"
}