{
    ".data": {
        "entropy": 0.8361387309852328,
        "hash": "e87eb80fac44e042",
        "is_executable": false,
        "is_readable": true,
        "is_writable": true,
        "is_writable_and_executable": false,
        "raw_size": 512,
        "raw_virtual_size_ratio": 0.1813031161473088,
        "virtual_size": 2824
    },
    ".rsrc": {
        "entropy": 5.256303759571632,
        "hash": "8d8b9cad9ccabcd9",
        "is_executable": false,
        "is_readable": true,
        "is_writable": false,
        "is_writable_and_executable": false,
        "raw_size": 44544,
        "raw_virtual_size_ratio": 1.0007189072609632,
        "virtual_size": 44512
    },
    ".text": {
        "entropy": 6.076283458402595,
        "hash": "a43c987b646d9db4",
        "is_executable": true,
        "is_readable": true,
        "is_writable": false,
        "is_writable_and_executable": false,
        "raw_size": 50176,
        "raw_virtual_size_ratio": 1.0069840250461588,
        "virtual_size": 49828
    },
    "file": {
        "SOC": 50176,
        "SOH": 240,
        "SOHO": 1024,
        "SOI": 139264,
        "SOID": 65536,
        "SOS": 101,
        "SOUID": 512,
        "avg_str_len": 10.1,
        "n_execute_sections": 1,
        "n_import_funcs": 117,
        "n_imports": 15,
        "n_read_sections": 8,
        "n_sections": 8,
        "n_standart_sections": 4,
        "n_strings": 10,
        "n_symdols": 0,
        "n_write_and_execute_sections": 0,
        "n_write_sections": 3,
        "timestamp": 3847877496
    },
    "packer": "origin",
    "path": "../origin/OpenWith.exe"
}