{
    ".data": {
        "entropy": 2.4417302824412825,
        "hash": "d8f4cbbdb96219e6",
        "is_executable": false,
        "is_readable": true,
        "is_writable": true,
        "is_writable_and_executable": false,
        "raw_size": 512,
        "raw_virtual_size_ratio": 0.14988290398126464,
        "virtual_size": 3416
    },
    ".rsrc": {
        "entropy": 3.9811012892877384,
        "hash": "79f6570b26d360c4",
        "is_executable": false,
        "is_readable": true,
        "is_writable": false,
        "is_writable_and_executable": false,
        "raw_size": 9216,
        "raw_virtual_size_ratio": 1.004359197907585,
        "virtual_size": 9176
    },
    ".text": {
        "entropy": 6.1971722847358395,
        "hash": "08d033d28e88e695",
        "is_executable": true,
        "is_readable": true,
        "is_writable": false,
        "is_writable_and_executable": false,
        "raw_size": 78336,
        "raw_virtual_size_ratio": 1.0014317856412354,
        "virtual_size": 78224
    },
    "file": {
        "SOC": 78336,
        "SOH": 240,
        "SOHO": 1024,
        "SOI": 139264,
        "SOID": 43008,
        "SOS": 81,
        "SOUID": 0,
        "avg_str_len": 11.571428571428571,
        "n_execute_sections": 1,
        "n_import_funcs": 137,
        "n_imports": 14,
        "n_read_sections": 6,
        "n_sections": 6,
        "n_standart_sections": 4,
        "n_strings": 7,
        "n_symdols": 0,
        "n_write_and_execute_sections": 0,
        "n_write_sections": 1,
        "timestamp": 4173137584
    },
    "packer": "origin",
    "path": "../origin/MbaeParserTask.exe"
}