{
    ".data": {
        "entropy": 0.4207768933873117,
        "hash": "9f2317b19bf454fe",
        "is_executable": false,
        "is_readable": true,
        "is_writable": true,
        "is_writable_and_executable": false,
        "raw_size": 512,
        "raw_virtual_size_ratio": 0.2471042471042471,
        "virtual_size": 2072
    },
    ".rsrc": {
        "entropy": 4.372074515943605,
        "hash": "93c0fa37238a0ad4",
        "is_executable": false,
        "is_readable": true,
        "is_writable": false,
        "is_writable_and_executable": false,
        "raw_size": 2560,
        "raw_virtual_size_ratio": 1.118881118881119,
        "virtual_size": 2288
    },
    ".text": {
        "entropy": 6.039480132931664,
        "hash": "b05d354566681cab",
        "is_executable": true,
        "is_readable": true,
        "is_writable": false,
        "is_writable_and_executable": false,
        "raw_size": 12288,
        "raw_virtual_size_ratio": 1.0043318348998773,
        "virtual_size": 12235
    },
    "file": {
        "SOC": 12288,
        "SOH": 240,
        "SOHO": 1024,
        "SOI": 40960,
        "SOID": 12288,
        "SOS": 88,
        "SOUID": 0,
        "avg_str_len": 11.0,
        "n_execute_sections": 1,
        "n_import_funcs": 60,
        "n_imports": 9,
        "n_read_sections": 6,
        "n_sections": 6,
        "n_standart_sections": 4,
        "n_strings": 8,
        "n_symdols": 0,
        "n_write_and_execute_sections": 0,
        "n_write_sections": 1,
        "timestamp": 117217203
    },
    "packer": "origin",
    "path": "../origin/WallpaperHost.exe"
}