{
    ".data": {
        "entropy": 2.4315695590498496,
        "hash": "2e850fc15d41fc8d",
        "is_executable": false,
        "is_readable": true,
        "is_writable": true,
        "is_writable_and_executable": false,
        "raw_size": 1536,
        "raw_virtual_size_ratio": 0.35036496350364965,
        "virtual_size": 4384
    },
    ".rsrc": {
        "entropy": 5.233696050517244,
        "hash": "47150f1fe0be2f84",
        "is_executable": false,
        "is_readable": true,
        "is_writable": false,
        "is_writable_and_executable": false,
        "raw_size": 11776,
        "raw_virtual_size_ratio": 1.0250696378830084,
        "virtual_size": 11488
    },
    ".text": {
        "entropy": 6.238756391013748,
        "hash": "ba56f920790827e4",
        "is_executable": true,
        "is_readable": true,
        "is_writable": false,
        "is_writable_and_executable": false,
        "raw_size": 207360,
        "raw_virtual_size_ratio": 1.0004100832227716,
        "virtual_size": 207275
    },
    "file": {
        "SOC": 207360,
        "SOH": 240,
        "SOHO": 1024,
        "SOI": 339968,
        "SOID": 114688,
        "SOS": 86,
        "SOUID": 0,
        "avg_str_len": 10.75,
        "n_execute_sections": 1,
        "n_import_funcs": 211,
        "n_imports": 36,
        "n_read_sections": 6,
        "n_sections": 6,
        "n_standart_sections": 4,
        "n_strings": 8,
        "n_symdols": 0,
        "n_write_and_execute_sections": 0,
        "n_write_sections": 1,
        "timestamp": 1820215570
    },
    "packer": "origin",
    "path": "../origin/wpr.exe"
}