{
    ".data": {
        "entropy": 1.2187157425079107,
        "hash": "28fbcaeef20db537",
        "is_executable": false,
        "is_readable": true,
        "is_writable": true,
        "is_writable_and_executable": false,
        "raw_size": 2048,
        "raw_virtual_size_ratio": 0.3148831488314883,
        "virtual_size": 6504
    },
    ".rsrc": {
        "entropy": 4.311489922720199,
        "hash": "ad723257c8d91adc",
        "is_executable": false,
        "is_readable": true,
        "is_writable": false,
        "is_writable_and_executable": false,
        "raw_size": 67072,
        "raw_virtual_size_ratio": 1.0028708133971291,
        "virtual_size": 66880
    },
    ".text": {
        "entropy": 6.095191339886615,
        "hash": "5de89bbc13321b4f",
        "is_executable": true,
        "is_readable": true,
        "is_writable": false,
        "is_writable_and_executable": false,
        "raw_size": 143872,
        "raw_virtual_size_ratio": 1.002229157378511,
        "virtual_size": 143552
    },
    "file": {
        "SOC": 143872,
        "SOH": 240,
        "SOHO": 1024,
        "SOI": 294912,
        "SOID": 124416,
        "SOS": 94,
        "SOUID": 512,
        "avg_str_len": 10.444444444444445,
        "n_execute_sections": 1,
        "n_import_funcs": 365,
        "n_imports": 43,
        "n_read_sections": 8,
        "n_sections": 8,
        "n_standart_sections": 4,
        "n_strings": 9,
        "n_symdols": 0,
        "n_write_and_execute_sections": 0,
        "n_write_sections": 3,
        "timestamp": 289154580
    },
    "packer": "origin",
    "path": "../origin/SndVol.exe"
}