{
    ".data": {
        "entropy": 0.9805629636814158,
        "hash": "b90dc7db472731fc",
        "is_executable": false,
        "is_readable": true,
        "is_writable": true,
        "is_writable_and_executable": false,
        "raw_size": 2048,
        "raw_virtual_size_ratio": 0.6080760095011877,
        "virtual_size": 3368
    },
    ".rsrc": {
        "entropy": 3.7320609697516054,
        "hash": "304bb95898e75d38",
        "is_executable": false,
        "is_readable": true,
        "is_writable": false,
        "is_writable_and_executable": false,
        "raw_size": 2560,
        "raw_virtual_size_ratio": 1.245136186770428,
        "virtual_size": 2056
    },
    ".text": {
        "entropy": 6.252171318084646,
        "hash": "6a7139ec839dd462",
        "is_executable": true,
        "is_readable": true,
        "is_writable": false,
        "is_writable_and_executable": false,
        "raw_size": 33792,
        "raw_virtual_size_ratio": 1.0064931196759397,
        "virtual_size": 33574
    },
    "file": {
        "SOC": 33792,
        "SOH": 240,
        "SOHO": 1024,
        "SOI": 69632,
        "SOID": 20480,
        "SOS": 109,
        "SOUID": 0,
        "avg_str_len": 9.909090909090908,
        "n_execute_sections": 1,
        "n_import_funcs": 124,
        "n_imports": 30,
        "n_read_sections": 6,
        "n_sections": 6,
        "n_standart_sections": 4,
        "n_strings": 11,
        "n_symdols": 0,
        "n_write_and_execute_sections": 0,
        "n_write_sections": 1,
        "timestamp": 4042359103
    },
    "packer": "origin",
    "path": "../origin/relog.exe"
}