{
    ".data": {
        "entropy": 0.30140680731160896,
        "hash": "0f60556aa0a715a7",
        "is_executable": false,
        "is_readable": true,
        "is_writable": true,
        "is_writable_and_executable": false,
        "raw_size": 512,
        "raw_virtual_size_ratio": 0.30917874396135264,
        "virtual_size": 1656
    },
    ".rsrc": {
        "entropy": 4.595492262710684,
        "hash": "da8be344c5ac1b85",
        "is_executable": false,
        "is_readable": true,
        "is_writable": false,
        "is_writable_and_executable": false,
        "raw_size": 3584,
        "raw_virtual_size_ratio": 1.0228310502283104,
        "virtual_size": 3504
    },
    ".text": {
        "entropy": 5.743202736403257,
        "hash": "e3e459d90eafee4f",
        "is_executable": true,
        "is_readable": true,
        "is_writable": false,
        "is_writable_and_executable": false,
        "raw_size": 2560,
        "raw_virtual_size_ratio": 1.0126582278481013,
        "virtual_size": 2528
    },
    "file": {
        "SOC": 2560,
        "SOH": 240,
        "SOHO": 1024,
        "SOI": 28672,
        "SOID": 9216,
        "SOS": 86,
        "SOUID": 0,
        "avg_str_len": 10.75,
        "n_execute_sections": 1,
        "n_import_funcs": 31,
        "n_imports": 3,
        "n_read_sections": 6,
        "n_sections": 6,
        "n_standart_sections": 4,
        "n_strings": 8,
        "n_symdols": 0,
        "n_write_and_execute_sections": 0,
        "n_write_sections": 1,
        "timestamp": 1562963277
    },
    "packer": "origin",
    "path": "../origin/write.exe"
}