{
    ".data": {
        "entropy": 1.5132422109760943,
        "hash": "dd1198c1e62f4b80",
        "is_executable": false,
        "is_readable": true,
        "is_writable": true,
        "is_writable_and_executable": false,
        "raw_size": 512,
        "raw_virtual_size_ratio": 0.24060150375939848,
        "virtual_size": 2128
    },
    ".rsrc": {
        "entropy": 6.361707838814328,
        "hash": "f646a039e2463917",
        "is_executable": false,
        "is_readable": true,
        "is_writable": false,
        "is_writable_and_executable": false,
        "raw_size": 57344,
        "raw_virtual_size_ratio": 1.0044843049327354,
        "virtual_size": 57088
    },
    ".text": {
        "entropy": 5.88460701755481,
        "hash": "14c80bfcdee223a7",
        "is_executable": true,
        "is_readable": true,
        "is_writable": false,
        "is_writable_and_executable": false,
        "raw_size": 10240,
        "raw_virtual_size_ratio": 1.006685017695635,
        "virtual_size": 10172
    },
    "file": {
        "SOC": 10240,
        "SOH": 240,
        "SOHO": 1024,
        "SOI": 94208,
        "SOID": 68096,
        "SOS": 81,
        "SOUID": 0,
        "avg_str_len": 11.571428571428571,
        "n_execute_sections": 1,
        "n_import_funcs": 83,
        "n_imports": 6,
        "n_read_sections": 6,
        "n_sections": 6,
        "n_standart_sections": 4,
        "n_strings": 7,
        "n_symdols": 0,
        "n_write_and_execute_sections": 0,
        "n_write_sections": 1,
        "timestamp": 3795846155
    },
    "packer": "origin",
    "path": "../origin/PrintIsolationHost.exe"
}