{
    ".data": {
        "entropy": 2.1225446292290973,
        "hash": "470f24f91ac7c6ce",
        "is_executable": false,
        "is_readable": true,
        "is_writable": true,
        "is_writable_and_executable": false,
        "raw_size": 512,
        "raw_virtual_size_ratio": 0.19753086419753085,
        "virtual_size": 2592
    },
    ".rsrc": {
        "entropy": 4.141723340351698,
        "hash": "f00176f71441bc5c",
        "is_executable": false,
        "is_readable": true,
        "is_writable": false,
        "is_writable_and_executable": false,
        "raw_size": 6144,
        "raw_virtual_size_ratio": 1.0666666666666667,
        "virtual_size": 5760
    },
    ".text": {
        "entropy": 6.087386076037803,
        "hash": "fc3ce5773d00bcd2",
        "is_executable": true,
        "is_readable": true,
        "is_writable": false,
        "is_writable_and_executable": false,
        "raw_size": 28672,
        "raw_virtual_size_ratio": 1.0029733795081681,
        "virtual_size": 28587
    },
    "file": {
        "SOC": 28672,
        "SOH": 240,
        "SOHO": 1024,
        "SOI": 65536,
        "SOID": 22528,
        "SOS": 87,
        "SOUID": 0,
        "avg_str_len": 10.875,
        "n_execute_sections": 1,
        "n_import_funcs": 141,
        "n_imports": 18,
        "n_read_sections": 6,
        "n_sections": 6,
        "n_standart_sections": 4,
        "n_strings": 8,
        "n_symdols": 0,
        "n_write_and_execute_sections": 0,
        "n_write_sections": 1,
        "timestamp": 1099511499
    },
    "packer": "origin",
    "path": "../origin/proquota.exe"
}