{
    ".data": {
        "entropy": 0.3584113039007212,
        "hash": "640974b0ca5bc00d",
        "is_executable": false,
        "is_readable": true,
        "is_writable": true,
        "is_writable_and_executable": false,
        "raw_size": 512,
        "raw_virtual_size_ratio": 0.22857142857142856,
        "virtual_size": 2240
    },
    ".rsrc": {
        "entropy": 3.726945382501361,
        "hash": "48f3121780158ae3",
        "is_executable": false,
        "is_readable": true,
        "is_writable": false,
        "is_writable_and_executable": false,
        "raw_size": 2560,
        "raw_virtual_size_ratio": 1.2213740458015268,
        "virtual_size": 2096
    },
    ".text": {
        "entropy": 5.880513912057968,
        "hash": "44192183a303658e",
        "is_executable": true,
        "is_readable": true,
        "is_writable": false,
        "is_writable_and_executable": false,
        "raw_size": 9216,
        "raw_virtual_size_ratio": 1.03971119133574,
        "virtual_size": 8864
    },
    "file": {
        "SOC": 9216,
        "SOH": 240,
        "SOHO": 1024,
        "SOI": 36864,
        "SOID": 10240,
        "SOS": 95,
        "SOUID": 0,
        "avg_str_len": 10.555555555555555,
        "n_execute_sections": 1,
        "n_import_funcs": 54,
        "n_imports": 4,
        "n_read_sections": 6,
        "n_sections": 6,
        "n_standart_sections": 4,
        "n_strings": 9,
        "n_symdols": 0,
        "n_write_and_execute_sections": 0,
        "n_write_sections": 1,
        "timestamp": 1526034577
    },
    "packer": "origin",
    "path": "../origin/RmClient.exe"
}