{
    ".data": {
        "entropy": 0.30140680731160896,
        "hash": "863ebfe76cf5b8f7",
        "is_executable": false,
        "is_readable": true,
        "is_writable": true,
        "is_writable_and_executable": false,
        "raw_size": 512,
        "raw_virtual_size_ratio": 0.3076923076923077,
        "virtual_size": 1664
    },
    ".rsrc": {
        "entropy": 7.302073584648554,
        "hash": "fd50b70c98b22a16",
        "is_executable": false,
        "is_readable": true,
        "is_writable": false,
        "is_writable_and_executable": false,
        "raw_size": 62464,
        "raw_virtual_size_ratio": 1.001025641025641,
        "virtual_size": 62400
    },
    ".text": {
        "entropy": 5.453178046473486,
        "hash": "2dd700d9382ccde1",
        "is_executable": true,
        "is_readable": true,
        "is_writable": false,
        "is_writable_and_executable": false,
        "raw_size": 4608,
        "raw_virtual_size_ratio": 1.1206225680933852,
        "virtual_size": 4112
    },
    "file": {
        "SOC": 4608,
        "SOH": 240,
        "SOHO": 1024,
        "SOI": 98304,
        "SOID": 70144,
        "SOS": 86,
        "SOUID": 0,
        "avg_str_len": 10.75,
        "n_execute_sections": 1,
        "n_import_funcs": 58,
        "n_imports": 3,
        "n_read_sections": 6,
        "n_sections": 6,
        "n_standart_sections": 4,
        "n_strings": 8,
        "n_symdols": 0,
        "n_write_and_execute_sections": 0,
        "n_write_sections": 1,
        "timestamp": 735046256
    },
    "packer": "origin",
    "path": "../origin/odbcad32.exe"
}