{
    ".data": {
        "entropy": 0.356223464182349,
        "hash": "c9387f07ed187689",
        "is_executable": false,
        "is_readable": true,
        "is_writable": true,
        "is_writable_and_executable": false,
        "raw_size": 512,
        "raw_virtual_size_ratio": 0.18233618233618235,
        "virtual_size": 2808
    },
    ".rsrc": {
        "entropy": 4.301210483463658,
        "hash": "9a6a093a89452fc4",
        "is_executable": false,
        "is_readable": true,
        "is_writable": false,
        "is_writable_and_executable": false,
        "raw_size": 3072,
        "raw_virtual_size_ratio": 1.0185676392572944,
        "virtual_size": 3016
    },
    ".text": {
        "entropy": 5.95092265934692,
        "hash": "def5506861b1c319",
        "is_executable": true,
        "is_readable": true,
        "is_writable": false,
        "is_writable_and_executable": false,
        "raw_size": 22528,
        "raw_virtual_size_ratio": 1.0151405912040374,
        "virtual_size": 22192
    },
    "file": {
        "SOC": 22528,
        "SOH": 240,
        "SOHO": 1024,
        "SOI": 61440,
        "SOID": 24064,
        "SOS": 163,
        "SOUID": 0,
        "avg_str_len": 16.3,
        "n_execute_sections": 1,
        "n_import_funcs": 131,
        "n_imports": 5,
        "n_read_sections": 6,
        "n_sections": 6,
        "n_standart_sections": 4,
        "n_strings": 10,
        "n_symdols": 0,
        "n_write_and_execute_sections": 0,
        "n_write_sections": 1,
        "timestamp": 1484518968
    },
    "packer": "origin",
    "path": "../origin/cmmon32.exe"
}