{
    ".data": {
        "entropy": 2.76311255973368,
        "hash": "fc699129208a8909",
        "is_executable": false,
        "is_readable": true,
        "is_writable": true,
        "is_writable_and_executable": false,
        "raw_size": 512,
        "raw_virtual_size_ratio": 0.20317460317460317,
        "virtual_size": 2520
    },
    ".rsrc": {
        "entropy": 2.456562831560415,
        "hash": "6e489243e818f2c1",
        "is_executable": false,
        "is_readable": true,
        "is_writable": false,
        "is_writable_and_executable": false,
        "raw_size": 1536,
        "raw_virtual_size_ratio": 1.4883720930232558,
        "virtual_size": 1032
    },
    ".text": {
        "entropy": 5.965057787821638,
        "hash": "6fe1c8766a475eac",
        "is_executable": true,
        "is_readable": true,
        "is_writable": false,
        "is_writable_and_executable": false,
        "raw_size": 24064,
        "raw_virtual_size_ratio": 1.0169462874529858,
        "virtual_size": 23663
    },
    "file": {
        "SOC": 24064,
        "SOH": 240,
        "SOHO": 1024,
        "SOI": 61440,
        "SOID": 22016,
        "SOS": 87,
        "SOUID": 0,
        "avg_str_len": 10.875,
        "n_execute_sections": 1,
        "n_import_funcs": 93,
        "n_imports": 16,
        "n_read_sections": 6,
        "n_sections": 6,
        "n_standart_sections": 4,
        "n_strings": 8,
        "n_symdols": 0,
        "n_write_and_execute_sections": 0,
        "n_write_sections": 1,
        "timestamp": 2280612440
    },
    "packer": "origin",
    "path": "../origin/LaunchWinApp.exe"
}