{
    ".data": {
        "entropy": 3.3426265004501516,
        "hash": "db25296c939bb31a",
        "is_executable": false,
        "is_readable": true,
        "is_writable": true,
        "is_writable_and_executable": false,
        "raw_size": 6656,
        "raw_virtual_size_ratio": 0.5826330532212886,
        "virtual_size": 11424
    },
    ".rsrc": {
        "entropy": 3.7465245653368835,
        "hash": "9de65d65b5aaaba4",
        "is_executable": false,
        "is_readable": true,
        "is_writable": false,
        "is_writable_and_executable": false,
        "raw_size": 2560,
        "raw_virtual_size_ratio": 1.2260536398467432,
        "virtual_size": 2088
    },
    ".text": {
        "entropy": 6.138662219621663,
        "hash": "87754e777bf0d7f8",
        "is_executable": true,
        "is_readable": true,
        "is_writable": false,
        "is_writable_and_executable": false,
        "raw_size": 52736,
        "raw_virtual_size_ratio": 1.0048780487804878,
        "virtual_size": 52480
    },
    "file": {
        "SOC": 52736,
        "SOH": 240,
        "SOHO": 1024,
        "SOI": 118784,
        "SOID": 47616,
        "SOS": 87,
        "SOUID": 0,
        "avg_str_len": 10.875,
        "n_execute_sections": 1,
        "n_import_funcs": 175,
        "n_imports": 34,
        "n_read_sections": 7,
        "n_sections": 7,
        "n_standart_sections": 4,
        "n_strings": 8,
        "n_symdols": 0,
        "n_write_and_execute_sections": 0,
        "n_write_sections": 2,
        "timestamp": 1235622623
    },
    "packer": "origin",
    "path": "../origin/powercfg.exe"
}