^C:\USERS\THESIS\SOURCE\REPOS\STUB\STUB1\X64\RELEASE\SOURCE.OBJ|C:\USERS\THESIS\SOURCE\REPOS\STUB\STUB1\X64\RELEASE\STUB1.RES
/OUT:"C:\USERS\THESIS\SOURCE\REPOS\STUB\X64\RELEASE\STUB1.EXE" /INCREMENTAL:NO /NOLOGO KERNEL32.LIB USER32.LIB GDI32.LIB WINSPOOL.LIB COMDLG32.LIB ADVAPI32.LIB SHELL32.LIB OLE32.LIB OLEAUT32.LIB UUID.LIB ODBC32.LIB ODBCCP32.LIB /MANIFEST /MANIFESTUAC:"level='asInvoker' uiAccess='false'" /manifest:embed /DEBUG /PDB:"C:\USERS\THESIS\SOURCE\REPOS\STUB\X64\RELEASE\STUB1.PDB" /SUBSYSTEM:CONSOLE /OPT:REF /OPT:ICF /LTCG:incremental /LTCGOUT:"X64\RELEASE\STUB1.IOBJ" /TLBID:1 /DYNAMICBASE /NXCOMPAT /IMPLIB:"C:\USERS\THESIS\SOURCE\REPOS\STUB\X64\RELEASE\STUB1.LIB" /MACHINE:X64 X64\RELEASE\STUB1.RES
X64\RELEASE\SOURCE.OBJ
