{
    ".data": {
        "entropy": 2.0102660145116644,
        "hash": "a2f0a401ad26b7cc",
        "is_executable": false,
        "is_readable": true,
        "is_writable": true,
        "is_writable_and_executable": false,
        "raw_size": 512,
        "raw_virtual_size_ratio": 0.25,
        "virtual_size": 2048
    },
    ".rsrc": {
        "entropy": 6.9331894906996006,
        "hash": "4229115ba08945f8",
        "is_executable": false,
        "is_readable": true,
        "is_writable": false,
        "is_writable_and_executable": false,
        "raw_size": 175104,
        "raw_virtual_size_ratio": 1.002656894182318,
        "virtual_size": 174640
    },
    ".text": {
        "entropy": 5.920842111603002,
        "hash": "7db8f892ece91801",
        "is_executable": true,
        "is_readable": true,
        "is_writable": false,
        "is_writable_and_executable": false,
        "raw_size": 6144,
        "raw_virtual_size_ratio": 1.050435971961019,
        "virtual_size": 5849
    },
    "file": {
        "SOC": 6144,
        "SOH": 240,
        "SOHO": 1024,
        "SOI": 208896,
        "SOID": 183808,
        "SOS": 81,
        "SOUID": 0,
        "avg_str_len": 11.571428571428571,
        "n_execute_sections": 1,
        "n_import_funcs": 70,
        "n_imports": 9,
        "n_read_sections": 6,
        "n_sections": 6,
        "n_standart_sections": 4,
        "n_strings": 7,
        "n_symdols": 0,
        "n_write_and_execute_sections": 0,
        "n_write_sections": 1,
        "timestamp": 1619920526
    },
    "packer": "stub2",
    "path": "../stub2/output/fvenotify.exe"
}