{
    ".data": {
        "entropy": 2.0102660145116644,
        "hash": "4da23c2ac2703592",
        "is_executable": false,
        "is_readable": true,
        "is_writable": true,
        "is_writable_and_executable": false,
        "raw_size": 512,
        "raw_virtual_size_ratio": 0.25,
        "virtual_size": 2048
    },
    ".rsrc": {
        "entropy": 6.566098390654324,
        "hash": "12dffdc83090bd44",
        "is_executable": false,
        "is_readable": true,
        "is_writable": false,
        "is_writable_and_executable": false,
        "raw_size": 188416,
        "raw_virtual_size_ratio": 1.0024687154167022,
        "virtual_size": 187952
    },
    ".text": {
        "entropy": 5.920842111603002,
        "hash": "4a5db181a9526578",
        "is_executable": true,
        "is_readable": true,
        "is_writable": false,
        "is_writable_and_executable": false,
        "raw_size": 6144,
        "raw_virtual_size_ratio": 1.050435971961019,
        "virtual_size": 5849
    },
    "file": {
        "SOC": 6144,
        "SOH": 240,
        "SOHO": 1024,
        "SOI": 221184,
        "SOID": 197120,
        "SOS": 81,
        "SOUID": 0,
        "avg_str_len": 11.571428571428571,
        "n_execute_sections": 1,
        "n_import_funcs": 70,
        "n_imports": 9,
        "n_read_sections": 6,
        "n_sections": 6,
        "n_standart_sections": 4,
        "n_strings": 7,
        "n_symdols": 0,
        "n_write_and_execute_sections": 0,
        "n_write_sections": 1,
        "timestamp": 1619920526
    },
    "packer": "stub2",
    "path": "../stub2/output/RelPost.exe"
}