{
    ".data": {
        "entropy": 2.0102660145116644,
        "hash": "1153365303dd2ae3",
        "is_executable": false,
        "is_readable": true,
        "is_writable": true,
        "is_writable_and_executable": false,
        "raw_size": 512,
        "raw_virtual_size_ratio": 0.25,
        "virtual_size": 2048
    },
    ".rsrc": {
        "entropy": 5.956763007170412,
        "hash": "a8bf96486578c38f",
        "is_executable": false,
        "is_readable": true,
        "is_writable": false,
        "is_writable_and_executable": false,
        "raw_size": 58368,
        "raw_virtual_size_ratio": 1.0077348066298342,
        "virtual_size": 57920
    },
    ".text": {
        "entropy": 5.920842111603002,
        "hash": "a2a1bc4b31c1eb17",
        "is_executable": true,
        "is_readable": true,
        "is_writable": false,
        "is_writable_and_executable": false,
        "raw_size": 6144,
        "raw_virtual_size_ratio": 1.050435971961019,
        "virtual_size": 5849
    },
    "file": {
        "SOC": 6144,
        "SOH": 240,
        "SOHO": 1024,
        "SOI": 94208,
        "SOID": 67072,
        "SOS": 81,
        "SOUID": 0,
        "avg_str_len": 11.571428571428571,
        "n_execute_sections": 1,
        "n_import_funcs": 70,
        "n_imports": 9,
        "n_read_sections": 6,
        "n_sections": 6,
        "n_standart_sections": 4,
        "n_strings": 7,
        "n_symdols": 0,
        "n_write_and_execute_sections": 0,
        "n_write_sections": 1,
        "timestamp": 1619920526
    },
    "packer": "stub2",
    "path": "../stub2/output/svchost.exe"
}