{
    ".data": {
        "entropy": 2.816599079533641,
        "hash": "b412026d957a5879",
        "is_executable": false,
        "is_readable": true,
        "is_writable": true,
        "is_writable_and_executable": false,
        "raw_size": 512,
        "raw_virtual_size_ratio": 0.1763085399449036,
        "virtual_size": 2904
    },
    ".rsrc": {
        "entropy": 3.864368206073816,
        "hash": "907d795e05a15726",
        "is_executable": false,
        "is_readable": true,
        "is_writable": false,
        "is_writable_and_executable": false,
        "raw_size": 2560,
        "raw_virtual_size_ratio": 1.2403100775193798,
        "virtual_size": 2064
    },
    ".text": {
        "entropy": 6.052687833873768,
        "hash": "220eb260564a9b09",
        "is_executable": true,
        "is_readable": true,
        "is_writable": false,
        "is_writable_and_executable": false,
        "raw_size": 40448,
        "raw_virtual_size_ratio": 1.0040710952239102,
        "virtual_size": 40284
    },
    "file": {
        "SOC": 40448,
        "SOH": 240,
        "SOHO": 1024,
        "SOI": 86016,
        "SOID": 30208,
        "SOS": 88,
        "SOUID": 512,
        "avg_str_len": 11.0,
        "n_execute_sections": 1,
        "n_import_funcs": 103,
        "n_imports": 19,
        "n_read_sections": 7,
        "n_sections": 7,
        "n_standart_sections": 4,
        "n_strings": 8,
        "n_symdols": 0,
        "n_write_and_execute_sections": 0,
        "n_write_sections": 2,
        "timestamp": 2874938849
    },
    "packer": "origin",
    "path": "../origin/ApplicationFrameHost.exe"
}