{
    ".rsrc": {
        "entropy": 4.652913052835478,
        "hash": "9552eecabf839275",
        "is_executable": false,
        "is_readable": true,
        "is_writable": true,
        "is_writable_and_executable": false,
        "raw_size": 6656,
        "raw_virtual_size_ratio": 0.8125,
        "virtual_size": 8192
    },
    "file": {
        "SOC": 45056,
        "SOH": 240,
        "SOHO": 4096,
        "SOI": 131072,
        "SOID": 8192,
        "SOS": 60,
        "SOUID": 73728,
        "avg_str_len": 15.0,
        "n_execute_sections": 2,
        "n_import_funcs": 40,
        "n_imports": 37,
        "n_read_sections": 3,
        "n_sections": 3,
        "n_standart_sections": 1,
        "n_strings": 4,
        "n_symdols": 0,
        "n_write_and_execute_sections": 2,
        "n_write_sections": 3,
        "timestamp": 1609860367
    },
    "packer": "upx",
    "path": "../upx/data/DiagnosticsHub.StandardCollector.Service.exe"
}