{
    ".rsrc": {
        "entropy": 4.353413367131762,
        "hash": "eb8ccd36bb278e8a",
        "is_executable": false,
        "is_readable": true,
        "is_writable": true,
        "is_writable_and_executable": false,
        "raw_size": 4096,
        "raw_virtual_size_ratio": 1.0,
        "virtual_size": 4096
    },
    "file": {
        "SOC": 40960,
        "SOH": 240,
        "SOHO": 4096,
        "SOI": 106496,
        "SOID": 4096,
        "SOS": 100,
        "SOUID": 57344,
        "avg_str_len": 14.285714285714286,
        "n_execute_sections": 2,
        "n_import_funcs": 24,
        "n_imports": 21,
        "n_read_sections": 3,
        "n_sections": 3,
        "n_standart_sections": 1,
        "n_strings": 7,
        "n_symdols": 0,
        "n_write_and_execute_sections": 2,
        "n_write_sections": 3,
        "timestamp": 3287780476
    },
    "packer": "upx",
    "path": "../upx/data/lpremove.exe"
}