{
    ".rsrc": {
        "entropy": 7.156975222165376,
        "hash": "3a531819120ff15c",
        "is_executable": false,
        "is_readable": true,
        "is_writable": true,
        "is_writable_and_executable": false,
        "raw_size": 76800,
        "raw_virtual_size_ratio": 0.9868421052631579,
        "virtual_size": 77824
    },
    "file": {
        "SOC": 49152,
        "SOH": 240,
        "SOHO": 4096,
        "SOI": 307200,
        "SOID": 77824,
        "SOS": 68,
        "SOUID": 176128,
        "avg_str_len": 13.6,
        "n_execute_sections": 2,
        "n_import_funcs": 17,
        "n_imports": 14,
        "n_read_sections": 3,
        "n_sections": 3,
        "n_standart_sections": 1,
        "n_strings": 5,
        "n_symdols": 0,
        "n_write_and_execute_sections": 2,
        "n_write_sections": 3,
        "timestamp": 1234335081
    },
    "packer": "upx",
    "path": "../upx/data/msconfig.exe"
}