{
    ".rsrc": {
        "entropy": 4.240072745918134,
        "hash": "73f81bdac1928bdf",
        "is_executable": false,
        "is_readable": true,
        "is_writable": true,
        "is_writable_and_executable": false,
        "raw_size": 4608,
        "raw_virtual_size_ratio": 0.5625,
        "virtual_size": 8192
    },
    "file": {
        "SOC": 24576,
        "SOH": 240,
        "SOHO": 4096,
        "SOI": 94208,
        "SOID": 8192,
        "SOS": 55,
        "SOUID": 57344,
        "avg_str_len": 18.333333333333332,
        "n_execute_sections": 2,
        "n_import_funcs": 31,
        "n_imports": 28,
        "n_read_sections": 3,
        "n_sections": 3,
        "n_standart_sections": 1,
        "n_strings": 3,
        "n_symdols": 0,
        "n_write_and_execute_sections": 2,
        "n_write_sections": 3,
        "timestamp": 3997524395
    },
    "packer": "upx",
    "path": "../upx/data/scrcons.exe"
}