{
    ".rsrc": {
        "entropy": 4.506695858356251,
        "hash": "628bb9a5142af52c",
        "is_executable": false,
        "is_readable": true,
        "is_writable": true,
        "is_writable_and_executable": false,
        "raw_size": 3584,
        "raw_virtual_size_ratio": 0.875,
        "virtual_size": 4096
    },
    "file": {
        "SOC": 57344,
        "SOH": 240,
        "SOHO": 4096,
        "SOI": 135168,
        "SOID": 4096,
        "SOS": 77,
        "SOUID": 69632,
        "avg_str_len": 12.833333333333334,
        "n_execute_sections": 2,
        "n_import_funcs": 22,
        "n_imports": 19,
        "n_read_sections": 3,
        "n_sections": 3,
        "n_standart_sections": 1,
        "n_strings": 6,
        "n_symdols": 0,
        "n_write_and_execute_sections": 2,
        "n_write_sections": 3,
        "timestamp": 3332736396
    },
    "packer": "upx",
    "path": "../upx/data/tpmvscmgr.exe"
}