{
    ".rsrc": {
        "entropy": 4.268658322415338,
        "hash": "f60b4437ab98fce8",
        "is_executable": false,
        "is_readable": true,
        "is_writable": true,
        "is_writable_and_executable": false,
        "raw_size": 3072,
        "raw_virtual_size_ratio": 0.75,
        "virtual_size": 4096
    },
    "file": {
        "SOC": 12288,
        "SOH": 240,
        "SOHO": 4096,
        "SOI": 57344,
        "SOID": 4096,
        "SOS": 60,
        "SOUID": 36864,
        "avg_str_len": 15.0,
        "n_execute_sections": 2,
        "n_import_funcs": 15,
        "n_imports": 12,
        "n_read_sections": 3,
        "n_sections": 3,
        "n_standart_sections": 1,
        "n_strings": 4,
        "n_symdols": 0,
        "n_write_and_execute_sections": 2,
        "n_write_sections": 3,
        "timestamp": 1992326709
    },
    "packer": "upx",
    "path": "../upx/data/attrib.exe"
}