{
    ".rsrc": {
        "entropy": 4.414885739205911,
        "hash": "3e3bb8103e425149",
        "is_executable": false,
        "is_readable": true,
        "is_writable": true,
        "is_writable_and_executable": false,
        "raw_size": 4608,
        "raw_virtual_size_ratio": 0.5625,
        "virtual_size": 8192
    },
    "file": {
        "SOC": 36864,
        "SOH": 240,
        "SOHO": 4096,
        "SOI": 122880,
        "SOID": 8192,
        "SOS": 60,
        "SOUID": 73728,
        "avg_str_len": 15.0,
        "n_execute_sections": 2,
        "n_import_funcs": 29,
        "n_imports": 26,
        "n_read_sections": 3,
        "n_sections": 3,
        "n_standart_sections": 1,
        "n_strings": 4,
        "n_symdols": 0,
        "n_write_and_execute_sections": 2,
        "n_write_sections": 3,
        "timestamp": 3242488608
    },
    "packer": "upx",
    "path": "../upx/data/taskhostw.exe"
}