{
    "file": {
        "SOC": 69632,
        "SOH": 240,
        "SOHO": 4096,
        "SOI": 196608,
        "SOID": 4096,
        "SOS": 56,
        "SOUID": 118784,
        "avg_str_len": 18.666666666666668,
        "n_execute_sections": 2,
        "n_import_funcs": 40,
        "n_imports": 37,
        "n_read_sections": 3,
        "n_sections": 3,
        "n_standart_sections": 0,
        "n_strings": 3,
        "n_symdols": 0,
        "n_write_and_execute_sections": 2,
        "n_write_sections": 3,
        "timestamp": 3655092612
    },
    "packer": "upx",
    "path": "../upx/data/DataStoreCacheDumpTool.exe"
}