{
    ".rsrc": {
        "entropy": 4.3023475355329985,
        "hash": "29ffa81b87898e71",
        "is_executable": false,
        "is_readable": true,
        "is_writable": true,
        "is_writable_and_executable": false,
        "raw_size": 3584,
        "raw_virtual_size_ratio": 0.875,
        "virtual_size": 4096
    },
    "file": {
        "SOC": 16384,
        "SOH": 240,
        "SOHO": 4096,
        "SOI": 61440,
        "SOID": 4096,
        "SOS": 55,
        "SOUID": 36864,
        "avg_str_len": 18.333333333333332,
        "n_execute_sections": 2,
        "n_import_funcs": 20,
        "n_imports": 17,
        "n_read_sections": 3,
        "n_sections": 3,
        "n_standart_sections": 1,
        "n_strings": 3,
        "n_symdols": 0,
        "n_write_and_execute_sections": 2,
        "n_write_sections": 3,
        "timestamp": 2150294999
    },
    "packer": "upx",
    "path": "../upx/data/dnscacheugc.exe"
}