{
    ".rsrc": {
        "entropy": 4.540377068881652,
        "hash": "26e58df9d63c8998",
        "is_executable": false,
        "is_readable": true,
        "is_writable": true,
        "is_writable_and_executable": false,
        "raw_size": 5120,
        "raw_virtual_size_ratio": 0.625,
        "virtual_size": 8192
    },
    "file": {
        "SOC": 28672,
        "SOH": 240,
        "SOHO": 4096,
        "SOI": 102400,
        "SOID": 8192,
        "SOS": 62,
        "SOUID": 61440,
        "avg_str_len": 15.5,
        "n_execute_sections": 2,
        "n_import_funcs": 34,
        "n_imports": 31,
        "n_read_sections": 3,
        "n_sections": 3,
        "n_standart_sections": 1,
        "n_strings": 4,
        "n_symdols": 0,
        "n_write_and_execute_sections": 2,
        "n_write_sections": 3,
        "timestamp": 43844110
    },
    "packer": "upx",
    "path": "../upx/data/EASPolicyManagerBrokerHost.exe"
}