{
    ".rsrc": {
        "entropy": 3.9495806875302675,
        "hash": "87a4dd0c13b841d7",
        "is_executable": false,
        "is_readable": true,
        "is_writable": true,
        "is_writable_and_executable": false,
        "raw_size": 35328,
        "raw_virtual_size_ratio": 0.9583333333333334,
        "virtual_size": 36864
    },
    "file": {
        "SOC": 36864,
        "SOH": 240,
        "SOHO": 4096,
        "SOI": 180224,
        "SOID": 36864,
        "SOS": 55,
        "SOUID": 102400,
        "avg_str_len": 18.333333333333332,
        "n_execute_sections": 2,
        "n_import_funcs": 27,
        "n_imports": 24,
        "n_read_sections": 3,
        "n_sections": 3,
        "n_standart_sections": 1,
        "n_strings": 3,
        "n_symdols": 0,
        "n_write_and_execute_sections": 2,
        "n_write_sections": 3,
        "timestamp": 2730675944
    },
    "packer": "upx",
    "path": "../upx/data/wsqmcons.exe"
}