{
    ".rsrc": {
        "entropy": 4.378961923635457,
        "hash": "0f26cdd6a7698310",
        "is_executable": false,
        "is_readable": true,
        "is_writable": true,
        "is_writable_and_executable": false,
        "raw_size": 4096,
        "raw_virtual_size_ratio": 1.0,
        "virtual_size": 4096
    },
    "file": {
        "SOC": 24576,
        "SOH": 240,
        "SOHO": 4096,
        "SOI": 90112,
        "SOID": 4096,
        "SOS": 61,
        "SOUID": 57344,
        "avg_str_len": 15.25,
        "n_execute_sections": 2,
        "n_import_funcs": 18,
        "n_imports": 15,
        "n_read_sections": 3,
        "n_sections": 3,
        "n_standart_sections": 1,
        "n_strings": 4,
        "n_symdols": 0,
        "n_write_and_execute_sections": 2,
        "n_write_sections": 3,
        "timestamp": 2852809426
    },
    "packer": "upx",
    "path": "../upx/data/UserOOBEBroker.exe"
}