{
    ".rsrc": {
        "entropy": 3.915118542268666,
        "hash": "3c22f454c5b4d7d8",
        "is_executable": false,
        "is_readable": true,
        "is_writable": true,
        "is_writable_and_executable": false,
        "raw_size": 2560,
        "raw_virtual_size_ratio": 0.625,
        "virtual_size": 4096
    },
    "file": {
        "SOC": 8192,
        "SOH": 240,
        "SOHO": 4096,
        "SOI": 45056,
        "SOID": 4096,
        "SOS": 55,
        "SOUID": 28672,
        "avg_str_len": 18.333333333333332,
        "n_execute_sections": 2,
        "n_import_funcs": 7,
        "n_imports": 4,
        "n_read_sections": 3,
        "n_sections": 3,
        "n_standart_sections": 1,
        "n_strings": 3,
        "n_symdols": 0,
        "n_write_and_execute_sections": 2,
        "n_write_sections": 3,
        "timestamp": 1281175006
    },
    "packer": "upx",
    "path": "../upx/data/MigRegDB.exe"
}