{
    ".rsrc": {
        "entropy": 7.129882138599685,
        "hash": "489d285a94c0517a",
        "is_executable": false,
        "is_readable": true,
        "is_writable": true,
        "is_writable_and_executable": false,
        "raw_size": 83968,
        "raw_virtual_size_ratio": 0.9761904761904762,
        "virtual_size": 86016
    },
    "file": {
        "SOC": 24576,
        "SOH": 240,
        "SOHO": 4096,
        "SOI": 241664,
        "SOID": 86016,
        "SOS": 55,
        "SOUID": 126976,
        "avg_str_len": 18.333333333333332,
        "n_execute_sections": 2,
        "n_import_funcs": 20,
        "n_imports": 17,
        "n_read_sections": 3,
        "n_sections": 3,
        "n_standart_sections": 1,
        "n_strings": 3,
        "n_symdols": 0,
        "n_write_and_execute_sections": 2,
        "n_write_sections": 3,
        "timestamp": 2564149526
    },
    "packer": "upx",
    "path": "../upx/data/fontview.exe"
}