{
    ".rsrc": {
        "entropy": 3.8440722250018813,
        "hash": "51cf6c80a1211c63",
        "is_executable": false,
        "is_readable": true,
        "is_writable": true,
        "is_writable_and_executable": false,
        "raw_size": 3584,
        "raw_virtual_size_ratio": 0.875,
        "virtual_size": 4096
    },
    "file": {
        "SOC": 139264,
        "SOH": 240,
        "SOHO": 4096,
        "SOI": 335872,
        "SOID": 4096,
        "SOS": 83,
        "SOUID": 188416,
        "avg_str_len": 11.857142857142858,
        "n_execute_sections": 2,
        "n_import_funcs": 26,
        "n_imports": 23,
        "n_read_sections": 3,
        "n_sections": 3,
        "n_standart_sections": 1,
        "n_strings": 7,
        "n_symdols": 0,
        "n_write_and_execute_sections": 2,
        "n_write_sections": 3,
        "timestamp": 2349374662
    },
    "packer": "upx",
    "path": "../upx/data/GameBarPresenceWriter.exe"
}