{
    ".rsrc": {
        "entropy": 3.900846912448792,
        "hash": "092f75c6a23193d4",
        "is_executable": false,
        "is_readable": true,
        "is_writable": true,
        "is_writable_and_executable": false,
        "raw_size": 4608,
        "raw_virtual_size_ratio": 0.5625,
        "virtual_size": 8192
    },
    "file": {
        "SOC": 61440,
        "SOH": 240,
        "SOHO": 4096,
        "SOI": 180224,
        "SOID": 8192,
        "SOS": 61,
        "SOUID": 106496,
        "avg_str_len": 15.25,
        "n_execute_sections": 2,
        "n_import_funcs": 39,
        "n_imports": 36,
        "n_read_sections": 3,
        "n_sections": 3,
        "n_standart_sections": 1,
        "n_strings": 4,
        "n_symdols": 0,
        "n_write_and_execute_sections": 2,
        "n_write_sections": 3,
        "timestamp": 969981864
    },
    "packer": "upx",
    "path": "../upx/data/browserexport.exe"
}