{
    ".rsrc": {
        "entropy": 4.559535735655804,
        "hash": "645af9459b4a0ade",
        "is_executable": false,
        "is_readable": true,
        "is_writable": true,
        "is_writable_and_executable": false,
        "raw_size": 6144,
        "raw_virtual_size_ratio": 0.75,
        "virtual_size": 8192
    },
    "file": {
        "SOC": 24576,
        "SOH": 240,
        "SOHO": 4096,
        "SOI": 90112,
        "SOID": 8192,
        "SOS": 60,
        "SOUID": 53248,
        "avg_str_len": 15.0,
        "n_execute_sections": 2,
        "n_import_funcs": 13,
        "n_imports": 10,
        "n_read_sections": 3,
        "n_sections": 3,
        "n_standart_sections": 1,
        "n_strings": 4,
        "n_symdols": 0,
        "n_write_and_execute_sections": 2,
        "n_write_sections": 3,
        "timestamp": 1471945092
    },
    "packer": "upx",
    "path": "../upx/data/BdeUISrv.exe"
}