{
    ".rsrc": {
        "entropy": 4.416098105731993,
        "hash": "7068c19ac40caaa4",
        "is_executable": false,
        "is_readable": true,
        "is_writable": true,
        "is_writable_and_executable": false,
        "raw_size": 4096,
        "raw_virtual_size_ratio": 1.0,
        "virtual_size": 4096
    },
    "file": {
        "SOC": 20480,
        "SOH": 240,
        "SOHO": 4096,
        "SOI": 90112,
        "SOID": 4096,
        "SOS": 62,
        "SOUID": 61440,
        "avg_str_len": 15.5,
        "n_execute_sections": 2,
        "n_import_funcs": 26,
        "n_imports": 23,
        "n_read_sections": 3,
        "n_sections": 3,
        "n_standart_sections": 1,
        "n_strings": 4,
        "n_symdols": 0,
        "n_write_and_execute_sections": 2,
        "n_write_sections": 3,
        "timestamp": 2492171523
    },
    "packer": "upx",
    "path": "../upx/data/unsecapp.exe"
}