{
    ".rsrc": {
        "entropy": 3.8672167746927086,
        "hash": "a224648c3d8e9596",
        "is_executable": false,
        "is_readable": true,
        "is_writable": true,
        "is_writable_and_executable": false,
        "raw_size": 2560,
        "raw_virtual_size_ratio": 0.625,
        "virtual_size": 4096
    },
    "file": {
        "SOC": 86016,
        "SOH": 240,
        "SOHO": 4096,
        "SOI": 212992,
        "SOID": 4096,
        "SOS": 55,
        "SOUID": 118784,
        "avg_str_len": 18.333333333333332,
        "n_execute_sections": 2,
        "n_import_funcs": 10,
        "n_imports": 7,
        "n_read_sections": 3,
        "n_sections": 3,
        "n_standart_sections": 1,
        "n_strings": 3,
        "n_symdols": 0,
        "n_write_and_execute_sections": 2,
        "n_write_sections": 3,
        "timestamp": 1988877761
    },
    "packer": "upx",
    "path": "../upx/data/Robocopy.exe"
}