{
    ".rsrc": {
        "entropy": 4.1198378364272275,
        "hash": "bd2eb170fa1ab80b",
        "is_executable": false,
        "is_readable": true,
        "is_writable": true,
        "is_writable_and_executable": false,
        "raw_size": 3072,
        "raw_virtual_size_ratio": 0.75,
        "virtual_size": 4096
    },
    "file": {
        "SOC": 45056,
        "SOH": 240,
        "SOHO": 4096,
        "SOI": 139264,
        "SOID": 4096,
        "SOS": 60,
        "SOUID": 86016,
        "avg_str_len": 15.0,
        "n_execute_sections": 2,
        "n_import_funcs": 16,
        "n_imports": 13,
        "n_read_sections": 3,
        "n_sections": 3,
        "n_standart_sections": 1,
        "n_strings": 4,
        "n_symdols": 0,
        "n_write_and_execute_sections": 2,
        "n_write_sections": 3,
        "timestamp": 122932528
    },
    "packer": "upx",
    "path": "../upx/data/systeminfo.exe"
}