{
    ".rsrc": {
        "entropy": 4.499861485354647,
        "hash": "8ed2fd4fd0df8046",
        "is_executable": false,
        "is_readable": true,
        "is_writable": true,
        "is_writable_and_executable": false,
        "raw_size": 26112,
        "raw_virtual_size_ratio": 0.9107142857142857,
        "virtual_size": 28672
    },
    "file": {
        "SOC": 57344,
        "SOH": 240,
        "SOHO": 4096,
        "SOI": 221184,
        "SOID": 28672,
        "SOS": 60,
        "SOUID": 131072,
        "avg_str_len": 15.0,
        "n_execute_sections": 2,
        "n_import_funcs": 10,
        "n_imports": 7,
        "n_read_sections": 3,
        "n_sections": 3,
        "n_standart_sections": 1,
        "n_strings": 4,
        "n_symdols": 0,
        "n_write_and_execute_sections": 2,
        "n_write_sections": 3,
        "timestamp": 43372803
    },
    "packer": "upx",
    "path": "../upx/data/cscript.exe"
}