{
    ".rsrc": {
        "entropy": 4.764807502778357,
        "hash": "0bd29e93d5bf7ea1",
        "is_executable": false,
        "is_readable": true,
        "is_writable": true,
        "is_writable_and_executable": false,
        "raw_size": 55296,
        "raw_virtual_size_ratio": 0.9642857142857143,
        "virtual_size": 57344
    },
    "file": {
        "SOC": 24576,
        "SOH": 240,
        "SOHO": 4096,
        "SOI": 192512,
        "SOID": 57344,
        "SOS": 55,
        "SOUID": 106496,
        "avg_str_len": 18.333333333333332,
        "n_execute_sections": 2,
        "n_import_funcs": 18,
        "n_imports": 15,
        "n_read_sections": 3,
        "n_sections": 3,
        "n_standart_sections": 1,
        "n_strings": 3,
        "n_symdols": 0,
        "n_write_and_execute_sections": 2,
        "n_write_sections": 3,
        "timestamp": 3059101933
    },
    "packer": "upx",
    "path": "../upx/data/UserAccountControlSettings.exe"
}