{
    ".rsrc": {
        "entropy": 2.9520199103504217,
        "hash": "ea0208e4a94ec0b3",
        "is_executable": false,
        "is_readable": true,
        "is_writable": true,
        "is_writable_and_executable": false,
        "raw_size": 18944,
        "raw_virtual_size_ratio": 0.925,
        "virtual_size": 20480
    },
    "file": {
        "SOC": 8192,
        "SOH": 240,
        "SOHO": 4096,
        "SOI": 77824,
        "SOID": 20480,
        "SOS": 55,
        "SOUID": 45056,
        "avg_str_len": 18.333333333333332,
        "n_execute_sections": 2,
        "n_import_funcs": 10,
        "n_imports": 7,
        "n_read_sections": 3,
        "n_sections": 3,
        "n_standart_sections": 1,
        "n_strings": 3,
        "n_symdols": 0,
        "n_write_and_execute_sections": 2,
        "n_write_sections": 3,
        "timestamp": 54576144
    },
    "packer": "upx",
    "path": "../upx/data/calc.exe"
}