{
    ".rsrc": {
        "entropy": 7.116228196921344,
        "hash": "118dc01be999ddd4",
        "is_executable": false,
        "is_readable": true,
        "is_writable": true,
        "is_writable_and_executable": false,
        "raw_size": 92160,
        "raw_virtual_size_ratio": 0.9782608695652174,
        "virtual_size": 94208
    },
    "file": {
        "SOC": 81920,
        "SOH": 240,
        "SOHO": 4096,
        "SOI": 405504,
        "SOID": 94208,
        "SOS": 55,
        "SOUID": 225280,
        "avg_str_len": 18.333333333333332,
        "n_execute_sections": 2,
        "n_import_funcs": 19,
        "n_imports": 16,
        "n_read_sections": 3,
        "n_sections": 3,
        "n_standart_sections": 1,
        "n_strings": 3,
        "n_symdols": 0,
        "n_write_and_execute_sections": 2,
        "n_write_sections": 3,
        "timestamp": 1289558450
    },
    "packer": "upx",
    "path": "../upx/data/bdeunlock.exe"
}