{
    ".rsrc": {
        "entropy": 4.5362358723290646,
        "hash": "dc16bc433d0b7e18",
        "is_executable": false,
        "is_readable": true,
        "is_writable": true,
        "is_writable_and_executable": false,
        "raw_size": 5120,
        "raw_virtual_size_ratio": 0.625,
        "virtual_size": 8192
    },
    "file": {
        "SOC": 53248,
        "SOH": 240,
        "SOHO": 4096,
        "SOI": 167936,
        "SOID": 8192,
        "SOS": 60,
        "SOUID": 102400,
        "avg_str_len": 15.0,
        "n_execute_sections": 2,
        "n_import_funcs": 35,
        "n_imports": 32,
        "n_read_sections": 3,
        "n_sections": 3,
        "n_standart_sections": 1,
        "n_strings": 4,
        "n_symdols": 0,
        "n_write_and_execute_sections": 2,
        "n_write_sections": 3,
        "timestamp": 1337716049
    },
    "packer": "upx",
    "path": "../upx/data/immersivetpmvscmgrsvr.exe"
}