{
    ".rsrc": {
        "entropy": 4.36208537849646,
        "hash": "70ae8333f0fe5c33",
        "is_executable": false,
        "is_readable": true,
        "is_writable": true,
        "is_writable_and_executable": false,
        "raw_size": 5632,
        "raw_virtual_size_ratio": 0.6875,
        "virtual_size": 8192
    },
    "file": {
        "SOC": 36864,
        "SOH": 240,
        "SOHO": 4096,
        "SOI": 118784,
        "SOID": 8192,
        "SOS": 55,
        "SOUID": 69632,
        "avg_str_len": 18.333333333333332,
        "n_execute_sections": 2,
        "n_import_funcs": 39,
        "n_imports": 36,
        "n_read_sections": 3,
        "n_sections": 3,
        "n_standart_sections": 1,
        "n_strings": 3,
        "n_symdols": 0,
        "n_write_and_execute_sections": 2,
        "n_write_sections": 3,
        "timestamp": 1976276869
    },
    "packer": "upx",
    "path": "../upx/data/DeviceCredentialDeployment.exe"
}