{
    ".rsrc": {
        "entropy": 4.398086370030793,
        "hash": "d6efc21895d8c126",
        "is_executable": false,
        "is_readable": true,
        "is_writable": true,
        "is_writable_and_executable": false,
        "raw_size": 4096,
        "raw_virtual_size_ratio": 1.0,
        "virtual_size": 4096
    },
    "file": {
        "SOC": 16384,
        "SOH": 240,
        "SOHO": 4096,
        "SOI": 73728,
        "SOID": 4096,
        "SOS": 60,
        "SOUID": 49152,
        "avg_str_len": 15.0,
        "n_execute_sections": 2,
        "n_import_funcs": 19,
        "n_imports": 16,
        "n_read_sections": 3,
        "n_sections": 3,
        "n_standart_sections": 1,
        "n_strings": 4,
        "n_symdols": 0,
        "n_write_and_execute_sections": 2,
        "n_write_sections": 3,
        "timestamp": 3083152717
    },
    "packer": "upx",
    "path": "../upx/data/RdpSaUacHelper.exe"
}