{
    ".rsrc": {
        "entropy": 4.617379872047001,
        "hash": "0ef425ed66890ee7",
        "is_executable": false,
        "is_readable": true,
        "is_writable": true,
        "is_writable_and_executable": false,
        "raw_size": 4608,
        "raw_virtual_size_ratio": 0.5625,
        "virtual_size": 8192
    },
    "file": {
        "SOC": 49152,
        "SOH": 240,
        "SOHO": 4096,
        "SOI": 151552,
        "SOID": 8192,
        "SOS": 55,
        "SOUID": 90112,
        "avg_str_len": 18.333333333333332,
        "n_execute_sections": 2,
        "n_import_funcs": 27,
        "n_imports": 24,
        "n_read_sections": 3,
        "n_sections": 3,
        "n_standart_sections": 1,
        "n_strings": 3,
        "n_symdols": 0,
        "n_write_and_execute_sections": 2,
        "n_write_sections": 3,
        "timestamp": 435754996
    },
    "packer": "upx",
    "path": "../upx/data/PickerHost.exe"
}