{
    ".rsrc": {
        "entropy": 7.063492435055809,
        "hash": "afaa5a0c5e870826",
        "is_executable": false,
        "is_readable": true,
        "is_writable": true,
        "is_writable_and_executable": false,
        "raw_size": 72192,
        "raw_virtual_size_ratio": 0.9791666666666666,
        "virtual_size": 73728
    },
    "file": {
        "SOC": 8192,
        "SOH": 240,
        "SOHO": 4096,
        "SOI": 188416,
        "SOID": 73728,
        "SOS": 55,
        "SOUID": 102400,
        "avg_str_len": 18.333333333333332,
        "n_execute_sections": 2,
        "n_import_funcs": 12,
        "n_imports": 9,
        "n_read_sections": 3,
        "n_sections": 3,
        "n_standart_sections": 1,
        "n_strings": 3,
        "n_symdols": 0,
        "n_write_and_execute_sections": 2,
        "n_write_sections": 3,
        "timestamp": 1785087728
    },
    "packer": "upx",
    "path": "../upx/data/MdRes.exe"
}