{
    ".rsrc": {
        "entropy": 4.34232065248168,
        "hash": "74e7493b5582b05a",
        "is_executable": false,
        "is_readable": true,
        "is_writable": true,
        "is_writable_and_executable": false,
        "raw_size": 4096,
        "raw_virtual_size_ratio": 1.0,
        "virtual_size": 4096
    },
    "file": {
        "SOC": 24576,
        "SOH": 240,
        "SOHO": 4096,
        "SOI": 90112,
        "SOID": 4096,
        "SOS": 62,
        "SOUID": 57344,
        "avg_str_len": 15.5,
        "n_execute_sections": 2,
        "n_import_funcs": 19,
        "n_imports": 16,
        "n_read_sections": 3,
        "n_sections": 3,
        "n_standart_sections": 1,
        "n_strings": 4,
        "n_symdols": 0,
        "n_write_and_execute_sections": 2,
        "n_write_sections": 3,
        "timestamp": 1619518496
    },
    "packer": "upx",
    "path": "../upx/data/RdpSa.exe"
}