{
    ".rsrc": {
        "entropy": 3.2655501604825874,
        "hash": "6caad62a612a31b5",
        "is_executable": false,
        "is_readable": true,
        "is_writable": true,
        "is_writable_and_executable": false,
        "raw_size": 1536,
        "raw_virtual_size_ratio": 0.375,
        "virtual_size": 4096
    },
    "file": {
        "SOC": 8192,
        "SOH": 240,
        "SOHO": 4096,
        "SOI": 40960,
        "SOID": 4096,
        "SOS": 55,
        "SOUID": 24576,
        "avg_str_len": 18.333333333333332,
        "n_execute_sections": 2,
        "n_import_funcs": 6,
        "n_imports": 3,
        "n_read_sections": 3,
        "n_sections": 3,
        "n_standart_sections": 1,
        "n_strings": 3,
        "n_symdols": 0,
        "n_write_and_execute_sections": 2,
        "n_write_sections": 3,
        "timestamp": 4020355671
    },
    "packer": "upx",
    "path": "../upx/data/ResetEngine.exe"
}