{
    ".rsrc": {
        "entropy": 3.869446338152318,
        "hash": "49a804f007517663",
        "is_executable": false,
        "is_readable": true,
        "is_writable": true,
        "is_writable_and_executable": false,
        "raw_size": 3584,
        "raw_virtual_size_ratio": 0.875,
        "virtual_size": 4096
    },
    "file": {
        "SOC": 8192,
        "SOH": 240,
        "SOHO": 4096,
        "SOI": 45056,
        "SOID": 4096,
        "SOS": 61,
        "SOUID": 28672,
        "avg_str_len": 15.25,
        "n_execute_sections": 2,
        "n_import_funcs": 7,
        "n_imports": 4,
        "n_read_sections": 3,
        "n_sections": 3,
        "n_standart_sections": 1,
        "n_strings": 4,
        "n_symdols": 0,
        "n_write_and_execute_sections": 2,
        "n_write_sections": 3,
        "timestamp": 303014236
    },
    "packer": "upx",
    "path": "../upx/data/regedt32.exe"
}