{
    ".rsrc": {
        "entropy": 4.479982907248369,
        "hash": "568dee25927091cd",
        "is_executable": false,
        "is_readable": true,
        "is_writable": true,
        "is_writable_and_executable": false,
        "raw_size": 5632,
        "raw_virtual_size_ratio": 0.6875,
        "virtual_size": 8192
    },
    "file": {
        "SOC": 53248,
        "SOH": 240,
        "SOHO": 4096,
        "SOI": 159744,
        "SOID": 8192,
        "SOS": 61,
        "SOUID": 94208,
        "avg_str_len": 15.25,
        "n_execute_sections": 2,
        "n_import_funcs": 38,
        "n_imports": 35,
        "n_read_sections": 3,
        "n_sections": 3,
        "n_standart_sections": 1,
        "n_strings": 4,
        "n_symdols": 0,
        "n_write_and_execute_sections": 2,
        "n_write_sections": 3,
        "timestamp": 4051827475
    },
    "packer": "upx",
    "path": "../upx/data/provtool.exe"
}