{
    ".rsrc": {
        "entropy": 4.414393196657353,
        "hash": "51d3ec459e2432a1",
        "is_executable": false,
        "is_readable": true,
        "is_writable": true,
        "is_writable_and_executable": false,
        "raw_size": 3584,
        "raw_virtual_size_ratio": 0.875,
        "virtual_size": 4096
    },
    "file": {
        "SOC": 12288,
        "SOH": 240,
        "SOHO": 4096,
        "SOI": 53248,
        "SOID": 4096,
        "SOS": 62,
        "SOUID": 32768,
        "avg_str_len": 15.5,
        "n_execute_sections": 2,
        "n_import_funcs": 22,
        "n_imports": 19,
        "n_read_sections": 3,
        "n_sections": 3,
        "n_standart_sections": 1,
        "n_strings": 4,
        "n_symdols": 0,
        "n_write_and_execute_sections": 2,
        "n_write_sections": 3,
        "timestamp": 4233486469
    },
    "packer": "upx",
    "path": "../upx/data/TRACERT.EXE"
}