{
    ".rsrc": {
        "entropy": 3.6198278910105444,
        "hash": "0942d3c49d72f4af",
        "is_executable": false,
        "is_readable": true,
        "is_writable": true,
        "is_writable_and_executable": false,
        "raw_size": 2560,
        "raw_virtual_size_ratio": 0.625,
        "virtual_size": 4096
    },
    "file": {
        "SOC": 8192,
        "SOH": 240,
        "SOHO": 4096,
        "SOI": 49152,
        "SOID": 4096,
        "SOS": 60,
        "SOUID": 32768,
        "avg_str_len": 15.0,
        "n_execute_sections": 2,
        "n_import_funcs": 16,
        "n_imports": 13,
        "n_read_sections": 3,
        "n_sections": 3,
        "n_standart_sections": 1,
        "n_strings": 4,
        "n_symdols": 0,
        "n_write_and_execute_sections": 2,
        "n_write_sections": 3,
        "timestamp": 385044222
    },
    "packer": "upx",
    "path": "../upx/data/dstokenclean.exe"
}