{
    ".rsrc": {
        "entropy": 4.40402224423806,
        "hash": "f65766fe02607463",
        "is_executable": false,
        "is_readable": true,
        "is_writable": true,
        "is_writable_and_executable": false,
        "raw_size": 4608,
        "raw_virtual_size_ratio": 0.5625,
        "virtual_size": 8192
    },
    "file": {
        "SOC": 77824,
        "SOH": 240,
        "SOHO": 4096,
        "SOI": 245760,
        "SOID": 8192,
        "SOS": 65,
        "SOUID": 155648,
        "avg_str_len": 13.0,
        "n_execute_sections": 2,
        "n_import_funcs": 31,
        "n_imports": 28,
        "n_read_sections": 3,
        "n_sections": 3,
        "n_standart_sections": 1,
        "n_strings": 5,
        "n_symdols": 0,
        "n_write_and_execute_sections": 2,
        "n_write_sections": 3,
        "timestamp": 797883564
    },
    "packer": "upx",
    "path": "../upx/data/WmiApSrv.exe"
}