{
    ".rsrc": {
        "entropy": 4.481430458841139,
        "hash": "94df80ba8b96bf09",
        "is_executable": false,
        "is_readable": true,
        "is_writable": true,
        "is_writable_and_executable": false,
        "raw_size": 27648,
        "raw_virtual_size_ratio": 0.9642857142857143,
        "virtual_size": 28672
    },
    "file": {
        "SOC": 12288,
        "SOH": 240,
        "SOHO": 4096,
        "SOI": 114688,
        "SOID": 28672,
        "SOS": 60,
        "SOUID": 69632,
        "avg_str_len": 15.0,
        "n_execute_sections": 2,
        "n_import_funcs": 17,
        "n_imports": 14,
        "n_read_sections": 3,
        "n_sections": 3,
        "n_standart_sections": 1,
        "n_strings": 4,
        "n_symdols": 0,
        "n_write_and_execute_sections": 2,
        "n_write_sections": 3,
        "timestamp": 1167730544
    },
    "packer": "upx",
    "path": "../upx/data/AxInstUI.exe"
}