{
    ".rsrc": {
        "entropy": 4.4849722466546345,
        "hash": "259607a831fbd49f",
        "is_executable": false,
        "is_readable": true,
        "is_writable": true,
        "is_writable_and_executable": false,
        "raw_size": 4608,
        "raw_virtual_size_ratio": 0.5625,
        "virtual_size": 8192
    },
    "file": {
        "SOC": 81920,
        "SOH": 240,
        "SOHO": 4096,
        "SOI": 245760,
        "SOID": 8192,
        "SOS": 62,
        "SOUID": 151552,
        "avg_str_len": 15.5,
        "n_execute_sections": 2,
        "n_import_funcs": 15,
        "n_imports": 12,
        "n_read_sections": 3,
        "n_sections": 3,
        "n_standart_sections": 1,
        "n_strings": 4,
        "n_symdols": 0,
        "n_write_and_execute_sections": 2,
        "n_write_sections": 3,
        "timestamp": 3588804024
    },
    "packer": "upx",
    "path": "../upx/data/verifiergui.exe"
}