{
    ".rsrc": {
        "entropy": 4.563617607115444,
        "hash": "0eb7ad5e48415f04",
        "is_executable": false,
        "is_readable": true,
        "is_writable": true,
        "is_writable_and_executable": false,
        "raw_size": 33280,
        "raw_virtual_size_ratio": 0.9027777777777778,
        "virtual_size": 36864
    },
    "file": {
        "SOC": 32768,
        "SOH": 240,
        "SOHO": 4096,
        "SOI": 163840,
        "SOID": 36864,
        "SOS": 73,
        "SOUID": 90112,
        "avg_str_len": 12.166666666666666,
        "n_execute_sections": 2,
        "n_import_funcs": 37,
        "n_imports": 34,
        "n_read_sections": 3,
        "n_sections": 3,
        "n_standart_sections": 1,
        "n_strings": 6,
        "n_symdols": 0,
        "n_write_and_execute_sections": 2,
        "n_write_sections": 3,
        "timestamp": 713011206
    },
    "packer": "upx",
    "path": "../upx/data/MicrosoftEdgeDevTools.exe"
}