{
    ".rsrc": {
        "entropy": 7.086038871001546,
        "hash": "ca99ce40e6eed27a",
        "is_executable": false,
        "is_readable": true,
        "is_writable": true,
        "is_writable_and_executable": false,
        "raw_size": 70656,
        "raw_virtual_size_ratio": 0.9583333333333334,
        "virtual_size": 73728
    },
    "file": {
        "SOC": 61440,
        "SOH": 240,
        "SOHO": 4096,
        "SOI": 299008,
        "SOID": 73728,
        "SOS": 61,
        "SOUID": 159744,
        "avg_str_len": 15.25,
        "n_execute_sections": 2,
        "n_import_funcs": 39,
        "n_imports": 36,
        "n_read_sections": 3,
        "n_sections": 3,
        "n_standart_sections": 1,
        "n_strings": 4,
        "n_symdols": 0,
        "n_write_and_execute_sections": 2,
        "n_write_sections": 3,
        "timestamp": 1555589302
    },
    "packer": "upx",
    "path": "../upx/data/recdisc.exe"
}