{
    ".rsrc": {
        "entropy": 4.0380487134432235,
        "hash": "d85f81fc5ee27a4f",
        "is_executable": false,
        "is_readable": true,
        "is_writable": true,
        "is_writable_and_executable": false,
        "raw_size": 4608,
        "raw_virtual_size_ratio": 0.5625,
        "virtual_size": 8192
    },
    "file": {
        "SOC": 45056,
        "SOH": 240,
        "SOHO": 4096,
        "SOI": 135168,
        "SOID": 8192,
        "SOS": 61,
        "SOUID": 77824,
        "avg_str_len": 15.25,
        "n_execute_sections": 2,
        "n_import_funcs": 39,
        "n_imports": 36,
        "n_read_sections": 3,
        "n_sections": 3,
        "n_standart_sections": 1,
        "n_strings": 4,
        "n_symdols": 0,
        "n_write_and_execute_sections": 2,
        "n_write_sections": 3,
        "timestamp": 3145032716
    },
    "packer": "upx",
    "path": "../upx/data/WaaSMedicAgent.exe"
}