{
    ".data": {
        "entropy": 2.0102660145116644,
        "hash": "ddaa98e144c37bf5",
        "is_executable": false,
        "is_readable": true,
        "is_writable": true,
        "is_writable_and_executable": false,
        "raw_size": 512,
        "raw_virtual_size_ratio": 0.25,
        "virtual_size": 2048
    },
    ".rsrc": {
        "entropy": 7.922128037629858,
        "hash": "8aee5ea4679effe4",
        "is_executable": false,
        "is_readable": true,
        "is_writable": false,
        "is_writable_and_executable": false,
        "raw_size": 18944,
        "raw_virtual_size_ratio": 1.025108225108225,
        "virtual_size": 18480
    },
    ".text": {
        "entropy": 6.042232898424638,
        "hash": "731a37e1855b7727",
        "is_executable": true,
        "is_readable": true,
        "is_writable": false,
        "is_writable_and_executable": false,
        "raw_size": 5632,
        "raw_virtual_size_ratio": 1.0012444444444444,
        "virtual_size": 5625
    },
    "file": {
        "SOC": 5632,
        "SOH": 240,
        "SOHO": 1024,
        "SOI": 53248,
        "SOID": 27648,
        "SOS": 81,
        "SOUID": 0,
        "avg_str_len": 11.571428571428571,
        "n_execute_sections": 1,
        "n_import_funcs": 70,
        "n_imports": 9,
        "n_read_sections": 6,
        "n_sections": 6,
        "n_standart_sections": 4,
        "n_strings": 7,
        "n_symdols": 0,
        "n_write_and_execute_sections": 0,
        "n_write_sections": 1,
        "timestamp": 1619906148
    },
    "packer": "stub1",
    "path": "../stub1/output/find.exe"
}