{
    ".rsrc": {
        "entropy": 4.073434050794789,
        "hash": "7b18d9b94bc8e795",
        "is_executable": false,
        "is_readable": true,
        "is_writable": false,
        "is_writable_and_executable": false,
        "raw_size": 3072,
        "raw_virtual_size_ratio": 0.75,
        "virtual_size": 4096
    },
    "file": {
        "SOC": 62976,
        "SOH": 240,
        "SOHO": 1024,
        "SOI": 9781248,
        "SOID": 37376,
        "SOS": 133,
        "SOUID": 0,
        "avg_str_len": 11.083333333333334,
        "n_execute_sections": 3,
        "n_import_funcs": 8,
        "n_imports": 8,
        "n_read_sections": 10,
        "n_sections": 10,
        "n_standart_sections": 2,
        "n_strings": 12,
        "n_symdols": 0,
        "n_write_and_execute_sections": 1,
        "n_write_sections": 3,
        "timestamp": 920304493
    },
    "packer": "themida",
    "path": "../themida/themida/cmstp_protected.exe"
}