{
    ".data": {
        "entropy": 0.0,
        "hash": "570916e8f771e0c1",
        "is_executable": false,
        "is_readable": true,
        "is_writable": true,
        "is_writable_and_executable": false,
        "raw_size": 0,
        "raw_virtual_size_ratio": 0.0003315649867374005,
        "virtual_size": 3016
    },
    ".rsrc": {
        "entropy": 3.7606436774159673,
        "hash": "e282e6f3154215bc",
        "is_executable": false,
        "is_readable": true,
        "is_writable": false,
        "is_writable_and_executable": false,
        "raw_size": 2560,
        "raw_virtual_size_ratio": 1.228996639462314,
        "virtual_size": 2083
    },
    ".text": {
        "entropy": 0.0,
        "hash": "a1958b6e1a680cc1",
        "is_executable": true,
        "is_readable": true,
        "is_writable": false,
        "is_writable_and_executable": false,
        "raw_size": 0,
        "raw_virtual_size_ratio": 3.112549800796813e-05,
        "virtual_size": 32128
    },
    "file": {
        "SOC": 32256,
        "SOH": 240,
        "SOHO": 1024,
        "SOI": 3096576,
        "SOID": 17920,
        "SOS": 93,
        "SOUID": 0,
        "avg_str_len": 10.333333333333334,
        "n_execute_sections": 3,
        "n_import_funcs": 38,
        "n_imports": 28,
        "n_read_sections": 8,
        "n_sections": 8,
        "n_standart_sections": 4,
        "n_strings": 9,
        "n_symdols": 0,
        "n_write_and_execute_sections": 0,
        "n_write_sections": 1,
        "timestamp": 3638909032
    },
    "packer": "vmprotect",
    "path": "../vmprotect/data/typeperf.vmp.exe"
}