{
    ".data": {
        "entropy": 0.30140680731160896,
        "hash": "17f3cd709de2fb37",
        "is_executable": false,
        "is_readable": true,
        "is_writable": true,
        "is_writable_and_executable": false,
        "raw_size": 512,
        "raw_virtual_size_ratio": 0.11428571428571428,
        "virtual_size": 4480
    },
    ".rsrc": {
        "entropy": 4.045672272106296,
        "hash": "94fb4b8d44164481",
        "is_executable": false,
        "is_readable": true,
        "is_writable": false,
        "is_writable_and_executable": false,
        "raw_size": 6144,
        "raw_virtual_size_ratio": 1.0711297071129706,
        "virtual_size": 5736
    },
    ".text": {
        "entropy": 5.82748875526241,
        "hash": "cd4cf59a1572c7e5",
        "is_executable": true,
        "is_readable": true,
        "is_writable": false,
        "is_writable_and_executable": false,
        "raw_size": 19456,
        "raw_virtual_size_ratio": 1.0235690235690236,
        "virtual_size": 19008
    },
    "file": {
        "SOC": 19456,
        "SOH": 240,
        "SOHO": 1024,
        "SOI": 61440,
        "SOID": 23552,
        "SOS": 81,
        "SOUID": 0,
        "avg_str_len": 11.571428571428571,
        "n_execute_sections": 1,
        "n_import_funcs": 116,
        "n_imports": 21,
        "n_read_sections": 6,
        "n_sections": 6,
        "n_standart_sections": 4,
        "n_strings": 7,
        "n_symdols": 0,
        "n_write_and_execute_sections": 0,
        "n_write_sections": 1,
        "timestamp": 3705783200
    },
    "packer": "origin",
    "path": "../origin/credwiz.exe"
}