{
    ".data": {
        "entropy": 0.0,
        "hash": "4719a487bb1c8dcb",
        "is_executable": false,
        "is_readable": true,
        "is_writable": true,
        "is_writable_and_executable": false,
        "raw_size": 0,
        "raw_virtual_size_ratio": 0.0006038647342995169,
        "virtual_size": 1656
    },
    ".rsrc": {
        "entropy": 4.3490916944038975,
        "hash": "5eb7512af54a873a",
        "is_executable": false,
        "is_readable": true,
        "is_writable": false,
        "is_writable_and_executable": false,
        "raw_size": 2048,
        "raw_virtual_size_ratio": 1.0073782587309394,
        "virtual_size": 2033
    },
    ".text": {
        "entropy": 0.0,
        "hash": "25cc8edbcfef8c57",
        "is_executable": true,
        "is_readable": true,
        "is_writable": false,
        "is_writable_and_executable": false,
        "raw_size": 0,
        "raw_virtual_size_ratio": 0.0002717391304347826,
        "virtual_size": 3680
    },
    "file": {
        "SOC": 4096,
        "SOH": 240,
        "SOHO": 1024,
        "SOI": 2994176,
        "SOID": 8704,
        "SOS": 93,
        "SOUID": 0,
        "avg_str_len": 10.333333333333334,
        "n_execute_sections": 3,
        "n_import_funcs": 15,
        "n_imports": 5,
        "n_read_sections": 8,
        "n_sections": 8,
        "n_standart_sections": 4,
        "n_strings": 9,
        "n_symdols": 0,
        "n_write_and_execute_sections": 0,
        "n_write_sections": 1,
        "timestamp": 1446821952
    },
    "packer": "vmprotect",
    "path": "../vmprotect/data/help.vmp.exe"
}