{
    ".data": {
        "entropy": 2.764913084392033,
        "hash": "068772235a7492f8",
        "is_executable": false,
        "is_readable": true,
        "is_writable": true,
        "is_writable_and_executable": false,
        "raw_size": 3072,
        "raw_virtual_size_ratio": 0.5079365079365079,
        "virtual_size": 6048
    },
    ".rsrc": {
        "entropy": 5.294256823525077,
        "hash": "eedcd5fb97057d3d",
        "is_executable": false,
        "is_readable": true,
        "is_writable": false,
        "is_writable_and_executable": false,
        "raw_size": 119296,
        "raw_virtual_size_ratio": 1.002891922792387,
        "virtual_size": 118952
    },
    ".text": {
        "entropy": 0.0,
        "hash": "4cf842b2bf08d69e",
        "is_executable": true,
        "is_readable": true,
        "is_writable": false,
        "is_writable_and_executable": false,
        "raw_size": 0,
        "raw_virtual_size_ratio": 3.31092937787637e-05,
        "virtual_size": 30203
    },
    "file": {
        "SOC": 33280,
        "SOH": 240,
        "SOHO": 1024,
        "SOI": 888832,
        "SOID": 218112,
        "SOS": 103,
        "SOUID": 0,
        "avg_str_len": 9.363636363636363,
        "n_execute_sections": 4,
        "n_import_funcs": 116,
        "n_imports": 11,
        "n_read_sections": 9,
        "n_sections": 9,
        "n_standart_sections": 4,
        "n_strings": 11,
        "n_symdols": 0,
        "n_write_and_execute_sections": 0,
        "n_write_sections": 1,
        "timestamp": 1038564161
    },
    "packer": "vmprotect",
    "path": "../vmprotect/data/FileHistory.vmp.exe"
}