{
    ".data": {
        "entropy": 0.0,
        "hash": "e35939f24874e49b",
        "is_executable": false,
        "is_readable": true,
        "is_writable": true,
        "is_writable_and_executable": false,
        "raw_size": 0,
        "raw_virtual_size_ratio": 0.0003980891719745223,
        "virtual_size": 2512
    },
    ".rsrc": {
        "entropy": 2.4905633623603136,
        "hash": "9ec9c679a05fed8c",
        "is_executable": false,
        "is_readable": true,
        "is_writable": false,
        "is_writable_and_executable": false,
        "raw_size": 1536,
        "raw_virtual_size_ratio": 1.4883720930232558,
        "virtual_size": 1032
    },
    ".text": {
        "entropy": 0.0,
        "hash": "67cf766ef6553be5",
        "is_executable": true,
        "is_readable": true,
        "is_writable": false,
        "is_writable_and_executable": false,
        "raw_size": 0,
        "raw_virtual_size_ratio": 3.4441191665231616e-05,
        "virtual_size": 29035
    },
    "file": {
        "SOC": 29184,
        "SOH": 240,
        "SOHO": 1024,
        "SOI": 3022848,
        "SOID": 20480,
        "SOS": 93,
        "SOUID": 0,
        "avg_str_len": 10.333333333333334,
        "n_execute_sections": 3,
        "n_import_funcs": 36,
        "n_imports": 26,
        "n_read_sections": 8,
        "n_sections": 8,
        "n_standart_sections": 4,
        "n_strings": 9,
        "n_symdols": 0,
        "n_write_and_execute_sections": 0,
        "n_write_sections": 1,
        "timestamp": 3320203893
    },
    "packer": "vmprotect",
    "path": "../vmprotect/data/SgrmLpac.vmp.exe"
}