{
    ".rsrc": {
        "entropy": 3.9965018297500468,
        "hash": "39b481b631ac9033",
        "is_executable": false,
        "is_readable": true,
        "is_writable": false,
        "is_writable_and_executable": false,
        "raw_size": 2048,
        "raw_virtual_size_ratio": 0.5,
        "virtual_size": 4096
    },
    "file": {
        "SOC": 191488,
        "SOH": 240,
        "SOHO": 1024,
        "SOI": 10403840,
        "SOID": 57856,
        "SOS": 132,
        "SOUID": 0,
        "avg_str_len": 11.0,
        "n_execute_sections": 3,
        "n_import_funcs": 45,
        "n_imports": 45,
        "n_read_sections": 11,
        "n_sections": 11,
        "n_standart_sections": 2,
        "n_strings": 12,
        "n_symdols": 0,
        "n_write_and_execute_sections": 1,
        "n_write_sections": 4,
        "timestamp": 258187601
    },
    "packer": "themida",
    "path": "../themida/themida/wevtutil_protected.exe"
}