{
    ".rsrc": {
        "entropy": 4.143317700082319,
        "hash": "49249e0541825bc1",
        "is_executable": false,
        "is_readable": true,
        "is_writable": false,
        "is_writable_and_executable": false,
        "raw_size": 2048,
        "raw_virtual_size_ratio": 0.5,
        "virtual_size": 4096
    },
    "file": {
        "SOC": 46080,
        "SOH": 240,
        "SOHO": 1024,
        "SOI": 9912320,
        "SOID": 28160,
        "SOS": 181,
        "SOUID": 0,
        "avg_str_len": 11.3125,
        "n_execute_sections": 3,
        "n_import_funcs": 21,
        "n_imports": 21,
        "n_read_sections": 11,
        "n_sections": 11,
        "n_standart_sections": 2,
        "n_strings": 16,
        "n_symdols": 0,
        "n_write_and_execute_sections": 1,
        "n_write_sections": 4,
        "timestamp": 3287780476
    },
    "packer": "themida",
    "path": "../themida/themida/lpremove_protected.exe"
}