{
    ".rsrc": {
        "entropy": 3.8657056407623025,
        "hash": "8d506e828f9e72e3",
        "is_executable": false,
        "is_readable": true,
        "is_writable": false,
        "is_writable_and_executable": false,
        "raw_size": 2560,
        "raw_virtual_size_ratio": 0.625,
        "virtual_size": 4096
    },
    "file": {
        "SOC": 40448,
        "SOH": 240,
        "SOHO": 1024,
        "SOI": 10113024,
        "SOID": 30208,
        "SOS": 137,
        "SOUID": 512,
        "avg_str_len": 11.416666666666666,
        "n_execute_sections": 3,
        "n_import_funcs": 20,
        "n_imports": 20,
        "n_read_sections": 11,
        "n_sections": 11,
        "n_standart_sections": 2,
        "n_strings": 12,
        "n_symdols": 0,
        "n_write_and_execute_sections": 1,
        "n_write_sections": 4,
        "timestamp": 2874938849
    },
    "packer": "themida",
    "path": "../themida/themida/ApplicationFrameHost_protected.exe"
}