{
    ".data": {
        "entropy": 3.3296188238610736,
        "hash": "d1e57203abf1d150",
        "is_executable": false,
        "is_readable": true,
        "is_writable": true,
        "is_writable_and_executable": false,
        "raw_size": 1024,
        "raw_virtual_size_ratio": 0.2909090909090909,
        "virtual_size": 3520
    },
    ".rsrc": {
        "entropy": 5.088738589457275,
        "hash": "08a33cd1ef4016c6",
        "is_executable": false,
        "is_readable": true,
        "is_writable": false,
        "is_writable_and_executable": false,
        "raw_size": 52736,
        "raw_virtual_size_ratio": 1.0051845074717902,
        "virtual_size": 52464
    },
    ".text": {
        "entropy": 5.978324760407739,
        "hash": "3803b48171cc84e7",
        "is_executable": true,
        "is_readable": true,
        "is_writable": false,
        "is_writable_and_executable": false,
        "raw_size": 26624,
        "raw_virtual_size_ratio": 1.0088287673828198,
        "virtual_size": 26391
    },
    "file": {
        "SOC": 26624,
        "SOH": 240,
        "SOHO": 1024,
        "SOI": 110592,
        "SOID": 70656,
        "SOS": 81,
        "SOUID": 0,
        "avg_str_len": 11.571428571428571,
        "n_execute_sections": 1,
        "n_import_funcs": 123,
        "n_imports": 12,
        "n_read_sections": 6,
        "n_sections": 6,
        "n_standart_sections": 4,
        "n_strings": 7,
        "n_symdols": 0,
        "n_write_and_execute_sections": 0,
        "n_write_sections": 1,
        "timestamp": 1115378959
    },
    "packer": "origin",
    "path": "../origin/DevicePairingWizard.exe"
}