{
    ".data": {
        "entropy": 0.0,
        "hash": "da9bda68d08ed2ec",
        "is_executable": false,
        "is_readable": true,
        "is_writable": true,
        "is_writable_and_executable": false,
        "raw_size": 0,
        "raw_virtual_size_ratio": 0.0003687315634218289,
        "virtual_size": 2712
    },
    ".rsrc": {
        "entropy": 4.340280682578113,
        "hash": "1808ba1cfd7af21a",
        "is_executable": false,
        "is_readable": true,
        "is_writable": false,
        "is_writable_and_executable": false,
        "raw_size": 2048,
        "raw_virtual_size_ratio": 1.023488255872064,
        "virtual_size": 2001
    },
    ".text": {
        "entropy": 0.0,
        "hash": "dc4b26c2f2b3835b",
        "is_executable": true,
        "is_readable": true,
        "is_writable": false,
        "is_writable_and_executable": false,
        "raw_size": 0,
        "raw_virtual_size_ratio": 0.0002248201438848921,
        "virtual_size": 4448
    },
    "file": {
        "SOC": 4608,
        "SOH": 240,
        "SOHO": 1024,
        "SOI": 2957312,
        "SOID": 10240,
        "SOS": 93,
        "SOUID": 0,
        "avg_str_len": 10.333333333333334,
        "n_execute_sections": 3,
        "n_import_funcs": 17,
        "n_imports": 7,
        "n_read_sections": 8,
        "n_sections": 8,
        "n_standart_sections": 4,
        "n_strings": 9,
        "n_symdols": 0,
        "n_write_and_execute_sections": 0,
        "n_write_sections": 1,
        "timestamp": 1281175006
    },
    "packer": "vmprotect",
    "path": "../vmprotect/data/MigRegDB.vmp.exe"
}