{
    ".rsrc": {
        "entropy": 4.448959467219554,
        "hash": "77488c0cdf9bafca",
        "is_executable": false,
        "is_readable": true,
        "is_writable": false,
        "is_writable_and_executable": false,
        "raw_size": 2560,
        "raw_virtual_size_ratio": 0.625,
        "virtual_size": 4096
    },
    "file": {
        "SOC": 109568,
        "SOH": 240,
        "SOHO": 1536,
        "SOI": 10285056,
        "SOID": 54784,
        "SOS": 149,
        "SOUID": 0,
        "avg_str_len": 10.642857142857142,
        "n_execute_sections": 3,
        "n_import_funcs": 22,
        "n_imports": 22,
        "n_read_sections": 13,
        "n_sections": 13,
        "n_standart_sections": 3,
        "n_strings": 14,
        "n_symdols": 0,
        "n_write_and_execute_sections": 1,
        "n_write_sections": 5,
        "timestamp": 2698137781
    },
    "packer": "themida",
    "path": "../themida/themida/pcaui_protected.exe"
}