{
    ".rsrc": {
        "entropy": 3.4913166792062396,
        "hash": "295c1ceaf5bd0244",
        "is_executable": false,
        "is_readable": true,
        "is_writable": false,
        "is_writable_and_executable": false,
        "raw_size": 2048,
        "raw_virtual_size_ratio": 0.5,
        "virtual_size": 4096
    },
    "file": {
        "SOC": 57344,
        "SOH": 240,
        "SOHO": 1024,
        "SOI": 9740288,
        "SOID": 33792,
        "SOS": 134,
        "SOUID": 0,
        "avg_str_len": 11.166666666666666,
        "n_execute_sections": 3,
        "n_import_funcs": 31,
        "n_imports": 31,
        "n_read_sections": 12,
        "n_sections": 12,
        "n_standart_sections": 3,
        "n_strings": 12,
        "n_symdols": 0,
        "n_write_and_execute_sections": 1,
        "n_write_sections": 4,
        "timestamp": 730232706
    },
    "packer": "themida",
    "path": "../themida/themida/SecurityHealthHost_protected.exe"
}