{
    ".rsrc": {
        "entropy": 4.5796741705099056,
        "hash": "a4bfcfb7dd103e07",
        "is_executable": false,
        "is_readable": true,
        "is_writable": false,
        "is_writable_and_executable": false,
        "raw_size": 2048,
        "raw_virtual_size_ratio": 0.5,
        "virtual_size": 4096
    },
    "file": {
        "SOC": 11776,
        "SOH": 240,
        "SOHO": 1024,
        "SOI": 9789440,
        "SOID": 12288,
        "SOS": 132,
        "SOUID": 512,
        "avg_str_len": 11.0,
        "n_execute_sections": 3,
        "n_import_funcs": 11,
        "n_imports": 11,
        "n_read_sections": 11,
        "n_sections": 11,
        "n_standart_sections": 2,
        "n_strings": 12,
        "n_symdols": 0,
        "n_write_and_execute_sections": 1,
        "n_write_sections": 4,
        "timestamp": 1568918520
    },
    "packer": "themida",
    "path": "../themida/themida/CameraSettingsUIHost_protected.exe"
}