{
    ".rsrc": {
        "entropy": 2.472631408684669,
        "hash": "8a379111a2f9c76a",
        "is_executable": false,
        "is_readable": true,
        "is_writable": false,
        "is_writable_and_executable": false,
        "raw_size": 1536,
        "raw_virtual_size_ratio": 0.375,
        "virtual_size": 4096
    },
    "file": {
        "SOC": 79360,
        "SOH": 240,
        "SOHO": 1024,
        "SOI": 10186752,
        "SOID": 45056,
        "SOS": 142,
        "SOUID": 0,
        "avg_str_len": 10.923076923076923,
        "n_execute_sections": 3,
        "n_import_funcs": 40,
        "n_imports": 40,
        "n_read_sections": 11,
        "n_sections": 11,
        "n_standart_sections": 2,
        "n_strings": 13,
        "n_symdols": 0,
        "n_write_and_execute_sections": 1,
        "n_write_sections": 4,
        "timestamp": 2170029672
    },
    "packer": "themida",
    "path": "../themida/themida/wifitask_protected.exe"
}