{
    ".rsrc": {
        "entropy": 3.2966696237370767,
        "hash": "4627f85ff56d84a0",
        "is_executable": false,
        "is_readable": true,
        "is_writable": false,
        "is_writable_and_executable": false,
        "raw_size": 1024,
        "raw_virtual_size_ratio": 0.25,
        "virtual_size": 4096
    },
    "file": {
        "SOC": 31744,
        "SOH": 240,
        "SOHO": 1024,
        "SOI": 9670656,
        "SOID": 20480,
        "SOS": 140,
        "SOUID": 0,
        "avg_str_len": 10.76923076923077,
        "n_execute_sections": 3,
        "n_import_funcs": 25,
        "n_imports": 25,
        "n_read_sections": 11,
        "n_sections": 11,
        "n_standart_sections": 2,
        "n_strings": 13,
        "n_symdols": 0,
        "n_write_and_execute_sections": 1,
        "n_write_sections": 4,
        "timestamp": 2719342093
    },
    "packer": "themida",
    "path": "../themida/themida/coredpussvr_protected.exe"
}