{
    ".rsrc": {
        "entropy": 5.046948463883922,
        "hash": "cd9355019f23b538",
        "is_executable": false,
        "is_readable": true,
        "is_writable": false,
        "is_writable_and_executable": false,
        "raw_size": 26112,
        "raw_virtual_size_ratio": 1.0,
        "virtual_size": 26112
    },
    "file": {
        "SOC": 14848,
        "SOH": 240,
        "SOHO": 1024,
        "SOI": 9830400,
        "SOID": 44032,
        "SOS": 134,
        "SOUID": 512,
        "avg_str_len": 10.307692307692308,
        "n_execute_sections": 3,
        "n_import_funcs": 20,
        "n_imports": 20,
        "n_read_sections": 11,
        "n_sections": 11,
        "n_standart_sections": 2,
        "n_strings": 13,
        "n_symdols": 0,
        "n_write_and_execute_sections": 1,
        "n_write_sections": 4,
        "timestamp": 2429740551
    },
    "packer": "themida",
    "path": "../themida/themida/wlrmdr_protected.exe"
}