{
    ".rsrc": {
        "entropy": 2.5619087490896475,
        "hash": "1b845bb6141c4f5d",
        "is_executable": false,
        "is_readable": true,
        "is_writable": false,
        "is_writable_and_executable": false,
        "raw_size": 1536,
        "raw_virtual_size_ratio": 0.375,
        "virtual_size": 4096
    },
    "file": {
        "SOC": 18944,
        "SOH": 240,
        "SOHO": 1024,
        "SOI": 9752576,
        "SOID": 15872,
        "SOS": 133,
        "SOUID": 0,
        "avg_str_len": 11.083333333333334,
        "n_execute_sections": 3,
        "n_import_funcs": 21,
        "n_imports": 21,
        "n_read_sections": 10,
        "n_sections": 10,
        "n_standart_sections": 2,
        "n_strings": 12,
        "n_symdols": 0,
        "n_write_and_execute_sections": 1,
        "n_write_sections": 3,
        "timestamp": 1256421576
    },
    "packer": "themida",
    "path": "../themida/themida/XblGameSaveTask_protected.exe"
}