{
    "file": {
        "SOC": 28672,
        "SOH": 240,
        "SOHO": 1024,
        "SOI": 9715712,
        "SOID": 16384,
        "SOS": 116,
        "SOUID": 0,
        "avg_str_len": 11.6,
        "n_execute_sections": 3,
        "n_import_funcs": 23,
        "n_imports": 23,
        "n_read_sections": 8,
        "n_sections": 8,
        "n_standart_sections": 1,
        "n_strings": 10,
        "n_symdols": 0,
        "n_write_and_execute_sections": 1,
        "n_write_sections": 3,
        "timestamp": 3626406403
    },
    "packer": "themida",
    "path": "../themida/themida/pospaymentsworker_protected.exe"
}