{
    ".rsrc": {
        "entropy": 7.492396398023791,
        "hash": "5ca2bad96e9c081c",
        "is_executable": false,
        "is_readable": true,
        "is_writable": false,
        "is_writable_and_executable": false,
        "raw_size": 101888,
        "raw_virtual_size_ratio": 1.0,
        "virtual_size": 101888
    },
    "file": {
        "SOC": 3072,
        "SOH": 240,
        "SOHO": 1024,
        "SOI": 9588736,
        "SOID": 108032,
        "SOS": 133,
        "SOUID": 0,
        "avg_str_len": 11.083333333333334,
        "n_execute_sections": 3,
        "n_import_funcs": 4,
        "n_imports": 4,
        "n_read_sections": 10,
        "n_sections": 10,
        "n_standart_sections": 2,
        "n_strings": 12,
        "n_symdols": 0,
        "n_write_and_execute_sections": 1,
        "n_write_sections": 3,
        "timestamp": 34430918
    },
    "packer": "themida",
    "path": "../themida/themida/resmon_protected.exe"
}