{
    ".rsrc": {
        "entropy": 3.713502307966729,
        "hash": "caaed41e0eb43854",
        "is_executable": false,
        "is_readable": true,
        "is_writable": false,
        "is_writable_and_executable": false,
        "raw_size": 51200,
        "raw_virtual_size_ratio": 1.0,
        "virtual_size": 51200
    },
    "file": {
        "SOC": 98304,
        "SOH": 240,
        "SOHO": 1536,
        "SOI": 10330112,
        "SOID": 96768,
        "SOS": 145,
        "SOUID": 512,
        "avg_str_len": 10.357142857142858,
        "n_execute_sections": 3,
        "n_import_funcs": 34,
        "n_imports": 34,
        "n_read_sections": 14,
        "n_sections": 14,
        "n_standart_sections": 3,
        "n_strings": 14,
        "n_symdols": 0,
        "n_write_and_execute_sections": 1,
        "n_write_sections": 6,
        "timestamp": 3123403784
    },
    "packer": "themida",
    "path": "../themida/themida/SystemSettingsBroker_protected.exe"
}