{
    ".rsrc": {
        "entropy": 5.274968449469283,
        "hash": "c3963e086983b7b6",
        "is_executable": false,
        "is_readable": true,
        "is_writable": false,
        "is_writable_and_executable": false,
        "raw_size": 43008,
        "raw_virtual_size_ratio": 1.0,
        "virtual_size": 43008
    },
    "file": {
        "SOC": 50176,
        "SOH": 240,
        "SOHO": 1024,
        "SOI": 9486336,
        "SOID": 65536,
        "SOS": 148,
        "SOUID": 512,
        "avg_str_len": 10.571428571428571,
        "n_execute_sections": 3,
        "n_import_funcs": 15,
        "n_imports": 15,
        "n_read_sections": 12,
        "n_sections": 12,
        "n_standart_sections": 2,
        "n_strings": 14,
        "n_symdols": 0,
        "n_write_and_execute_sections": 1,
        "n_write_sections": 5,
        "timestamp": 3847877496
    },
    "packer": "themida",
    "path": "../themida/themida/OpenWith_protected.exe"
}