{
    ".rsrc": {
        "entropy": 7.146000828502209,
        "hash": "592acbe4396ff85c",
        "is_executable": false,
        "is_readable": true,
        "is_writable": false,
        "is_writable_and_executable": false,
        "raw_size": 90624,
        "raw_virtual_size_ratio": 1.0,
        "virtual_size": 90624
    },
    "file": {
        "SOC": 148480,
        "SOH": 240,
        "SOHO": 1024,
        "SOI": 9711616,
        "SOID": 128000,
        "SOS": 142,
        "SOUID": 512,
        "avg_str_len": 10.923076923076923,
        "n_execute_sections": 3,
        "n_import_funcs": 16,
        "n_imports": 16,
        "n_read_sections": 12,
        "n_sections": 12,
        "n_standart_sections": 3,
        "n_strings": 13,
        "n_symdols": 0,
        "n_write_and_execute_sections": 1,
        "n_write_sections": 4,
        "timestamp": 1289558450
    },
    "packer": "themida",
    "path": "../themida/themida/bdeunlock_protected.exe"
}