{
    ".rsrc": {
        "entropy": 4.866478115786182,
        "hash": "c4c3b897a1c5183c",
        "is_executable": false,
        "is_readable": true,
        "is_writable": false,
        "is_writable_and_executable": false,
        "raw_size": 7168,
        "raw_virtual_size_ratio": 1.0,
        "virtual_size": 7168
    },
    "file": {
        "SOC": 65024,
        "SOH": 240,
        "SOHO": 1024,
        "SOI": 9768960,
        "SOID": 55808,
        "SOS": 140,
        "SOUID": 0,
        "avg_str_len": 10.76923076923077,
        "n_execute_sections": 3,
        "n_import_funcs": 10,
        "n_imports": 10,
        "n_read_sections": 12,
        "n_sections": 12,
        "n_standart_sections": 3,
        "n_strings": 13,
        "n_symdols": 0,
        "n_write_and_execute_sections": 1,
        "n_write_sections": 4,
        "timestamp": 3896035852
    },
    "packer": "themida",
    "path": "../themida/themida/IMTCLNWZ_protected.EXE"
}