{
    ".rsrc": {
        "entropy": 4.038634588998105,
        "hash": "1538d9320d23f4cc",
        "is_executable": false,
        "is_readable": true,
        "is_writable": false,
        "is_writable_and_executable": false,
        "raw_size": 2048,
        "raw_virtual_size_ratio": 0.5,
        "virtual_size": 4096
    },
    "file": {
        "SOC": 62976,
        "SOH": 240,
        "SOHO": 1024,
        "SOI": 9850880,
        "SOID": 45056,
        "SOS": 137,
        "SOUID": 0,
        "avg_str_len": 10.538461538461538,
        "n_execute_sections": 3,
        "n_import_funcs": 25,
        "n_imports": 25,
        "n_read_sections": 11,
        "n_sections": 11,
        "n_standart_sections": 2,
        "n_strings": 13,
        "n_symdols": 0,
        "n_write_and_execute_sections": 1,
        "n_write_sections": 4,
        "timestamp": 2906817322
    },
    "packer": "themida",
    "path": "../themida/themida/wecutil_protected.exe"
}