{
    ".rsrc": {
        "entropy": 3.379937897801696,
        "hash": "82998263dec6de8b",
        "is_executable": false,
        "is_readable": true,
        "is_writable": false,
        "is_writable_and_executable": false,
        "raw_size": 1024,
        "raw_virtual_size_ratio": 0.25,
        "virtual_size": 4096
    },
    "file": {
        "SOC": 178688,
        "SOH": 240,
        "SOHO": 1024,
        "SOI": 10067968,
        "SOID": 115712,
        "SOS": 155,
        "SOUID": 0,
        "avg_str_len": 9.6875,
        "n_execute_sections": 3,
        "n_import_funcs": 40,
        "n_imports": 40,
        "n_read_sections": 11,
        "n_sections": 11,
        "n_standart_sections": 2,
        "n_strings": 16,
        "n_symdols": 0,
        "n_write_and_execute_sections": 1,
        "n_write_sections": 4,
        "timestamp": 2541521786
    },
    "packer": "themida",
    "path": "../themida/themida/WpcTok_protected.exe"
}