{
    ".rsrc": {
        "entropy": 3.9834719122832274,
        "hash": "01a4cba4bf5ede3c",
        "is_executable": false,
        "is_readable": true,
        "is_writable": false,
        "is_writable_and_executable": false,
        "raw_size": 2048,
        "raw_virtual_size_ratio": 0.5,
        "virtual_size": 4096
    },
    "file": {
        "SOC": 75776,
        "SOH": 240,
        "SOHO": 1024,
        "SOI": 9883648,
        "SOID": 46592,
        "SOS": 146,
        "SOUID": 0,
        "avg_str_len": 10.428571428571429,
        "n_execute_sections": 3,
        "n_import_funcs": 40,
        "n_imports": 40,
        "n_read_sections": 13,
        "n_sections": 13,
        "n_standart_sections": 3,
        "n_strings": 14,
        "n_symdols": 0,
        "n_write_and_execute_sections": 1,
        "n_write_sections": 5,
        "timestamp": 4178801061
    },
    "packer": "themida",
    "path": "../themida/themida/dispdiag_protected.exe"
}