{
    ".rsrc": {
        "entropy": 3.9633852856037954,
        "hash": "1ba45d57283364bc",
        "is_executable": false,
        "is_readable": true,
        "is_writable": false,
        "is_writable_and_executable": false,
        "raw_size": 2048,
        "raw_virtual_size_ratio": 0.5,
        "virtual_size": 4096
    },
    "file": {
        "SOC": 32768,
        "SOH": 240,
        "SOHO": 1024,
        "SOI": 9785344,
        "SOID": 21504,
        "SOS": 147,
        "SOUID": 512,
        "avg_str_len": 10.5,
        "n_execute_sections": 3,
        "n_import_funcs": 25,
        "n_imports": 25,
        "n_read_sections": 12,
        "n_sections": 12,
        "n_standart_sections": 2,
        "n_strings": 14,
        "n_symdols": 0,
        "n_write_and_execute_sections": 1,
        "n_write_sections": 5,
        "timestamp": 3606748598
    },
    "packer": "themida",
    "path": "../themida/themida/CastSrv_protected.exe"
}