{
    ".rsrc": {
        "entropy": 7.303946271966363,
        "hash": "973c6607f21b9fe6",
        "is_executable": false,
        "is_readable": true,
        "is_writable": false,
        "is_writable_and_executable": false,
        "raw_size": 80896,
        "raw_virtual_size_ratio": 1.0,
        "virtual_size": 80896
    },
    "file": {
        "SOC": 93184,
        "SOH": 240,
        "SOHO": 1024,
        "SOI": 10088448,
        "SOID": 131072,
        "SOS": 151,
        "SOUID": 512,
        "avg_str_len": 10.785714285714286,
        "n_execute_sections": 3,
        "n_import_funcs": 41,
        "n_imports": 41,
        "n_read_sections": 12,
        "n_sections": 12,
        "n_standart_sections": 2,
        "n_strings": 14,
        "n_symdols": 0,
        "n_write_and_execute_sections": 1,
        "n_write_sections": 5,
        "timestamp": 753497203
    },
    "packer": "themida",
    "path": "../themida/themida/wermgr_protected.exe"
}