{
    ".rsrc": {
        "entropy": 7.502592624256432,
        "hash": "c0bd42c25822a294",
        "is_executable": false,
        "is_readable": true,
        "is_writable": false,
        "is_writable_and_executable": false,
        "raw_size": 102400,
        "raw_virtual_size_ratio": 1.0,
        "virtual_size": 102400
    },
    "file": {
        "SOC": 41472,
        "SOH": 240,
        "SOHO": 1024,
        "SOI": 9981952,
        "SOID": 140800,
        "SOS": 129,
        "SOUID": 0,
        "avg_str_len": 10.75,
        "n_execute_sections": 3,
        "n_import_funcs": 13,
        "n_imports": 13,
        "n_read_sections": 10,
        "n_sections": 10,
        "n_standart_sections": 2,
        "n_strings": 12,
        "n_symdols": 0,
        "n_write_and_execute_sections": 1,
        "n_write_sections": 3,
        "timestamp": 264110752
    },
    "packer": "themida",
    "path": "../themida/themida/perfmon_protected.exe"
}