{
    ".rsrc": {
        "entropy": 4.075033974776659,
        "hash": "2c50fea3a104e9ee",
        "is_executable": false,
        "is_readable": true,
        "is_writable": false,
        "is_writable_and_executable": false,
        "raw_size": 2048,
        "raw_virtual_size_ratio": 0.5,
        "virtual_size": 4096
    },
    "file": {
        "SOC": 107008,
        "SOH": 240,
        "SOHO": 1024,
        "SOI": 9969664,
        "SOID": 46080,
        "SOS": 148,
        "SOUID": 512,
        "avg_str_len": 10.571428571428571,
        "n_execute_sections": 3,
        "n_import_funcs": 36,
        "n_imports": 36,
        "n_read_sections": 12,
        "n_sections": 12,
        "n_standart_sections": 2,
        "n_strings": 14,
        "n_symdols": 0,
        "n_write_and_execute_sections": 1,
        "n_write_sections": 5,
        "timestamp": 4136901294
    },
    "packer": "themida",
    "path": "../themida/themida/SpatialAudioLicenseSrv_protected.exe"
}