{
    ".rsrc": {
        "entropy": 4.0193378002557365,
        "hash": "5dc6d9b22b07b3c2",
        "is_executable": false,
        "is_readable": true,
        "is_writable": false,
        "is_writable_and_executable": false,
        "raw_size": 2048,
        "raw_virtual_size_ratio": 0.5,
        "virtual_size": 4096
    },
    "file": {
        "SOC": 35328,
        "SOH": 240,
        "SOHO": 1024,
        "SOI": 9805824,
        "SOID": 18944,
        "SOS": 124,
        "SOUID": 0,
        "avg_str_len": 11.272727272727273,
        "n_execute_sections": 3,
        "n_import_funcs": 7,
        "n_imports": 7,
        "n_read_sections": 10,
        "n_sections": 10,
        "n_standart_sections": 2,
        "n_strings": 11,
        "n_symdols": 0,
        "n_write_and_execute_sections": 1,
        "n_write_sections": 3,
        "timestamp": 499373897
    },
    "packer": "themida",
    "path": "../themida/themida/pcalua_protected.exe"
}