{
    ".rsrc": {
        "entropy": 7.138826670448683,
        "hash": "90321c9ab509f745",
        "is_executable": false,
        "is_readable": true,
        "is_writable": false,
        "is_writable_and_executable": false,
        "raw_size": 90112,
        "raw_virtual_size_ratio": 1.0,
        "virtual_size": 90112
    },
    "file": {
        "SOC": 25600,
        "SOH": 240,
        "SOHO": 1024,
        "SOI": 9949184,
        "SOID": 103936,
        "SOS": 130,
        "SOUID": 0,
        "avg_str_len": 10.833333333333334,
        "n_execute_sections": 3,
        "n_import_funcs": 13,
        "n_imports": 13,
        "n_read_sections": 10,
        "n_sections": 10,
        "n_standart_sections": 2,
        "n_strings": 12,
        "n_symdols": 0,
        "n_write_and_execute_sections": 1,
        "n_write_sections": 3,
        "timestamp": 3500693070
    },
    "packer": "themida",
    "path": "../themida/themida/repair-bde_protected.exe"
}