{
    ".rsrc": {
        "entropy": 4.094355202800907,
        "hash": "a38f70d1532bb9aa",
        "is_executable": false,
        "is_readable": true,
        "is_writable": false,
        "is_writable_and_executable": false,
        "raw_size": 2048,
        "raw_virtual_size_ratio": 0.5,
        "virtual_size": 4096
    },
    "file": {
        "SOC": 13824,
        "SOH": 240,
        "SOHO": 1024,
        "SOI": 9748480,
        "SOID": 13312,
        "SOS": 125,
        "SOUID": 0,
        "avg_str_len": 11.363636363636363,
        "n_execute_sections": 3,
        "n_import_funcs": 19,
        "n_imports": 19,
        "n_read_sections": 10,
        "n_sections": 10,
        "n_standart_sections": 2,
        "n_strings": 11,
        "n_symdols": 0,
        "n_write_and_execute_sections": 1,
        "n_write_sections": 3,
        "timestamp": 788886058
    },
    "packer": "themida",
    "path": "../themida/themida/ARP_protected.EXE"
}