{
    ".rsrc": {
        "entropy": 2.497795615812145,
        "hash": "05f55813472f2c00",
        "is_executable": false,
        "is_readable": true,
        "is_writable": false,
        "is_writable_and_executable": false,
        "raw_size": 1536,
        "raw_virtual_size_ratio": 0.375,
        "virtual_size": 4096
    },
    "file": {
        "SOC": 13824,
        "SOH": 240,
        "SOHO": 1024,
        "SOI": 9404416,
        "SOID": 26112,
        "SOS": 133,
        "SOUID": 0,
        "avg_str_len": 11.083333333333334,
        "n_execute_sections": 3,
        "n_import_funcs": 29,
        "n_imports": 29,
        "n_read_sections": 11,
        "n_sections": 11,
        "n_standart_sections": 2,
        "n_strings": 12,
        "n_symdols": 0,
        "n_write_and_execute_sections": 1,
        "n_write_sections": 4,
        "timestamp": 1180052587
    },
    "packer": "themida",
    "path": "../themida/themida/dmcfghost_protected.exe"
}