{
    ".rsrc": {
        "entropy": 5.445311789510743,
        "hash": "942e71e6ccef95cd",
        "is_executable": false,
        "is_readable": true,
        "is_writable": false,
        "is_writable_and_executable": false,
        "raw_size": 44544,
        "raw_virtual_size_ratio": 1.0,
        "virtual_size": 44544
    },
    "file": {
        "SOC": 40960,
        "SOH": 240,
        "SOHO": 1024,
        "SOI": 9818112,
        "SOID": 71680,
        "SOS": 145,
        "SOUID": 0,
        "avg_str_len": 10.357142857142858,
        "n_execute_sections": 3,
        "n_import_funcs": 8,
        "n_imports": 8,
        "n_read_sections": 12,
        "n_sections": 12,
        "n_standart_sections": 3,
        "n_strings": 14,
        "n_symdols": 0,
        "n_write_and_execute_sections": 1,
        "n_write_sections": 4,
        "timestamp": 3871404532
    },
    "packer": "themida",
    "path": "../themida/themida/IMJPUEX_protected.EXE"
}