{
    ".rsrc": {
        "entropy": 5.870542319040957,
        "hash": "e84e33d981a4e6f8",
        "is_executable": false,
        "is_readable": true,
        "is_writable": false,
        "is_writable_and_executable": false,
        "raw_size": 28160,
        "raw_virtual_size_ratio": 1.0,
        "virtual_size": 28160
    },
    "file": {
        "SOC": 19968,
        "SOH": 240,
        "SOHO": 1024,
        "SOI": 9465856,
        "SOID": 44544,
        "SOS": 144,
        "SOUID": 0,
        "avg_str_len": 10.285714285714286,
        "n_execute_sections": 3,
        "n_import_funcs": 23,
        "n_imports": 23,
        "n_read_sections": 10,
        "n_sections": 10,
        "n_standart_sections": 2,
        "n_strings": 14,
        "n_symdols": 0,
        "n_write_and_execute_sections": 1,
        "n_write_sections": 3,
        "timestamp": 3284850389
    },
    "packer": "themida",
    "path": "../themida/themida/xwizard_protected.exe"
}