{
    ".rsrc": {
        "entropy": 4.063652150552571,
        "hash": "a865b633c27cabde",
        "is_executable": false,
        "is_readable": true,
        "is_writable": false,
        "is_writable_and_executable": false,
        "raw_size": 2048,
        "raw_virtual_size_ratio": 0.5,
        "virtual_size": 4096
    },
    "file": {
        "SOC": 12800,
        "SOH": 240,
        "SOHO": 1024,
        "SOI": 9805824,
        "SOID": 12288,
        "SOS": 131,
        "SOUID": 0,
        "avg_str_len": 10.916666666666666,
        "n_execute_sections": 3,
        "n_import_funcs": 19,
        "n_imports": 19,
        "n_read_sections": 10,
        "n_sections": 10,
        "n_standart_sections": 2,
        "n_strings": 12,
        "n_symdols": 0,
        "n_write_and_execute_sections": 1,
        "n_write_sections": 3,
        "timestamp": 1696138133
    },
    "packer": "themida",
    "path": "../themida/themida/ROUTE_protected.EXE"
}