{
    ".rsrc": {
        "entropy": 3.844212234996834,
        "hash": "09b7e68a51e65d41",
        "is_executable": false,
        "is_readable": true,
        "is_writable": false,
        "is_writable_and_executable": false,
        "raw_size": 41984,
        "raw_virtual_size_ratio": 1.0,
        "virtual_size": 41984
    },
    "file": {
        "SOC": 99840,
        "SOH": 240,
        "SOHO": 1024,
        "SOI": 9953280,
        "SOID": 97280,
        "SOS": 146,
        "SOUID": 0,
        "avg_str_len": 10.428571428571429,
        "n_execute_sections": 3,
        "n_import_funcs": 9,
        "n_imports": 9,
        "n_read_sections": 13,
        "n_sections": 13,
        "n_standart_sections": 3,
        "n_strings": 14,
        "n_symdols": 0,
        "n_write_and_execute_sections": 1,
        "n_write_sections": 5,
        "timestamp": 1081413009
    },
    "packer": "themida",
    "path": "../themida/themida/IMESEARCH_protected.EXE"
}