{
    ".rsrc": {
        "entropy": 2.50206097777207,
        "hash": "cdf320c14e7ac44d",
        "is_executable": false,
        "is_readable": true,
        "is_writable": false,
        "is_writable_and_executable": false,
        "raw_size": 1536,
        "raw_virtual_size_ratio": 0.375,
        "virtual_size": 4096
    },
    "file": {
        "SOC": 201728,
        "SOH": 240,
        "SOHO": 1024,
        "SOI": 9961472,
        "SOID": 102912,
        "SOS": 159,
        "SOUID": 0,
        "avg_str_len": 9.9375,
        "n_execute_sections": 3,
        "n_import_funcs": 23,
        "n_imports": 23,
        "n_read_sections": 12,
        "n_sections": 12,
        "n_standart_sections": 3,
        "n_strings": 16,
        "n_symdols": 0,
        "n_write_and_execute_sections": 1,
        "n_write_sections": 4,
        "timestamp": 2349374662
    },
    "packer": "themida",
    "path": "../themida/themida/GameBarPresenceWriter_protected.exe"
}