{
    ".rsrc": {
        "entropy": 5.619438569151263,
        "hash": "b4e581fd063c83bd",
        "is_executable": false,
        "is_readable": true,
        "is_writable": false,
        "is_writable_and_executable": false,
        "raw_size": 57344,
        "raw_virtual_size_ratio": 1.0,
        "virtual_size": 57344
    },
    "file": {
        "SOC": 71168,
        "SOH": 240,
        "SOHO": 1024,
        "SOI": 12992512,
        "SOID": 141312,
        "SOS": 89,
        "SOUID": 0,
        "avg_str_len": 12.714285714285714,
        "n_execute_sections": 3,
        "n_import_funcs": 1,
        "n_imports": 1,
        "n_read_sections": 6,
        "n_sections": 6,
        "n_standart_sections": 2,
        "n_strings": 7,
        "n_symdols": 0,
        "n_write_and_execute_sections": 1,
        "n_write_sections": 2,
        "timestamp": 4201489321
    },
    "packer": "themida",
    "path": "../themida/themida/powershell_ise_protected.exe"
}