{
    ".rsrc": {
        "entropy": 4.019042420909457,
        "hash": "22f1f80c61a447f0",
        "is_executable": false,
        "is_readable": true,
        "is_writable": false,
        "is_writable_and_executable": false,
        "raw_size": 2048,
        "raw_virtual_size_ratio": 0.5,
        "virtual_size": 4096
    },
    "file": {
        "SOC": 29696,
        "SOH": 240,
        "SOHO": 1024,
        "SOI": 9814016,
        "SOID": 24064,
        "SOS": 126,
        "SOUID": 0,
        "avg_str_len": 11.454545454545455,
        "n_execute_sections": 3,
        "n_import_funcs": 28,
        "n_imports": 28,
        "n_read_sections": 10,
        "n_sections": 10,
        "n_standart_sections": 2,
        "n_strings": 11,
        "n_symdols": 0,
        "n_write_and_execute_sections": 1,
        "n_write_sections": 3,
        "timestamp": 3997524395
    },
    "packer": "themida",
    "path": "../themida/themida/scrcons_protected.exe"
}