{
    ".rsrc": {
        "entropy": 4.103384422294228,
        "hash": "549fc133607810ee",
        "is_executable": false,
        "is_readable": true,
        "is_writable": false,
        "is_writable_and_executable": false,
        "raw_size": 2048,
        "raw_virtual_size_ratio": 0.5,
        "virtual_size": 4096
    },
    "file": {
        "SOC": 29184,
        "SOH": 240,
        "SOHO": 1024,
        "SOI": 10084352,
        "SOID": 15872,
        "SOS": 134,
        "SOUID": 0,
        "avg_str_len": 11.166666666666666,
        "n_execute_sections": 3,
        "n_import_funcs": 33,
        "n_imports": 33,
        "n_read_sections": 10,
        "n_sections": 10,
        "n_standart_sections": 2,
        "n_strings": 12,
        "n_symdols": 0,
        "n_write_and_execute_sections": 1,
        "n_write_sections": 3,
        "timestamp": 3485656939
    },
    "packer": "themida",
    "path": "../themida/themida/eventcreate_protected.exe"
}