{
    ".rsrc": {
        "entropy": 7.4061253107866865,
        "hash": "d2d4c60e464f486f",
        "is_executable": false,
        "is_readable": true,
        "is_writable": false,
        "is_writable_and_executable": false,
        "raw_size": 79360,
        "raw_virtual_size_ratio": 1.0,
        "virtual_size": 79360
    },
    "file": {
        "SOC": 2560,
        "SOH": 240,
        "SOHO": 1024,
        "SOI": 9576448,
        "SOID": 85504,
        "SOS": 131,
        "SOUID": 0,
        "avg_str_len": 10.916666666666666,
        "n_execute_sections": 3,
        "n_import_funcs": 3,
        "n_imports": 3,
        "n_read_sections": 10,
        "n_sections": 10,
        "n_standart_sections": 2,
        "n_strings": 12,
        "n_symdols": 0,
        "n_write_and_execute_sections": 1,
        "n_write_sections": 3,
        "timestamp": 3518795970
    },
    "packer": "themida",
    "path": "../themida/themida/colorcpl_protected.exe"
}