{
    ".rsrc": {
        "entropy": 2.490736895328721,
        "hash": "e6d730307eda21ef",
        "is_executable": false,
        "is_readable": true,
        "is_writable": false,
        "is_writable_and_executable": false,
        "raw_size": 1536,
        "raw_virtual_size_ratio": 0.375,
        "virtual_size": 4096
    },
    "file": {
        "SOC": 27136,
        "SOH": 240,
        "SOHO": 1024,
        "SOI": 9826304,
        "SOID": 25600,
        "SOS": 129,
        "SOUID": 0,
        "avg_str_len": 10.75,
        "n_execute_sections": 3,
        "n_import_funcs": 20,
        "n_imports": 20,
        "n_read_sections": 10,
        "n_sections": 10,
        "n_standart_sections": 2,
        "n_strings": 12,
        "n_symdols": 0,
        "n_write_and_execute_sections": 1,
        "n_write_sections": 3,
        "timestamp": 2054821604
    },
    "packer": "themida",
    "path": "../themida/themida/MdmDiagnosticsTool_protected.exe"
}