{
    ".rsrc": {
        "entropy": 2.5887120219265696,
        "hash": "6bc4acd7daf82a05",
        "is_executable": false,
        "is_readable": true,
        "is_writable": false,
        "is_writable_and_executable": false,
        "raw_size": 1536,
        "raw_virtual_size_ratio": 0.375,
        "virtual_size": 4096
    },
    "file": {
        "SOC": 158720,
        "SOH": 240,
        "SOHO": 1536,
        "SOI": 10321920,
        "SOID": 56832,
        "SOS": 147,
        "SOUID": 0,
        "avg_str_len": 10.5,
        "n_execute_sections": 3,
        "n_import_funcs": 26,
        "n_imports": 26,
        "n_read_sections": 13,
        "n_sections": 13,
        "n_standart_sections": 3,
        "n_strings": 14,
        "n_symdols": 0,
        "n_write_and_execute_sections": 1,
        "n_write_sections": 5,
        "timestamp": 3955677004
    },
    "packer": "themida",
    "path": "../themida/themida/CompPkgSrv_protected.exe"
}