{
    ".rsrc": {
        "entropy": 4.062011983894543,
        "hash": "38ef1c9f96bfb8cd",
        "is_executable": false,
        "is_readable": true,
        "is_writable": false,
        "is_writable_and_executable": false,
        "raw_size": 2048,
        "raw_virtual_size_ratio": 0.5,
        "virtual_size": 4096
    },
    "file": {
        "SOC": 5632,
        "SOH": 240,
        "SOHO": 1024,
        "SOI": 9789440,
        "SOID": 10240,
        "SOS": 127,
        "SOUID": 0,
        "avg_str_len": 11.545454545454545,
        "n_execute_sections": 3,
        "n_import_funcs": 4,
        "n_imports": 4,
        "n_read_sections": 10,
        "n_sections": 10,
        "n_standart_sections": 2,
        "n_strings": 11,
        "n_symdols": 0,
        "n_write_and_execute_sections": 1,
        "n_write_sections": 3,
        "timestamp": 4222482656
    },
    "packer": "themida",
    "path": "../themida/themida/TapiUnattend_protected.exe"
}