{
    ".rsrc": {
        "entropy": 4.374850843134563,
        "hash": "3ab9044c6334dfc9",
        "is_executable": false,
        "is_readable": true,
        "is_writable": false,
        "is_writable_and_executable": false,
        "raw_size": 2560,
        "raw_virtual_size_ratio": 0.625,
        "virtual_size": 4096
    },
    "file": {
        "SOC": 16896,
        "SOH": 240,
        "SOHO": 1024,
        "SOI": 9789440,
        "SOID": 14336,
        "SOS": 124,
        "SOUID": 0,
        "avg_str_len": 11.272727272727273,
        "n_execute_sections": 3,
        "n_import_funcs": 14,
        "n_imports": 14,
        "n_read_sections": 10,
        "n_sections": 10,
        "n_standart_sections": 2,
        "n_strings": 11,
        "n_symdols": 0,
        "n_write_and_execute_sections": 1,
        "n_write_sections": 3,
        "timestamp": 3610094722
    },
    "packer": "themida",
    "path": "../themida/themida/prevhost_protected.exe"
}