{
    ".rsrc": {
        "entropy": 3.9474869499479066,
        "hash": "daafb13de9d3b4c3",
        "is_executable": false,
        "is_readable": true,
        "is_writable": false,
        "is_writable_and_executable": false,
        "raw_size": 2048,
        "raw_virtual_size_ratio": 0.5,
        "virtual_size": 4096
    },
    "file": {
        "SOC": 58880,
        "SOH": 240,
        "SOHO": 1024,
        "SOI": 10104832,
        "SOID": 282112,
        "SOS": 129,
        "SOUID": 0,
        "avg_str_len": 11.727272727272727,
        "n_execute_sections": 3,
        "n_import_funcs": 29,
        "n_imports": 29,
        "n_read_sections": 10,
        "n_sections": 10,
        "n_standart_sections": 2,
        "n_strings": 11,
        "n_symdols": 0,
        "n_write_and_execute_sections": 1,
        "n_write_sections": 3,
        "timestamp": 3694933746
    },
    "packer": "themida",
    "path": "../themida/themida/reg_protected.exe"
}