{
    ".rsrc": {
        "entropy": 3.576792279341654,
        "hash": "6b81ca2e5315023a",
        "is_executable": false,
        "is_readable": true,
        "is_writable": false,
        "is_writable_and_executable": false,
        "raw_size": 52736,
        "raw_virtual_size_ratio": 1.0,
        "virtual_size": 52736
    },
    "file": {
        "SOC": 60928,
        "SOH": 240,
        "SOHO": 1024,
        "SOI": 10010624,
        "SOID": 87040,
        "SOS": 127,
        "SOUID": 0,
        "avg_str_len": 11.545454545454545,
        "n_execute_sections": 3,
        "n_import_funcs": 16,
        "n_imports": 16,
        "n_read_sections": 10,
        "n_sections": 10,
        "n_standart_sections": 2,
        "n_strings": 11,
        "n_symdols": 0,
        "n_write_and_execute_sections": 1,
        "n_write_sections": 3,
        "timestamp": 1701274277
    },
    "packer": "themida",
    "path": "../themida/themida/fsquirt_protected.exe"
}