{
    ".rsrc": {
        "entropy": 4.010302679739073,
        "hash": "9b55558f33a93e26",
        "is_executable": false,
        "is_readable": true,
        "is_writable": false,
        "is_writable_and_executable": false,
        "raw_size": 2048,
        "raw_virtual_size_ratio": 0.5,
        "virtual_size": 4096
    },
    "file": {
        "SOC": 37376,
        "SOH": 240,
        "SOHO": 1024,
        "SOI": 9408512,
        "SOID": 27136,
        "SOS": 132,
        "SOUID": 0,
        "avg_str_len": 11.0,
        "n_execute_sections": 3,
        "n_import_funcs": 9,
        "n_imports": 9,
        "n_read_sections": 10,
        "n_sections": 10,
        "n_standart_sections": 2,
        "n_strings": 12,
        "n_symdols": 0,
        "n_write_and_execute_sections": 1,
        "n_write_sections": 3,
        "timestamp": 3572710379
    },
    "packer": "themida",
    "path": "../themida/themida/PnPUnattend_protected.exe"
}