{
    ".rsrc": {
        "entropy": 3.2773825616469936,
        "hash": "e34cd4760a8d9267",
        "is_executable": false,
        "is_readable": true,
        "is_writable": false,
        "is_writable_and_executable": false,
        "raw_size": 1024,
        "raw_virtual_size_ratio": 0.25,
        "virtual_size": 4096
    },
    "file": {
        "SOC": 49664,
        "SOH": 240,
        "SOHO": 1024,
        "SOI": 9465856,
        "SOID": 22528,
        "SOS": 137,
        "SOUID": 0,
        "avg_str_len": 11.416666666666666,
        "n_execute_sections": 3,
        "n_import_funcs": 26,
        "n_imports": 26,
        "n_read_sections": 11,
        "n_sections": 11,
        "n_standart_sections": 2,
        "n_strings": 12,
        "n_symdols": 0,
        "n_write_and_execute_sections": 1,
        "n_write_sections": 4,
        "timestamp": 3594847156
    },
    "packer": "themida",
    "path": "../themida/themida/spaceman_protected.exe"
}