{
    ".rsrc": {
        "entropy": 2.8287774060316697,
        "hash": "3653b7d56c21a470",
        "is_executable": false,
        "is_readable": true,
        "is_writable": true,
        "is_writable_and_executable": false,
        "raw_size": 73728,
        "raw_virtual_size_ratio": 1.0,
        "virtual_size": 73728
    },
    "file": {
        "SOC": 12288,
        "SOH": 240,
        "SOHO": 4096,
        "SOI": 192512,
        "SOID": 73728,
        "SOS": 60,
        "SOUID": 102400,
        "avg_str_len": 15.0,
        "n_execute_sections": 2,
        "n_import_funcs": 18,
        "n_imports": 15,
        "n_read_sections": 3,
        "n_sections": 3,
        "n_standart_sections": 1,
        "n_strings": 4,
        "n_symdols": 0,
        "n_write_and_execute_sections": 2,
        "n_write_sections": 3,
        "timestamp": 12256027
    },
    "packer": "upx",
    "path": "../upx/data/WSCollect.exe"
}