{
    ".rsrc": {
        "entropy": 4.145768288638728,
        "hash": "98283cb44df666e6",
        "is_executable": false,
        "is_readable": true,
        "is_writable": true,
        "is_writable_and_executable": false,
        "raw_size": 4096,
        "raw_virtual_size_ratio": 1.0,
        "virtual_size": 4096
    },
    "file": {
        "SOC": 24576,
        "SOH": 240,
        "SOHO": 4096,
        "SOI": 81920,
        "SOID": 4096,
        "SOS": 67,
        "SOUID": 49152,
        "avg_str_len": 13.4,
        "n_execute_sections": 2,
        "n_import_funcs": 23,
        "n_imports": 20,
        "n_read_sections": 3,
        "n_sections": 3,
        "n_standart_sections": 1,
        "n_strings": 5,
        "n_symdols": 0,
        "n_write_and_execute_sections": 2,
        "n_write_sections": 3,
        "timestamp": 3150262893
    },
    "packer": "upx",
    "path": "../upx/data/LanguageComponentsInstallerComHandler.exe"
}