{
    ".data": {
        "entropy": 2.558020166942779,
        "hash": "79d14070d2f8b193",
        "is_executable": false,
        "is_readable": true,
        "is_writable": true,
        "is_writable_and_executable": false,
        "raw_size": 512,
        "raw_virtual_size_ratio": 0.1887905604719764,
        "virtual_size": 2712
    },
    ".rsrc": {
        "entropy": 2.5052807548148763,
        "hash": "40898bd290ab10ad",
        "is_executable": false,
        "is_readable": true,
        "is_writable": false,
        "is_writable_and_executable": false,
        "raw_size": 1536,
        "raw_virtual_size_ratio": 1.4545454545454546,
        "virtual_size": 1056
    },
    ".text": {
        "entropy": 6.024244605160362,
        "hash": "fb6c29d906e1211c",
        "is_executable": true,
        "is_readable": true,
        "is_writable": false,
        "is_writable_and_executable": false,
        "raw_size": 37888,
        "raw_virtual_size_ratio": 1.000131985323232,
        "virtual_size": 37883
    },
    "file": {
        "SOC": 37888,
        "SOH": 240,
        "SOHO": 1024,
        "SOI": 90112,
        "SOID": 26112,
        "SOS": 99,
        "SOUID": 512,
        "avg_str_len": 9.9,
        "n_execute_sections": 1,
        "n_import_funcs": 125,
        "n_imports": 29,
        "n_read_sections": 8,
        "n_sections": 8,
        "n_standart_sections": 4,
        "n_strings": 10,
        "n_symdols": 0,
        "n_write_and_execute_sections": 0,
        "n_write_sections": 3,
        "timestamp": 1895419485
    },
    "packer": "origin",
    "path": "../origin/edpnotify.exe"
}