{
    ".rsrc": {
        "entropy": 3.9065921033685083,
        "hash": "aa69fd6ac1446ce4",
        "is_executable": false,
        "is_readable": true,
        "is_writable": true,
        "is_writable_and_executable": false,
        "raw_size": 3584,
        "raw_virtual_size_ratio": 0.875,
        "virtual_size": 4096
    },
    "file": {
        "SOC": 24576,
        "SOH": 240,
        "SOHO": 4096,
        "SOI": 81920,
        "SOID": 4096,
        "SOS": 55,
        "SOUID": 49152,
        "avg_str_len": 18.333333333333332,
        "n_execute_sections": 2,
        "n_import_funcs": 27,
        "n_imports": 24,
        "n_read_sections": 3,
        "n_sections": 3,
        "n_standart_sections": 1,
        "n_strings": 3,
        "n_symdols": 0,
        "n_write_and_execute_sections": 2,
        "n_write_sections": 3,
        "timestamp": 3320203893
    },
    "packer": "upx",
    "path": "../upx/data/SgrmLpac.exe"
}