{
    ".data": {
        "entropy": 0.31780982431271465,
        "hash": "20aea54b63d8cb46",
        "is_executable": false,
        "is_readable": true,
        "is_writable": true,
        "is_writable_and_executable": false,
        "raw_size": 512,
        "raw_virtual_size_ratio": 0.28444444444444444,
        "virtual_size": 1800
    },
    ".rsrc": {
        "entropy": 2.5630464587935187,
        "hash": "6bc79d81c598b907",
        "is_executable": false,
        "is_readable": true,
        "is_writable": false,
        "is_writable_and_executable": false,
        "raw_size": 1536,
        "raw_virtual_size_ratio": 1.411764705882353,
        "virtual_size": 1088
    },
    ".text": {
        "entropy": 5.795198062243183,
        "hash": "59d423a4bb712a8f",
        "is_executable": true,
        "is_readable": true,
        "is_writable": false,
        "is_writable_and_executable": false,
        "raw_size": 9216,
        "raw_virtual_size_ratio": 1.0227499722561313,
        "virtual_size": 9011
    },
    "file": {
        "SOC": 9216,
        "SOH": 240,
        "SOHO": 1024,
        "SOI": 40960,
        "SOID": 11776,
        "SOS": 81,
        "SOUID": 0,
        "avg_str_len": 11.571428571428571,
        "n_execute_sections": 1,
        "n_import_funcs": 70,
        "n_imports": 15,
        "n_read_sections": 6,
        "n_sections": 6,
        "n_standart_sections": 4,
        "n_strings": 7,
        "n_symdols": 0,
        "n_write_and_execute_sections": 0,
        "n_write_sections": 1,
        "timestamp": 2151716020
    },
    "packer": "origin",
    "path": "../origin/WinRTNetMUAHostServer.exe"
}