{
    ".rsrc": {
        "entropy": 4.900032503892699,
        "hash": "b707f6695a50d425",
        "is_executable": false,
        "is_readable": true,
        "is_writable": true,
        "is_writable_and_executable": false,
        "raw_size": 3072,
        "raw_virtual_size_ratio": 0.75,
        "virtual_size": 4096
    },
    "file": {
        "SOC": 81920,
        "SOH": 240,
        "SOHO": 4096,
        "SOI": 188416,
        "SOID": 4096,
        "SOS": 61,
        "SOUID": 98304,
        "avg_str_len": 15.25,
        "n_execute_sections": 2,
        "n_import_funcs": 26,
        "n_imports": 23,
        "n_read_sections": 3,
        "n_sections": 3,
        "n_standart_sections": 1,
        "n_strings": 4,
        "n_symdols": 0,
        "n_write_and_execute_sections": 2,
        "n_write_sections": 3,
        "timestamp": 40257359
    },
    "packer": "upx",
    "path": "../upx/data/EoAExperiences.exe"
}