{
    ".data": {
        "entropy": 3.9268348257041943,
        "hash": "8ebfd8cfca189c12",
        "is_executable": false,
        "is_readable": true,
        "is_writable": true,
        "is_writable_and_executable": false,
        "raw_size": 3584,
        "raw_virtual_size_ratio": 0.1272365805168986,
        "virtual_size": 28168
    },
    ".rsrc": {
        "entropy": 4.324585137403775,
        "hash": "2eb2b504952cb2a2",
        "is_executable": false,
        "is_readable": true,
        "is_writable": false,
        "is_writable_and_executable": false,
        "raw_size": 3072,
        "raw_virtual_size_ratio": 1.1294117647058823,
        "virtual_size": 2720
    },
    ".text": {
        "entropy": 6.255230141373103,
        "hash": "86de97c2e4840beb",
        "is_executable": true,
        "is_readable": true,
        "is_writable": false,
        "is_writable_and_executable": false,
        "raw_size": 182784,
        "raw_virtual_size_ratio": 1.002116251274685,
        "virtual_size": 182398
    },
    "file": {
        "SOC": 182784,
        "SOH": 240,
        "SOHO": 1024,
        "SOI": 278528,
        "SOID": 78848,
        "SOS": 93,
        "SOUID": 0,
        "avg_str_len": 10.333333333333334,
        "n_execute_sections": 1,
        "n_import_funcs": 373,
        "n_imports": 14,
        "n_read_sections": 7,
        "n_sections": 7,
        "n_standart_sections": 4,
        "n_strings": 9,
        "n_symdols": 0,
        "n_write_and_execute_sections": 0,
        "n_write_sections": 2,
        "timestamp": 3160206076
    },
    "packer": "origin",
    "path": "../origin/psr.exe"
}