{
    ".rsrc": {
        "entropy": 4.28261793916796,
        "hash": "715f5458046c158e",
        "is_executable": false,
        "is_readable": true,
        "is_writable": true,
        "is_writable_and_executable": false,
        "raw_size": 3584,
        "raw_virtual_size_ratio": 0.875,
        "virtual_size": 4096
    },
    "file": {
        "SOC": 12288,
        "SOH": 240,
        "SOHO": 4096,
        "SOI": 69632,
        "SOID": 4096,
        "SOS": 60,
        "SOUID": 49152,
        "avg_str_len": 15.0,
        "n_execute_sections": 2,
        "n_import_funcs": 17,
        "n_imports": 14,
        "n_read_sections": 3,
        "n_sections": 3,
        "n_standart_sections": 1,
        "n_strings": 4,
        "n_symdols": 0,
        "n_write_and_execute_sections": 2,
        "n_write_sections": 3,
        "timestamp": 2529284767
    },
    "packer": "upx",
    "path": "../upx/data/BackgroundTransferHost.exe"
}