{
    ".rsrc": {
        "entropy": 4.1149522267086,
        "hash": "54939dbe2d984855",
        "is_executable": false,
        "is_readable": true,
        "is_writable": false,
        "is_writable_and_executable": false,
        "raw_size": 2560,
        "raw_virtual_size_ratio": 0.625,
        "virtual_size": 4096
    },
    "file": {
        "SOC": 88576,
        "SOH": 240,
        "SOHO": 1024,
        "SOI": 9801728,
        "SOID": 38912,
        "SOS": 140,
        "SOUID": 0,
        "avg_str_len": 10.76923076923077,
        "n_execute_sections": 3,
        "n_import_funcs": 32,
        "n_imports": 32,
        "n_read_sections": 11,
        "n_sections": 11,
        "n_standart_sections": 2,
        "n_strings": 13,
        "n_symdols": 0,
        "n_write_and_execute_sections": 1,
        "n_write_sections": 4,
        "timestamp": 1337716049
    },
    "packer": "themida",
    "path": "../themida/themida/immersivetpmvscmgrsvr_protected.exe"
}