{
    ".data": {
        "entropy": 0.6309925842515985,
        "hash": "d9f30143c9ed9fc6",
        "is_executable": false,
        "is_readable": true,
        "is_writable": true,
        "is_writable_and_executable": false,
        "raw_size": 512,
        "raw_virtual_size_ratio": 0.04321404456448346,
        "virtual_size": 11848
    },
    ".rsrc": {
        "entropy": 4.272820153778122,
        "hash": "4ae72ac617b79e03",
        "is_executable": false,
        "is_readable": true,
        "is_writable": false,
        "is_writable_and_executable": false,
        "raw_size": 2048,
        "raw_virtual_size_ratio": 1.024,
        "virtual_size": 2000
    },
    ".text": {
        "entropy": 6.063303251145456,
        "hash": "45ebe694b0140525",
        "is_executable": true,
        "is_readable": true,
        "is_writable": false,
        "is_writable_and_executable": false,
        "raw_size": 17920,
        "raw_virtual_size_ratio": 1.0256410256410255,
        "virtual_size": 17472
    },
    "file": {
        "SOC": 17920,
        "SOH": 240,
        "SOHO": 1024,
        "SOI": 57344,
        "SOID": 21504,
        "SOS": 86,
        "SOUID": 0,
        "avg_str_len": 10.75,
        "n_execute_sections": 1,
        "n_import_funcs": 88,
        "n_imports": 4,
        "n_read_sections": 6,
        "n_sections": 6,
        "n_standart_sections": 4,
        "n_strings": 8,
        "n_symdols": 0,
        "n_write_and_execute_sections": 0,
        "n_write_sections": 1,
        "timestamp": 3675448610
    },
    "packer": "origin",
    "path": "../origin/sort.exe"
}