{
    ".rsrc": {
        "entropy": 2.4841601373987077,
        "hash": "e3a46534b2e4d68a",
        "is_executable": false,
        "is_readable": true,
        "is_writable": false,
        "is_writable_and_executable": false,
        "raw_size": 1536,
        "raw_virtual_size_ratio": 0.375,
        "virtual_size": 4096
    },
    "file": {
        "SOC": 4096,
        "SOH": 240,
        "SOHO": 1024,
        "SOI": 9650176,
        "SOID": 8704,
        "SOS": 132,
        "SOUID": 0,
        "avg_str_len": 11.0,
        "n_execute_sections": 3,
        "n_import_funcs": 13,
        "n_imports": 13,
        "n_read_sections": 10,
        "n_sections": 10,
        "n_standart_sections": 2,
        "n_strings": 12,
        "n_symdols": 0,
        "n_write_and_execute_sections": 1,
        "n_write_sections": 3,
        "timestamp": 2847873731
    },
    "packer": "themida",
    "path": "../themida/themida/prproc_protected.exe"
}