{
    ".rsrc": {
        "entropy": 2.4321558977642663,
        "hash": "2dbb0f44cb253284",
        "is_executable": false,
        "is_readable": true,
        "is_writable": false,
        "is_writable_and_executable": false,
        "raw_size": 1536,
        "raw_virtual_size_ratio": 0.375,
        "virtual_size": 4096
    },
    "file": {
        "SOC": 2560,
        "SOH": 240,
        "SOHO": 1024,
        "SOI": 9453568,
        "SOID": 8704,
        "SOS": 164,
        "SOUID": 0,
        "avg_str_len": 9.11111111111111,
        "n_execute_sections": 3,
        "n_import_funcs": 11,
        "n_imports": 11,
        "n_read_sections": 11,
        "n_sections": 11,
        "n_standart_sections": 2,
        "n_strings": 18,
        "n_symdols": 0,
        "n_write_and_execute_sections": 1,
        "n_write_sections": 4,
        "timestamp": 2530560544
    },
    "packer": "themida",
    "path": "../themida/themida/NetHost_protected.exe"
}