{
    ".data": {
        "entropy": 0.0,
        "hash": "c4dd11059477dd0e",
        "is_executable": false,
        "is_readable": true,
        "is_writable": true,
        "is_writable_and_executable": false,
        "raw_size": 0,
        "raw_virtual_size_ratio": 0.0002796420581655481,
        "virtual_size": 3576
    },
    ".rsrc": {
        "entropy": 4.461883260030783,
        "hash": "ce14fba35b89a2a6",
        "is_executable": false,
        "is_readable": true,
        "is_writable": false,
        "is_writable_and_executable": false,
        "raw_size": 3072,
        "raw_virtual_size_ratio": 1.159245283018868,
        "virtual_size": 2650
    },
    ".text": {
        "entropy": 0.0,
        "hash": "7d1392d023945878",
        "is_executable": true,
        "is_readable": true,
        "is_writable": false,
        "is_writable_and_executable": false,
        "raw_size": 0,
        "raw_virtual_size_ratio": 1.1897255303201551e-05,
        "virtual_size": 84053
    },
    "file": {
        "SOC": 84480,
        "SOH": 240,
        "SOHO": 1024,
        "SOI": 3563520,
        "SOID": 30208,
        "SOS": 93,
        "SOUID": 0,
        "avg_str_len": 10.333333333333334,
        "n_execute_sections": 3,
        "n_import_funcs": 22,
        "n_imports": 11,
        "n_read_sections": 8,
        "n_sections": 8,
        "n_standart_sections": 4,
        "n_strings": 9,
        "n_symdols": 0,
        "n_write_and_execute_sections": 0,
        "n_write_sections": 1,
        "timestamp": 2454987012
    },
    "packer": "vmprotect",
    "path": "../vmprotect/data/logagent.vmp.exe"
}