{
    ".data": {
        "entropy": 0.0,
        "hash": "caba27e4ddbebf5e",
        "is_executable": false,
        "is_readable": true,
        "is_writable": true,
        "is_writable_and_executable": false,
        "raw_size": 0,
        "raw_virtual_size_ratio": 0.00010850694444444444,
        "virtual_size": 9216
    },
    ".rsrc": {
        "entropy": 4.688538504122451,
        "hash": "77d6f479b0265a70",
        "is_executable": false,
        "is_readable": true,
        "is_writable": false,
        "is_writable_and_executable": false,
        "raw_size": 8192,
        "raw_virtual_size_ratio": 1.0299220517978376,
        "virtual_size": 7954
    },
    ".text": {
        "entropy": 0.0,
        "hash": "e9dd647fe76bc8ed",
        "is_executable": true,
        "is_readable": true,
        "is_writable": false,
        "is_writable_and_executable": false,
        "raw_size": 0,
        "raw_virtual_size_ratio": 2.6019306325293367e-05,
        "virtual_size": 38433
    },
    "file": {
        "SOC": 38912,
        "SOH": 240,
        "SOHO": 1024,
        "SOI": 3158016,
        "SOID": 34304,
        "SOS": 99,
        "SOUID": 0,
        "avg_str_len": 9.9,
        "n_execute_sections": 3,
        "n_import_funcs": 20,
        "n_imports": 9,
        "n_read_sections": 9,
        "n_sections": 9,
        "n_standart_sections": 4,
        "n_strings": 10,
        "n_symdols": 0,
        "n_write_and_execute_sections": 0,
        "n_write_sections": 2,
        "timestamp": 2295893788
    },
    "packer": "vmprotect",
    "path": "../vmprotect/data/msiexec.vmp.exe"
}