{
    ".data": {
        "entropy": 0.0,
        "hash": "aca78224f7a592f3",
        "is_executable": false,
        "is_readable": true,
        "is_writable": true,
        "is_writable_and_executable": false,
        "raw_size": 0,
        "raw_virtual_size_ratio": 0.0004789272030651341,
        "virtual_size": 2088
    },
    ".rsrc": {
        "entropy": 3.7629858192163073,
        "hash": "81558c5706b5485b",
        "is_executable": false,
        "is_readable": true,
        "is_writable": false,
        "is_writable_and_executable": false,
        "raw_size": 2560,
        "raw_virtual_size_ratio": 1.2301777991350313,
        "virtual_size": 2081
    },
    ".text": {
        "entropy": 0.0,
        "hash": "194708ebce42f68a",
        "is_executable": true,
        "is_readable": true,
        "is_writable": false,
        "is_writable_and_executable": false,
        "raw_size": 0,
        "raw_virtual_size_ratio": 7.483349547257353e-05,
        "virtual_size": 13363
    },
    "file": {
        "SOC": 13824,
        "SOH": 240,
        "SOHO": 1024,
        "SOI": 3035136,
        "SOID": 14336,
        "SOS": 93,
        "SOUID": 0,
        "avg_str_len": 10.333333333333334,
        "n_execute_sections": 3,
        "n_import_funcs": 18,
        "n_imports": 8,
        "n_read_sections": 8,
        "n_sections": 8,
        "n_standart_sections": 4,
        "n_strings": 9,
        "n_symdols": 0,
        "n_write_and_execute_sections": 0,
        "n_write_sections": 1,
        "timestamp": 83954843
    },
    "packer": "vmprotect",
    "path": "../vmprotect/data/netbtugc.vmp.exe"
}