{
    ".data": {
        "entropy": 0.0,
        "hash": "3c85a94c036e58a8",
        "is_executable": false,
        "is_readable": true,
        "is_writable": true,
        "is_writable_and_executable": false,
        "raw_size": 0,
        "raw_virtual_size_ratio": 0.000429553264604811,
        "virtual_size": 2328
    },
    ".rsrc": {
        "entropy": 2.5045581787139715,
        "hash": "3aa15f0f40adafab",
        "is_executable": false,
        "is_readable": true,
        "is_writable": false,
        "is_writable_and_executable": false,
        "raw_size": 1536,
        "raw_virtual_size_ratio": 1.4600760456273765,
        "virtual_size": 1052
    },
    ".text": {
        "entropy": 0.0,
        "hash": "4d7aa0e1d45c8d7d",
        "is_executable": true,
        "is_readable": true,
        "is_writable": false,
        "is_writable_and_executable": false,
        "raw_size": 0,
        "raw_virtual_size_ratio": 4.0252787505534755e-05,
        "virtual_size": 24843
    },
    "file": {
        "SOC": 25088,
        "SOH": 240,
        "SOHO": 1024,
        "SOI": 3051520,
        "SOID": 16896,
        "SOS": 93,
        "SOUID": 0,
        "avg_str_len": 10.333333333333334,
        "n_execute_sections": 3,
        "n_import_funcs": 31,
        "n_imports": 21,
        "n_read_sections": 8,
        "n_sections": 8,
        "n_standart_sections": 4,
        "n_strings": 9,
        "n_symdols": 0,
        "n_write_and_execute_sections": 0,
        "n_write_sections": 1,
        "timestamp": 1366319417
    },
    "packer": "vmprotect",
    "path": "../vmprotect/data/PackagedCWALauncher.vmp.exe"
}