{
    ".data": {
        "entropy": 0.0,
        "hash": "6ad30fb4b58bf48c",
        "is_executable": false,
        "is_readable": true,
        "is_writable": true,
        "is_writable_and_executable": false,
        "raw_size": 0,
        "raw_virtual_size_ratio": 0.00046125461254612545,
        "virtual_size": 2168
    },
    ".rsrc": {
        "entropy": 4.32856231249034,
        "hash": "3c65de704f33238e",
        "is_executable": false,
        "is_readable": true,
        "is_writable": false,
        "is_writable_and_executable": false,
        "raw_size": 2048,
        "raw_virtual_size_ratio": 1.0835978835978837,
        "virtual_size": 1890
    },
    ".text": {
        "entropy": 0.0,
        "hash": "83bf079ab32d3b3d",
        "is_executable": true,
        "is_readable": true,
        "is_writable": false,
        "is_writable_and_executable": false,
        "raw_size": 0,
        "raw_virtual_size_ratio": 3.3729087965461414e-05,
        "virtual_size": 29648
    },
    "file": {
        "SOC": 29696,
        "SOH": 240,
        "SOHO": 1024,
        "SOI": 3100672,
        "SOID": 19456,
        "SOS": 99,
        "SOUID": 0,
        "avg_str_len": 9.9,
        "n_execute_sections": 3,
        "n_import_funcs": 39,
        "n_imports": 29,
        "n_read_sections": 9,
        "n_sections": 9,
        "n_standart_sections": 4,
        "n_strings": 10,
        "n_symdols": 0,
        "n_write_and_execute_sections": 0,
        "n_write_sections": 2,
        "timestamp": 2986456557
    },
    "packer": "vmprotect",
    "path": "../vmprotect/data/rrinstaller.vmp.exe"
}