{
    ".data": {
        "entropy": 0.0,
        "hash": "3c5ba949375858b5",
        "is_executable": false,
        "is_readable": true,
        "is_writable": true,
        "is_writable_and_executable": false,
        "raw_size": 0,
        "raw_virtual_size_ratio": 0.000390625,
        "virtual_size": 2560
    },
    ".rsrc": {
        "entropy": 3.771540415448252,
        "hash": "ce1fd57934eee622",
        "is_executable": false,
        "is_readable": true,
        "is_writable": false,
        "is_writable_and_executable": false,
        "raw_size": 2560,
        "raw_virtual_size_ratio": 1.1857341361741547,
        "virtual_size": 2159
    },
    ".text": {
        "entropy": 0.0,
        "hash": "5c897c34579fbf36",
        "is_executable": true,
        "is_readable": true,
        "is_writable": false,
        "is_writable_and_executable": false,
        "raw_size": 0,
        "raw_virtual_size_ratio": 3.5755148741418764e-05,
        "virtual_size": 27968
    },
    "file": {
        "SOC": 28160,
        "SOH": 240,
        "SOHO": 1024,
        "SOI": 3022848,
        "SOID": 25600,
        "SOS": 93,
        "SOUID": 0,
        "avg_str_len": 10.333333333333334,
        "n_execute_sections": 3,
        "n_import_funcs": 32,
        "n_imports": 22,
        "n_read_sections": 8,
        "n_sections": 8,
        "n_standart_sections": 4,
        "n_strings": 9,
        "n_symdols": 0,
        "n_write_and_execute_sections": 0,
        "n_write_sections": 1,
        "timestamp": 3150262893
    },
    "packer": "vmprotect",
    "path": "../vmprotect/data/LanguageComponentsInstallerComHandler.vmp.exe"
}