{
    ".data": {
        "entropy": 0.0,
        "hash": "4f66f92fb6b20531",
        "is_executable": false,
        "is_readable": true,
        "is_writable": true,
        "is_writable_and_executable": false,
        "raw_size": 0,
        "raw_virtual_size_ratio": 0.0005924170616113745,
        "virtual_size": 1688
    },
    ".rsrc": {
        "entropy": 4.351933885862193,
        "hash": "e52eb6e4bdd167b5",
        "is_executable": false,
        "is_readable": true,
        "is_writable": false,
        "is_writable_and_executable": false,
        "raw_size": 2560,
        "raw_virtual_size_ratio": 1.1232996928477403,
        "virtual_size": 2279
    },
    ".text": {
        "entropy": 0.0,
        "hash": "2f1e065a992aefe7",
        "is_executable": true,
        "is_readable": true,
        "is_writable": false,
        "is_writable_and_executable": false,
        "raw_size": 0,
        "raw_virtual_size_ratio": 0.00022644927536231884,
        "virtual_size": 4416
    },
    "file": {
        "SOC": 4608,
        "SOH": 240,
        "SOHO": 1024,
        "SOI": 3002368,
        "SOID": 9728,
        "SOS": 99,
        "SOUID": 0,
        "avg_str_len": 9.9,
        "n_execute_sections": 3,
        "n_import_funcs": 16,
        "n_imports": 6,
        "n_read_sections": 9,
        "n_sections": 9,
        "n_standart_sections": 4,
        "n_strings": 10,
        "n_symdols": 0,
        "n_write_and_execute_sections": 0,
        "n_write_sections": 2,
        "timestamp": 3683058669
    },
    "packer": "vmprotect",
    "path": "../vmprotect/data/verclsid.vmp.exe"
}