{
    ".data": {
        "entropy": 0.0,
        "hash": "9d698aa66e34039e",
        "is_executable": false,
        "is_readable": true,
        "is_writable": true,
        "is_writable_and_executable": false,
        "raw_size": 0,
        "raw_virtual_size_ratio": 0.0005813953488372093,
        "virtual_size": 1720
    },
    ".rsrc": {
        "entropy": 4.209035843639707,
        "hash": "422ddb8b6ae1091e",
        "is_executable": false,
        "is_readable": true,
        "is_writable": false,
        "is_writable_and_executable": false,
        "raw_size": 112640,
        "raw_virtual_size_ratio": 1.0007818608287724,
        "virtual_size": 112552
    },
    ".text": {
        "entropy": 0.0,
        "hash": "66d31d232a112e40",
        "is_executable": true,
        "is_readable": true,
        "is_writable": false,
        "is_writable_and_executable": false,
        "raw_size": 0,
        "raw_virtual_size_ratio": 0.00025693730729701953,
        "virtual_size": 3892
    },
    "file": {
        "SOC": 4096,
        "SOH": 240,
        "SOHO": 1024,
        "SOI": 3153920,
        "SOID": 119296,
        "SOS": 93,
        "SOUID": 0,
        "avg_str_len": 10.333333333333334,
        "n_execute_sections": 3,
        "n_import_funcs": 18,
        "n_imports": 8,
        "n_read_sections": 8,
        "n_sections": 8,
        "n_standart_sections": 4,
        "n_strings": 9,
        "n_symdols": 0,
        "n_write_and_execute_sections": 0,
        "n_write_sections": 1,
        "timestamp": 3966200227
    },
    "packer": "vmprotect",
    "path": "../vmprotect/data/PerceptionSimulationInput.vmp.exe"
}