{
    ".data": {
        "entropy": 0.0,
        "hash": "69a60d72a1a86752",
        "is_executable": false,
        "is_readable": true,
        "is_writable": true,
        "is_writable_and_executable": false,
        "raw_size": 0,
        "raw_virtual_size_ratio": 0.0002042483660130719,
        "virtual_size": 4896
    },
    ".rsrc": {
        "entropy": 5.459203195805281,
        "hash": "e2d1270a02ffcc95",
        "is_executable": false,
        "is_readable": true,
        "is_writable": false,
        "is_writable_and_executable": false,
        "raw_size": 44032,
        "raw_virtual_size_ratio": 1.0007500170458419,
        "virtual_size": 43999
    },
    ".text": {
        "entropy": 0.0,
        "hash": "23807a7d02afcd67",
        "is_executable": true,
        "is_readable": true,
        "is_writable": false,
        "is_writable_and_executable": false,
        "raw_size": 0,
        "raw_virtual_size_ratio": 1.5841584158415843e-05,
        "virtual_size": 63125
    },
    "file": {
        "SOC": 63488,
        "SOH": 240,
        "SOHO": 1024,
        "SOI": 3710976,
        "SOID": 101888,
        "SOS": 99,
        "SOUID": 0,
        "avg_str_len": 9.9,
        "n_execute_sections": 3,
        "n_import_funcs": 43,
        "n_imports": 33,
        "n_read_sections": 9,
        "n_sections": 9,
        "n_standart_sections": 4,
        "n_strings": 10,
        "n_symdols": 0,
        "n_write_and_execute_sections": 0,
        "n_write_sections": 2,
        "timestamp": 303455620
    },
    "packer": "vmprotect",
    "path": "../vmprotect/data/IMJPSET.vmp.EXE"
}