{
    ".data": {
        "entropy": 0.0,
        "hash": "520ff8a5a7ca8075",
        "is_executable": false,
        "is_readable": true,
        "is_writable": true,
        "is_writable_and_executable": false,
        "raw_size": 0,
        "raw_virtual_size_ratio": 0.00036656891495601173,
        "virtual_size": 2728
    },
    ".rsrc": {
        "entropy": 2.5287285350748863,
        "hash": "9f7ac03e13b9534c",
        "is_executable": false,
        "is_readable": true,
        "is_writable": false,
        "is_writable_and_executable": false,
        "raw_size": 1536,
        "raw_virtual_size_ratio": 1.4328358208955223,
        "virtual_size": 1072
    },
    ".text": {
        "entropy": 0.0,
        "hash": "82d900541ea0500e",
        "is_executable": true,
        "is_readable": true,
        "is_writable": false,
        "is_writable_and_executable": false,
        "raw_size": 0,
        "raw_virtual_size_ratio": 1.3531067330591037e-05,
        "virtual_size": 73904
    },
    "file": {
        "SOC": 74240,
        "SOH": 240,
        "SOHO": 1024,
        "SOI": 3571712,
        "SOID": 48128,
        "SOS": 99,
        "SOUID": 0,
        "avg_str_len": 9.9,
        "n_execute_sections": 3,
        "n_import_funcs": 49,
        "n_imports": 39,
        "n_read_sections": 9,
        "n_sections": 9,
        "n_standart_sections": 4,
        "n_strings": 10,
        "n_symdols": 0,
        "n_write_and_execute_sections": 0,
        "n_write_sections": 2,
        "timestamp": 257373074
    },
    "packer": "vmprotect",
    "path": "../vmprotect/data/dmclient.vmp.exe"
}