{
    ".data": {
        "entropy": 0.0,
        "hash": "62dd1f38ae7584c6",
        "is_executable": false,
        "is_readable": true,
        "is_writable": true,
        "is_writable_and_executable": false,
        "raw_size": 0,
        "raw_virtual_size_ratio": 0.0006009615384615385,
        "virtual_size": 1664
    },
    ".rsrc": {
        "entropy": 4.432878045981313,
        "hash": "4403af1c9a2a0ca8",
        "is_executable": false,
        "is_readable": true,
        "is_writable": false,
        "is_writable_and_executable": false,
        "raw_size": 2560,
        "raw_virtual_size_ratio": 1.1096662332032943,
        "virtual_size": 2307
    },
    ".text": {
        "entropy": 0.0,
        "hash": "55661e53a0953b06",
        "is_executable": true,
        "is_readable": true,
        "is_writable": false,
        "is_writable_and_executable": false,
        "raw_size": 0,
        "raw_virtual_size_ratio": 0.00034916201117318437,
        "virtual_size": 2864
    },
    "file": {
        "SOC": 3072,
        "SOH": 240,
        "SOHO": 1024,
        "SOI": 2908160,
        "SOID": 9216,
        "SOS": 93,
        "SOUID": 0,
        "avg_str_len": 10.333333333333334,
        "n_execute_sections": 3,
        "n_import_funcs": 25,
        "n_imports": 15,
        "n_read_sections": 8,
        "n_sections": 8,
        "n_standart_sections": 4,
        "n_strings": 9,
        "n_symdols": 0,
        "n_write_and_execute_sections": 0,
        "n_write_sections": 1,
        "timestamp": 886573047
    },
    "packer": "vmprotect",
    "path": "../vmprotect/data/LaunchTM.vmp.exe"
}