{
    ".data": {
        "entropy": 0.0,
        "hash": "8f04de97e0b91c6c",
        "is_executable": false,
        "is_readable": true,
        "is_writable": true,
        "is_writable_and_executable": false,
        "raw_size": 0,
        "raw_virtual_size_ratio": 0.00048262548262548264,
        "virtual_size": 2072
    },
    ".rsrc": {
        "entropy": 5.501989638454022,
        "hash": "4b6a432ed1c699f4",
        "is_executable": false,
        "is_readable": true,
        "is_writable": false,
        "is_writable_and_executable": false,
        "raw_size": 18432,
        "raw_virtual_size_ratio": 1.0199203187250996,
        "virtual_size": 18072
    },
    ".text": {
        "entropy": 0.0,
        "hash": "be8a50f68f1f0697",
        "is_executable": true,
        "is_readable": true,
        "is_writable": false,
        "is_writable_and_executable": false,
        "raw_size": 0,
        "raw_virtual_size_ratio": 7.65286599831637e-05,
        "virtual_size": 13067
    },
    "file": {
        "SOC": 13312,
        "SOH": 240,
        "SOHO": 1024,
        "SOI": 3047424,
        "SOID": 28672,
        "SOS": 93,
        "SOUID": 0,
        "avg_str_len": 10.333333333333334,
        "n_execute_sections": 3,
        "n_import_funcs": 25,
        "n_imports": 15,
        "n_read_sections": 8,
        "n_sections": 8,
        "n_standart_sections": 4,
        "n_strings": 9,
        "n_symdols": 0,
        "n_write_and_execute_sections": 0,
        "n_write_sections": 1,
        "timestamp": 3171083791
    },
    "packer": "vmprotect",
    "path": "../vmprotect/data/Netplwiz.vmp.exe"
}