{
    ".data": {
        "entropy": 0.0,
        "hash": "edbed536a15fdc47",
        "is_executable": false,
        "is_readable": true,
        "is_writable": true,
        "is_writable_and_executable": false,
        "raw_size": 0,
        "raw_virtual_size_ratio": 0.00025933609958506224,
        "virtual_size": 3856
    },
    ".rsrc": {
        "entropy": 3.756707137874337,
        "hash": "cf1798affa221e41",
        "is_executable": false,
        "is_readable": true,
        "is_writable": false,
        "is_writable_and_executable": false,
        "raw_size": 2560,
        "raw_virtual_size_ratio": 1.2207916070577014,
        "virtual_size": 2097
    },
    ".text": {
        "entropy": 0.0,
        "hash": "36e00bd4fdf6b5bc",
        "is_executable": true,
        "is_readable": true,
        "is_writable": false,
        "is_writable_and_executable": false,
        "raw_size": 0,
        "raw_virtual_size_ratio": 6.056201550387597e-05,
        "virtual_size": 16512
    },
    "file": {
        "SOC": 16896,
        "SOH": 240,
        "SOHO": 1024,
        "SOI": 3035136,
        "SOID": 16384,
        "SOS": 93,
        "SOUID": 0,
        "avg_str_len": 10.333333333333334,
        "n_execute_sections": 3,
        "n_import_funcs": 34,
        "n_imports": 24,
        "n_read_sections": 8,
        "n_sections": 8,
        "n_standart_sections": 4,
        "n_strings": 9,
        "n_symdols": 0,
        "n_write_and_execute_sections": 0,
        "n_write_sections": 1,
        "timestamp": 2841153813
    },
    "packer": "vmprotect",
    "path": "../vmprotect/data/setspn.vmp.exe"
}