{
    ".data": {
        "entropy": 0.0,
        "hash": "04701a529bb67093",
        "is_executable": false,
        "is_readable": true,
        "is_writable": true,
        "is_writable_and_executable": false,
        "raw_size": 0,
        "raw_virtual_size_ratio": 0.0005040322580645161,
        "virtual_size": 1984
    },
    ".rsrc": {
        "entropy": 3.841217228960256,
        "hash": "1fe89cd344528b3c",
        "is_executable": false,
        "is_readable": true,
        "is_writable": false,
        "is_writable_and_executable": false,
        "raw_size": 2560,
        "raw_virtual_size_ratio": 1.1802674043337944,
        "virtual_size": 2169
    },
    ".text": {
        "entropy": 0.0,
        "hash": "df2c41f6efe7ec96",
        "is_executable": true,
        "is_readable": true,
        "is_writable": false,
        "is_writable_and_executable": false,
        "raw_size": 0,
        "raw_virtual_size_ratio": 1.1352928487903455e-05,
        "virtual_size": 88083
    },
    "file": {
        "SOC": 88576,
        "SOH": 240,
        "SOHO": 1024,
        "SOI": 3198976,
        "SOID": 57856,
        "SOS": 93,
        "SOUID": 0,
        "avg_str_len": 10.333333333333334,
        "n_execute_sections": 3,
        "n_import_funcs": 28,
        "n_imports": 18,
        "n_read_sections": 8,
        "n_sections": 8,
        "n_standart_sections": 4,
        "n_strings": 9,
        "n_symdols": 0,
        "n_write_and_execute_sections": 0,
        "n_write_sections": 1,
        "timestamp": 3509079105
    },
    "packer": "vmprotect",
    "path": "../vmprotect/data/vssadmin.vmp.exe"
}