{
    ".data": {
        "entropy": 0.0,
        "hash": "b47175cb9a58051c",
        "is_executable": false,
        "is_readable": true,
        "is_writable": true,
        "is_writable_and_executable": false,
        "raw_size": 0,
        "raw_virtual_size_ratio": 0.0003048780487804878,
        "virtual_size": 3280
    },
    ".rsrc": {
        "entropy": 3.983519501741681,
        "hash": "923558828bc054d7",
        "is_executable": false,
        "is_readable": true,
        "is_writable": false,
        "is_writable_and_executable": false,
        "raw_size": 2048,
        "raw_virtual_size_ratio": 1.1531531531531531,
        "virtual_size": 1776
    },
    ".text": {
        "entropy": 0.0,
        "hash": "70a4c42c20b498b9",
        "is_executable": true,
        "is_readable": true,
        "is_writable": false,
        "is_writable_and_executable": false,
        "raw_size": 0,
        "raw_virtual_size_ratio": 1.327122400498998e-05,
        "virtual_size": 75351
    },
    "file": {
        "SOC": 75776,
        "SOH": 240,
        "SOHO": 1024,
        "SOI": 3256320,
        "SOID": 46592,
        "SOS": 99,
        "SOUID": 0,
        "avg_str_len": 9.9,
        "n_execute_sections": 3,
        "n_import_funcs": 52,
        "n_imports": 42,
        "n_read_sections": 9,
        "n_sections": 9,
        "n_standart_sections": 4,
        "n_strings": 10,
        "n_symdols": 0,
        "n_write_and_execute_sections": 0,
        "n_write_sections": 2,
        "timestamp": 4178801061
    },
    "packer": "vmprotect",
    "path": "../vmprotect/data/dispdiag.vmp.exe"
}