{
    ".data": {
        "entropy": 0.0,
        "hash": "f8f34238826c3692",
        "is_executable": false,
        "is_readable": true,
        "is_writable": true,
        "is_writable_and_executable": false,
        "raw_size": 0,
        "raw_virtual_size_ratio": 0.0004901960784313725,
        "virtual_size": 2040
    },
    ".rsrc": {
        "entropy": 4.220389939178585,
        "hash": "498b64754b539bbd",
        "is_executable": false,
        "is_readable": true,
        "is_writable": false,
        "is_writable_and_executable": false,
        "raw_size": 2560,
        "raw_virtual_size_ratio": 1.1006018916595013,
        "virtual_size": 2326
    },
    ".text": {
        "entropy": 0.0,
        "hash": "9c839a858ed1a3c1",
        "is_executable": true,
        "is_readable": true,
        "is_writable": false,
        "is_writable_and_executable": false,
        "raw_size": 0,
        "raw_virtual_size_ratio": 1.3202365863962822e-05,
        "virtual_size": 75744
    },
    "file": {
        "SOC": 75776,
        "SOH": 240,
        "SOHO": 1024,
        "SOI": 3227648,
        "SOID": 31232,
        "SOS": 93,
        "SOUID": 0,
        "avg_str_len": 10.333333333333334,
        "n_execute_sections": 3,
        "n_import_funcs": 29,
        "n_imports": 19,
        "n_read_sections": 8,
        "n_sections": 8,
        "n_standart_sections": 4,
        "n_strings": 9,
        "n_symdols": 0,
        "n_write_and_execute_sections": 0,
        "n_write_sections": 1,
        "timestamp": 2848039550
    },
    "packer": "vmprotect",
    "path": "../vmprotect/data/tasklist.vmp.exe"
}