{
    ".data": {
        "entropy": 0.0,
        "hash": "01f79237d2397e7c",
        "is_executable": false,
        "is_readable": true,
        "is_writable": true,
        "is_writable_and_executable": false,
        "raw_size": 0,
        "raw_virtual_size_ratio": 0.000536480686695279,
        "virtual_size": 1864
    },
    ".rsrc": {
        "entropy": 4.381287946881231,
        "hash": "4cba0a4df57cc6c4",
        "is_executable": false,
        "is_readable": true,
        "is_writable": false,
        "is_writable_and_executable": false,
        "raw_size": 3072,
        "raw_virtual_size_ratio": 1.012858555885262,
        "virtual_size": 3033
    },
    ".text": {
        "entropy": 0.0,
        "hash": "fc95e95d6d04c8fb",
        "is_executable": true,
        "is_readable": true,
        "is_writable": false,
        "is_writable_and_executable": false,
        "raw_size": 0,
        "raw_virtual_size_ratio": 3.280839895013123e-05,
        "virtual_size": 30480
    },
    "file": {
        "SOC": 30720,
        "SOH": 240,
        "SOHO": 1024,
        "SOI": 3137536,
        "SOID": 24576,
        "SOS": 93,
        "SOUID": 0,
        "avg_str_len": 10.333333333333334,
        "n_execute_sections": 3,
        "n_import_funcs": 23,
        "n_imports": 13,
        "n_read_sections": 8,
        "n_sections": 8,
        "n_standart_sections": 4,
        "n_strings": 9,
        "n_symdols": 0,
        "n_write_and_execute_sections": 0,
        "n_write_sections": 1,
        "timestamp": 3368406158
    },
    "packer": "vmprotect",
    "path": "../vmprotect/data/cmdl32.vmp.exe"
}