{
    ".data": {
        "entropy": 0.0,
        "hash": "635d4fa94b15c4a8",
        "is_executable": false,
        "is_readable": true,
        "is_writable": true,
        "is_writable_and_executable": false,
        "raw_size": 0,
        "raw_virtual_size_ratio": 0.00035816618911174784,
        "virtual_size": 2792
    },
    ".rsrc": {
        "entropy": 5.853116975172683,
        "hash": "1ed5df8a2d792511",
        "is_executable": false,
        "is_readable": true,
        "is_writable": false,
        "is_writable_and_executable": false,
        "raw_size": 28672,
        "raw_virtual_size_ratio": 1.0061409972979611,
        "virtual_size": 28497
    },
    ".text": {
        "entropy": 0.0,
        "hash": "b90dd928fd4426c8",
        "is_executable": true,
        "is_readable": true,
        "is_writable": false,
        "is_writable_and_executable": false,
        "raw_size": 0,
        "raw_virtual_size_ratio": 2.5460192988262852e-05,
        "virtual_size": 39277
    },
    "file": {
        "SOC": 39424,
        "SOH": 240,
        "SOHO": 1024,
        "SOI": 3018752,
        "SOID": 44032,
        "SOS": 93,
        "SOUID": 0,
        "avg_str_len": 10.333333333333334,
        "n_execute_sections": 3,
        "n_import_funcs": 23,
        "n_imports": 13,
        "n_read_sections": 8,
        "n_sections": 8,
        "n_standart_sections": 4,
        "n_strings": 9,
        "n_symdols": 0,
        "n_write_and_execute_sections": 0,
        "n_write_sections": 1,
        "timestamp": 1182362427
    },
    "packer": "vmprotect",
    "path": "../vmprotect/data/ComputerDefaults.vmp.exe"
}