{
    ".data": {
        "entropy": 0.0,
        "hash": "248ae64ee3031fa7",
        "is_executable": false,
        "is_readable": true,
        "is_writable": true,
        "is_writable_and_executable": false,
        "raw_size": 0,
        "raw_virtual_size_ratio": 0.0003968253968253968,
        "virtual_size": 2520
    },
    ".rsrc": {
        "entropy": 3.259877901791645,
        "hash": "51cce4abe17861fe",
        "is_executable": false,
        "is_readable": true,
        "is_writable": false,
        "is_writable_and_executable": false,
        "raw_size": 1024,
        "raw_virtual_size_ratio": 1.032258064516129,
        "virtual_size": 992
    },
    ".text": {
        "entropy": 0.0,
        "hash": "12aa616e648042d6",
        "is_executable": true,
        "is_readable": true,
        "is_writable": false,
        "is_writable_and_executable": false,
        "raw_size": 0,
        "raw_virtual_size_ratio": 4.118107317876704e-05,
        "virtual_size": 24283
    },
    "file": {
        "SOC": 24576,
        "SOH": 240,
        "SOHO": 1024,
        "SOI": 3063808,
        "SOID": 17408,
        "SOS": 93,
        "SOUID": 0,
        "avg_str_len": 10.333333333333334,
        "n_execute_sections": 3,
        "n_import_funcs": 34,
        "n_imports": 24,
        "n_read_sections": 8,
        "n_sections": 8,
        "n_standart_sections": 4,
        "n_strings": 9,
        "n_symdols": 0,
        "n_write_and_execute_sections": 0,
        "n_write_sections": 1,
        "timestamp": 223278091
    },
    "packer": "vmprotect",
    "path": "../vmprotect/data/dusmtask.vmp.exe"
}