{
    ".data": {
        "entropy": 0.0,
        "hash": "4b4de9306237ccd0",
        "is_executable": false,
        "is_readable": true,
        "is_writable": true,
        "is_writable_and_executable": false,
        "raw_size": 0,
        "raw_virtual_size_ratio": 0.000314070351758794,
        "virtual_size": 3184
    },
    ".rsrc": {
        "entropy": 3.7420229963560785,
        "hash": "0ca3fad212cded17",
        "is_executable": false,
        "is_readable": true,
        "is_writable": false,
        "is_writable_and_executable": false,
        "raw_size": 2560,
        "raw_virtual_size_ratio": 1.2361178174794785,
        "virtual_size": 2071
    },
    ".text": {
        "entropy": 0.0,
        "hash": "3fe01fc265dba69b",
        "is_executable": true,
        "is_readable": true,
        "is_writable": false,
        "is_writable_and_executable": false,
        "raw_size": 0,
        "raw_virtual_size_ratio": 3.0372980196816912e-05,
        "virtual_size": 32924
    },
    "file": {
        "SOC": 33280,
        "SOH": 240,
        "SOHO": 1024,
        "SOI": 3125248,
        "SOID": 18944,
        "SOS": 93,
        "SOUID": 0,
        "avg_str_len": 10.333333333333334,
        "n_execute_sections": 3,
        "n_import_funcs": 21,
        "n_imports": 11,
        "n_read_sections": 8,
        "n_sections": 8,
        "n_standart_sections": 4,
        "n_strings": 9,
        "n_symdols": 0,
        "n_write_and_execute_sections": 0,
        "n_write_sections": 1,
        "timestamp": 2547606037
    },
    "packer": "vmprotect",
    "path": "../vmprotect/data/sfc.vmp.exe"
}