{
    ".data": {
        "entropy": 0.0,
        "hash": "3fc4c808cc9ea8b6",
        "is_executable": false,
        "is_readable": true,
        "is_writable": true,
        "is_writable_and_executable": false,
        "raw_size": 0,
        "raw_virtual_size_ratio": 0.00018011527377521613,
        "virtual_size": 5552
    },
    ".rsrc": {
        "entropy": 3.488050306466968,
        "hash": "d964d19b123925c0",
        "is_executable": false,
        "is_readable": true,
        "is_writable": false,
        "is_writable_and_executable": false,
        "raw_size": 2048,
        "raw_virtual_size_ratio": 1.2986683576410907,
        "virtual_size": 1577
    },
    ".text": {
        "entropy": 0.0,
        "hash": "407a036c8736c854",
        "is_executable": true,
        "is_readable": true,
        "is_writable": false,
        "is_writable_and_executable": false,
        "raw_size": 0,
        "raw_virtual_size_ratio": 1.7583035886976246e-05,
        "virtual_size": 56873
    },
    "file": {
        "SOC": 57344,
        "SOH": 240,
        "SOHO": 1024,
        "SOI": 3153920,
        "SOID": 33792,
        "SOS": 93,
        "SOUID": 0,
        "avg_str_len": 10.333333333333334,
        "n_execute_sections": 3,
        "n_import_funcs": 43,
        "n_imports": 33,
        "n_read_sections": 8,
        "n_sections": 8,
        "n_standart_sections": 4,
        "n_strings": 9,
        "n_symdols": 0,
        "n_write_and_execute_sections": 0,
        "n_write_sections": 1,
        "timestamp": 730232706
    },
    "packer": "vmprotect",
    "path": "../vmprotect/data/SecurityHealthHost.vmp.exe"
}