{
    ".data": {
        "entropy": 0.0,
        "hash": "39c46bd3a5bad534",
        "is_executable": false,
        "is_readable": true,
        "is_writable": true,
        "is_writable_and_executable": false,
        "raw_size": 0,
        "raw_virtual_size_ratio": 8.903133903133904e-05,
        "virtual_size": 11232
    },
    ".rsrc": {
        "entropy": 4.344325480372666,
        "hash": "002639e69fffb014",
        "is_executable": false,
        "is_readable": true,
        "is_writable": false,
        "is_writable_and_executable": false,
        "raw_size": 11264,
        "raw_virtual_size_ratio": 1.0225127087872186,
        "virtual_size": 11016
    },
    ".text": {
        "entropy": 0.0,
        "hash": "ae3f60d3beccb8b8",
        "is_executable": true,
        "is_readable": true,
        "is_writable": false,
        "is_writable_and_executable": false,
        "raw_size": 0,
        "raw_virtual_size_ratio": 8.39757478040342e-06,
        "virtual_size": 119082
    },
    "file": {
        "SOC": 119296,
        "SOH": 240,
        "SOHO": 1024,
        "SOI": 3428352,
        "SOID": 83456,
        "SOS": 93,
        "SOUID": 0,
        "avg_str_len": 10.333333333333334,
        "n_execute_sections": 3,
        "n_import_funcs": 28,
        "n_imports": 18,
        "n_read_sections": 8,
        "n_sections": 8,
        "n_standart_sections": 4,
        "n_strings": 9,
        "n_symdols": 0,
        "n_write_and_execute_sections": 0,
        "n_write_sections": 1,
        "timestamp": 4151208373
    },
    "packer": "vmprotect",
    "path": "../vmprotect/data/IEChooser.vmp.exe"
}