{
    ".data": {
        "entropy": 0.0,
        "hash": "19ef591d9bacd5ee",
        "is_executable": false,
        "is_readable": true,
        "is_writable": true,
        "is_writable_and_executable": false,
        "raw_size": 0,
        "raw_virtual_size_ratio": 0.0004166666666666667,
        "virtual_size": 2400
    },
    ".rsrc": {
        "entropy": 4.461743180444782,
        "hash": "e8d08b3c31a88fcb",
        "is_executable": false,
        "is_readable": true,
        "is_writable": false,
        "is_writable_and_executable": false,
        "raw_size": 5120,
        "raw_virtual_size_ratio": 1.0532812178564082,
        "virtual_size": 4861
    },
    ".text": {
        "entropy": 0.0,
        "hash": "11526eea36d45c27",
        "is_executable": true,
        "is_readable": true,
        "is_writable": false,
        "is_writable_and_executable": false,
        "raw_size": 0,
        "raw_virtual_size_ratio": 3.774724445115507e-05,
        "virtual_size": 26492
    },
    "file": {
        "SOC": 26624,
        "SOH": 240,
        "SOHO": 1024,
        "SOI": 3063808,
        "SOID": 25600,
        "SOS": 93,
        "SOUID": 0,
        "avg_str_len": 10.333333333333334,
        "n_execute_sections": 3,
        "n_import_funcs": 25,
        "n_imports": 15,
        "n_read_sections": 8,
        "n_sections": 8,
        "n_standart_sections": 4,
        "n_strings": 9,
        "n_symdols": 0,
        "n_write_and_execute_sections": 0,
        "n_write_sections": 1,
        "timestamp": 1444116183
    },
    "packer": "vmprotect",
    "path": "../vmprotect/data/sdchange.vmp.exe"
}