{
    ".data": {
        "entropy": 0.0,
        "hash": "29397339c6b0d344",
        "is_executable": false,
        "is_readable": true,
        "is_writable": true,
        "is_writable_and_executable": false,
        "raw_size": 0,
        "raw_virtual_size_ratio": 0.00023719165085388995,
        "virtual_size": 4216
    },
    ".rsrc": {
        "entropy": 2.903413906876185,
        "hash": "a52dbda54cb0ff64",
        "is_executable": false,
        "is_readable": true,
        "is_writable": false,
        "is_writable_and_executable": false,
        "raw_size": 1536,
        "raw_virtual_size_ratio": 1.1962616822429906,
        "virtual_size": 1284
    },
    ".text": {
        "entropy": 0.0,
        "hash": "f756ce66b0bcf0e5",
        "is_executable": true,
        "is_readable": true,
        "is_writable": false,
        "is_writable_and_executable": false,
        "raw_size": 0,
        "raw_virtual_size_ratio": 8.809330843229149e-06,
        "virtual_size": 113516
    },
    "file": {
        "SOC": 113664,
        "SOH": 240,
        "SOHO": 1024,
        "SOI": 3313664,
        "SOID": 59904,
        "SOS": 99,
        "SOUID": 0,
        "avg_str_len": 9.9,
        "n_execute_sections": 3,
        "n_import_funcs": 49,
        "n_imports": 39,
        "n_read_sections": 9,
        "n_sections": 9,
        "n_standart_sections": 4,
        "n_strings": 10,
        "n_symdols": 0,
        "n_write_and_execute_sections": 0,
        "n_write_sections": 2,
        "timestamp": 3881566123
    },
    "packer": "vmprotect",
    "path": "../vmprotect/data/EDPCleanup.vmp.exe"
}