{
    ".data": {
        "entropy": 0.0,
        "hash": "e6136c850199b5de",
        "is_executable": false,
        "is_readable": true,
        "is_writable": true,
        "is_writable_and_executable": false,
        "raw_size": 0,
        "raw_virtual_size_ratio": 3.7548813457494744e-05,
        "virtual_size": 26632
    },
    ".rsrc": {
        "entropy": 3.9446362655886515,
        "hash": "e74a5d70bb1f741f",
        "is_executable": false,
        "is_readable": true,
        "is_writable": false,
        "is_writable_and_executable": false,
        "raw_size": 2560,
        "raw_virtual_size_ratio": 1.1726981218506642,
        "virtual_size": 2183
    },
    ".text": {
        "entropy": 0.0,
        "hash": "dde0881db23425da",
        "is_executable": true,
        "is_readable": true,
        "is_writable": false,
        "is_writable_and_executable": false,
        "raw_size": 0,
        "raw_virtual_size_ratio": 6.456653258350067e-06,
        "virtual_size": 154879
    },
    "file": {
        "SOC": 155136,
        "SOH": 240,
        "SOHO": 1024,
        "SOI": 3416064,
        "SOID": 81408,
        "SOS": 99,
        "SOUID": 0,
        "avg_str_len": 9.9,
        "n_execute_sections": 3,
        "n_import_funcs": 46,
        "n_imports": 36,
        "n_read_sections": 9,
        "n_sections": 9,
        "n_standart_sections": 4,
        "n_strings": 10,
        "n_symdols": 0,
        "n_write_and_execute_sections": 0,
        "n_write_sections": 2,
        "timestamp": 2698563443
    },
    "packer": "vmprotect",
    "path": "../vmprotect/data/schtasks.vmp.exe"
}