{
    ".data": {
        "entropy": 0.0,
        "hash": "3b58eb1ff23a5cd0",
        "is_executable": false,
        "is_readable": true,
        "is_writable": true,
        "is_writable_and_executable": false,
        "raw_size": 0,
        "raw_virtual_size_ratio": 0.0006038647342995169,
        "virtual_size": 1656
    },
    ".rsrc": {
        "entropy": 4.2899789408557885,
        "hash": "9d6404ae22e92c84",
        "is_executable": false,
        "is_readable": true,
        "is_writable": false,
        "is_writable_and_executable": false,
        "raw_size": 2048,
        "raw_virtual_size_ratio": 1.025025025025025,
        "virtual_size": 1998
    },
    ".text": {
        "entropy": 0.0,
        "hash": "978a4f639e78328e",
        "is_executable": true,
        "is_readable": true,
        "is_writable": false,
        "is_writable_and_executable": false,
        "raw_size": 0,
        "raw_virtual_size_ratio": 0.00014740566037735848,
        "virtual_size": 6784
    },
    "file": {
        "SOC": 7168,
        "SOH": 240,
        "SOHO": 1024,
        "SOI": 3055616,
        "SOID": 10752,
        "SOS": 93,
        "SOUID": 0,
        "avg_str_len": 10.333333333333334,
        "n_execute_sections": 3,
        "n_import_funcs": 17,
        "n_imports": 7,
        "n_read_sections": 8,
        "n_sections": 8,
        "n_standart_sections": 4,
        "n_strings": 9,
        "n_symdols": 0,
        "n_write_and_execute_sections": 0,
        "n_write_sections": 1,
        "timestamp": 618241020
    },
    "packer": "vmprotect",
    "path": "../vmprotect/data/subst.vmp.exe"
}