{
    ".data": {
        "entropy": 0.0,
        "hash": "53aaa28fe24ce6f0",
        "is_executable": false,
        "is_readable": true,
        "is_writable": true,
        "is_writable_and_executable": false,
        "raw_size": 0,
        "raw_virtual_size_ratio": 9.850275807722617e-05,
        "virtual_size": 10152
    },
    ".rsrc": {
        "entropy": 4.266992684414785,
        "hash": "bb23e2462c73d249",
        "is_executable": false,
        "is_readable": true,
        "is_writable": false,
        "is_writable_and_executable": false,
        "raw_size": 3072,
        "raw_virtual_size_ratio": 1.1605591235360786,
        "virtual_size": 2647
    },
    ".text": {
        "entropy": 0.0,
        "hash": "2fc928b1863313e5",
        "is_executable": true,
        "is_readable": true,
        "is_writable": false,
        "is_writable_and_executable": false,
        "raw_size": 0,
        "raw_virtual_size_ratio": 6.685832720465334e-06,
        "virtual_size": 149570
    },
    "file": {
        "SOC": 150016,
        "SOH": 240,
        "SOHO": 1024,
        "SOI": 3813376,
        "SOID": 57856,
        "SOS": 99,
        "SOUID": 0,
        "avg_str_len": 9.9,
        "n_execute_sections": 3,
        "n_import_funcs": 40,
        "n_imports": 30,
        "n_read_sections": 9,
        "n_sections": 9,
        "n_standart_sections": 4,
        "n_strings": 10,
        "n_symdols": 0,
        "n_write_and_execute_sections": 0,
        "n_write_sections": 2,
        "timestamp": 3599155945
    },
    "packer": "vmprotect",
    "path": "../vmprotect/data/notepad.vmp.exe"
}