{
    ".data": {
        "entropy": 0.0,
        "hash": "d979cc550c59f931",
        "is_executable": false,
        "is_readable": true,
        "is_writable": true,
        "is_writable_and_executable": false,
        "raw_size": 0,
        "raw_virtual_size_ratio": 0.00024319066147859923,
        "virtual_size": 4112
    },
    ".rsrc": {
        "entropy": 3.0764922860046027,
        "hash": "641c8bf7175c63af",
        "is_executable": false,
        "is_readable": true,
        "is_writable": false,
        "is_writable_and_executable": false,
        "raw_size": 1536,
        "raw_virtual_size_ratio": 1.1228070175438596,
        "virtual_size": 1368
    },
    ".text": {
        "entropy": 0.0,
        "hash": "f08b9418ebfe40db",
        "is_executable": true,
        "is_readable": true,
        "is_writable": false,
        "is_writable_and_executable": false,
        "raw_size": 0,
        "raw_virtual_size_ratio": 1.94344572927801e-05,
        "virtual_size": 51455
    },
    "file": {
        "SOC": 51712,
        "SOH": 240,
        "SOHO": 1024,
        "SOI": 3547136,
        "SOID": 39936,
        "SOS": 93,
        "SOUID": 0,
        "avg_str_len": 10.333333333333334,
        "n_execute_sections": 3,
        "n_import_funcs": 38,
        "n_imports": 28,
        "n_read_sections": 8,
        "n_sections": 8,
        "n_standart_sections": 4,
        "n_strings": 9,
        "n_symdols": 0,
        "n_write_and_execute_sections": 0,
        "n_write_sections": 1,
        "timestamp": 1162424647
    },
    "packer": "vmprotect",
    "path": "../vmprotect/data/omadmprc.vmp.exe"
}