{
    ".data": {
        "entropy": 0.0,
        "hash": "b05e215e21c648ee",
        "is_executable": false,
        "is_readable": true,
        "is_writable": true,
        "is_writable_and_executable": false,
        "raw_size": 0,
        "raw_virtual_size_ratio": 0.00041118421052631577,
        "virtual_size": 2432
    },
    ".rsrc": {
        "entropy": 2.4934403384075376,
        "hash": "dfbeb16ddd63b489",
        "is_executable": false,
        "is_readable": true,
        "is_writable": false,
        "is_writable_and_executable": false,
        "raw_size": 1536,
        "raw_virtual_size_ratio": 1.4545454545454546,
        "virtual_size": 1056
    },
    ".text": {
        "entropy": 0.0,
        "hash": "9698d10a7997c2e6",
        "is_executable": true,
        "is_readable": true,
        "is_writable": false,
        "is_writable_and_executable": false,
        "raw_size": 0,
        "raw_virtual_size_ratio": 8.074283407347597e-06,
        "virtual_size": 123850
    },
    "file": {
        "SOC": 123904,
        "SOH": 240,
        "SOHO": 1024,
        "SOI": 3657728,
        "SOID": 20480,
        "SOS": 99,
        "SOUID": 0,
        "avg_str_len": 9.9,
        "n_execute_sections": 3,
        "n_import_funcs": 37,
        "n_imports": 27,
        "n_read_sections": 9,
        "n_sections": 9,
        "n_standart_sections": 4,
        "n_strings": 10,
        "n_symdols": 0,
        "n_write_and_execute_sections": 0,
        "n_write_sections": 2,
        "timestamp": 1018765883
    },
    "packer": "vmprotect",
    "path": "../vmprotect/data/ClipRenew.vmp.exe"
}