{
    ".data": {
        "entropy": 0.0,
        "hash": "4d4bc902cc49c4b9",
        "is_executable": false,
        "is_readable": true,
        "is_writable": true,
        "is_writable_and_executable": false,
        "raw_size": 0,
        "raw_virtual_size_ratio": 0.00030193236714975844,
        "virtual_size": 3312
    },
    ".text": {
        "entropy": 0.0,
        "hash": "0ced28606ab55e83",
        "is_executable": true,
        "is_readable": true,
        "is_writable": false,
        "is_writable_and_executable": false,
        "raw_size": 0,
        "raw_virtual_size_ratio": 2.0284387107243556e-05,
        "virtual_size": 49299
    },
    "file": {
        "SOC": 49664,
        "SOH": 240,
        "SOHO": 1024,
        "SOI": 3100672,
        "SOID": 25088,
        "SOS": 93,
        "SOUID": 0,
        "avg_str_len": 10.333333333333334,
        "n_execute_sections": 3,
        "n_import_funcs": 39,
        "n_imports": 29,
        "n_read_sections": 8,
        "n_sections": 8,
        "n_standart_sections": 3,
        "n_strings": 9,
        "n_symdols": 0,
        "n_write_and_execute_sections": 0,
        "n_write_sections": 2,
        "timestamp": 2003836786
    },
    "packer": "vmprotect",
    "path": "../vmprotect/data/Windows.WARP.JITService.vmp.exe"
}