{
    ".data": {
        "entropy": 0.0,
        "hash": "5967a65328f4bf55",
        "is_executable": false,
        "is_readable": true,
        "is_writable": true,
        "is_writable_and_executable": false,
        "raw_size": 0,
        "raw_virtual_size_ratio": 0.00038226299694189603,
        "virtual_size": 2616
    },
    ".rsrc": {
        "entropy": 4.597799009114835,
        "hash": "c9cbeab16dea94dc",
        "is_executable": false,
        "is_readable": true,
        "is_writable": false,
        "is_writable_and_executable": false,
        "raw_size": 3584,
        "raw_virtual_size_ratio": 1.0406504065040652,
        "virtual_size": 3444
    },
    ".text": {
        "entropy": 0.0,
        "hash": "0aefd1c2746eb68e",
        "is_executable": true,
        "is_readable": true,
        "is_writable": false,
        "is_writable_and_executable": false,
        "raw_size": 0,
        "raw_virtual_size_ratio": 2.748838615684873e-05,
        "virtual_size": 36379
    },
    "file": {
        "SOC": 36864,
        "SOH": 240,
        "SOHO": 1024,
        "SOI": 3137536,
        "SOID": 26624,
        "SOS": 93,
        "SOUID": 0,
        "avg_str_len": 10.333333333333334,
        "n_execute_sections": 3,
        "n_import_funcs": 46,
        "n_imports": 36,
        "n_read_sections": 8,
        "n_sections": 8,
        "n_standart_sections": 4,
        "n_strings": 9,
        "n_symdols": 0,
        "n_write_and_execute_sections": 0,
        "n_write_sections": 1,
        "timestamp": 2217361378
    },
    "packer": "vmprotect",
    "path": "../vmprotect/data/runonce.vmp.exe"
}