{
    ".data": {
        "entropy": 0.0,
        "hash": "036f39f23bf8aaee",
        "is_executable": false,
        "is_readable": true,
        "is_writable": true,
        "is_writable_and_executable": false,
        "raw_size": 0,
        "raw_virtual_size_ratio": 0.0006510416666666666,
        "virtual_size": 1536
    },
    ".rsrc": {
        "entropy": 4.380909337622719,
        "hash": "5776e5ae689159e3",
        "is_executable": false,
        "is_readable": true,
        "is_writable": false,
        "is_writable_and_executable": false,
        "raw_size": 2048,
        "raw_virtual_size_ratio": 1.002447381302007,
        "virtual_size": 2043
    },
    ".text": {
        "entropy": 0.0,
        "hash": "cde42a904414b1b9",
        "is_executable": true,
        "is_readable": true,
        "is_writable": false,
        "is_writable_and_executable": false,
        "raw_size": 0,
        "raw_virtual_size_ratio": 0.0004921259842519685,
        "virtual_size": 2032
    },
    "file": {
        "SOC": 2048,
        "SOH": 240,
        "SOHO": 1024,
        "SOI": 1634304,
        "SOID": 6656,
        "SOS": 97,
        "SOUID": 0,
        "avg_str_len": 9.7,
        "n_execute_sections": 3,
        "n_import_funcs": 17,
        "n_imports": 6,
        "n_read_sections": 9,
        "n_sections": 9,
        "n_standart_sections": 4,
        "n_strings": 10,
        "n_symdols": 0,
        "n_write_and_execute_sections": 1,
        "n_write_sections": 3,
        "timestamp": 44024848
    },
    "packer": "vmprotect",
    "path": "../vmprotect/data/csrss.vmp.exe"
}