{
    ".data": {
        "entropy": 0.0,
        "hash": "684449602d06e1f4",
        "is_executable": false,
        "is_readable": true,
        "is_writable": true,
        "is_writable_and_executable": false,
        "raw_size": 0,
        "raw_virtual_size_ratio": 0.0002847380410022779,
        "virtual_size": 3512
    },
    ".rsrc": {
        "entropy": 3.791453562950612,
        "hash": "8d28e03a0f3a455b",
        "is_executable": false,
        "is_readable": true,
        "is_writable": false,
        "is_writable_and_executable": false,
        "raw_size": 2560,
        "raw_virtual_size_ratio": 1.134249003101462,
        "virtual_size": 2257
    },
    ".text": {
        "entropy": 0.0,
        "hash": "a2a39e2685c5e482",
        "is_executable": true,
        "is_readable": true,
        "is_writable": false,
        "is_writable_and_executable": false,
        "raw_size": 0,
        "raw_virtual_size_ratio": 3.73229028260902e-06,
        "virtual_size": 267932
    },
    "file": {
        "SOC": 268288,
        "SOH": 240,
        "SOHO": 1024,
        "SOI": 4063232,
        "SOID": 58880,
        "SOS": 99,
        "SOUID": 0,
        "avg_str_len": 9.9,
        "n_execute_sections": 3,
        "n_import_funcs": 54,
        "n_imports": 44,
        "n_read_sections": 9,
        "n_sections": 9,
        "n_standart_sections": 4,
        "n_strings": 10,
        "n_symdols": 0,
        "n_write_and_execute_sections": 0,
        "n_write_sections": 2,
        "timestamp": 254375949
    },
    "packer": "vmprotect",
    "path": "../vmprotect/data/TieringEngineService.vmp.exe"
}