{
    ".data": {
        "entropy": 0.0,
        "hash": "b27012107cd4492f",
        "is_executable": false,
        "is_readable": true,
        "is_writable": true,
        "is_writable_and_executable": false,
        "raw_size": 0,
        "raw_virtual_size_ratio": 0.0003894080996884735,
        "virtual_size": 2568
    },
    ".rsrc": {
        "entropy": 7.131947157764052,
        "hash": "e3670e18b4ae0234",
        "is_executable": false,
        "is_readable": true,
        "is_writable": false,
        "is_writable_and_executable": false,
        "raw_size": 91136,
        "raw_virtual_size_ratio": 1.0011314578229873,
        "virtual_size": 91033
    },
    ".text": {
        "entropy": 0.0,
        "hash": "b3f4abd2991585d6",
        "is_executable": true,
        "is_readable": true,
        "is_writable": false,
        "is_writable_and_executable": false,
        "raw_size": 0,
        "raw_virtual_size_ratio": 1.725863794829312e-05,
        "virtual_size": 57942
    },
    "file": {
        "SOC": 58368,
        "SOH": 240,
        "SOHO": 1024,
        "SOI": 3321856,
        "SOID": 116736,
        "SOS": 93,
        "SOUID": 0,
        "avg_str_len": 10.333333333333334,
        "n_execute_sections": 3,
        "n_import_funcs": 22,
        "n_imports": 12,
        "n_read_sections": 8,
        "n_sections": 8,
        "n_standart_sections": 4,
        "n_strings": 9,
        "n_symdols": 0,
        "n_write_and_execute_sections": 0,
        "n_write_sections": 1,
        "timestamp": 2230750097
    },
    "packer": "vmprotect",
    "path": "../vmprotect/data/fvenotify.vmp.exe"
}