{
    ".data": {
        "entropy": 0.0,
        "hash": "8c01512740100a53",
        "is_executable": false,
        "is_readable": true,
        "is_writable": true,
        "is_writable_and_executable": false,
        "raw_size": 0,
        "raw_virtual_size_ratio": 0.00040064102564102563,
        "virtual_size": 2496
    },
    ".rsrc": {
        "entropy": 2.493991824550301,
        "hash": "225ebc8526d37c72",
        "is_executable": false,
        "is_readable": true,
        "is_writable": false,
        "is_writable_and_executable": false,
        "raw_size": 1536,
        "raw_virtual_size_ratio": 1.471264367816092,
        "virtual_size": 1044
    },
    ".text": {
        "entropy": 0.0,
        "hash": "0c3bfbb0f4b826dc",
        "is_executable": true,
        "is_readable": true,
        "is_writable": false,
        "is_writable_and_executable": false,
        "raw_size": 0,
        "raw_virtual_size_ratio": 3.70260663507109e-05,
        "virtual_size": 27008
    },
    "file": {
        "SOC": 27136,
        "SOH": 240,
        "SOHO": 1024,
        "SOI": 3096576,
        "SOID": 25600,
        "SOS": 93,
        "SOUID": 0,
        "avg_str_len": 10.333333333333334,
        "n_execute_sections": 3,
        "n_import_funcs": 32,
        "n_imports": 22,
        "n_read_sections": 8,
        "n_sections": 8,
        "n_standart_sections": 4,
        "n_strings": 9,
        "n_symdols": 0,
        "n_write_and_execute_sections": 0,
        "n_write_sections": 1,
        "timestamp": 2054821604
    },
    "packer": "vmprotect",
    "path": "../vmprotect/data/MdmDiagnosticsTool.vmp.exe"
}