{
    ".data": {
        "entropy": 0.0,
        "hash": "405eafb1e2306f8d",
        "is_executable": false,
        "is_readable": true,
        "is_writable": true,
        "is_writable_and_executable": false,
        "raw_size": 0,
        "raw_virtual_size_ratio": 0.00029976019184652276,
        "virtual_size": 3336
    },
    ".rsrc": {
        "entropy": 5.496047405089743,
        "hash": "a0732ac4c073c77a",
        "is_executable": false,
        "is_readable": true,
        "is_writable": false,
        "is_writable_and_executable": false,
        "raw_size": 8192,
        "raw_virtual_size_ratio": 1.006759247880054,
        "virtual_size": 8137
    },
    ".text": {
        "entropy": 0.0,
        "hash": "a03417ccb5ab2ce1",
        "is_executable": true,
        "is_readable": true,
        "is_writable": false,
        "is_writable_and_executable": false,
        "raw_size": 0,
        "raw_virtual_size_ratio": 1.7394026891165574e-05,
        "virtual_size": 57491
    },
    "file": {
        "SOC": 57856,
        "SOH": 240,
        "SOHO": 1024,
        "SOI": 3153920,
        "SOID": 38400,
        "SOS": 99,
        "SOUID": 0,
        "avg_str_len": 9.9,
        "n_execute_sections": 3,
        "n_import_funcs": 37,
        "n_imports": 27,
        "n_read_sections": 9,
        "n_sections": 9,
        "n_standart_sections": 4,
        "n_strings": 10,
        "n_symdols": 0,
        "n_write_and_execute_sections": 0,
        "n_write_sections": 2,
        "timestamp": 114500009
    },
    "packer": "vmprotect",
    "path": "../vmprotect/data/alg.vmp.exe"
}