{
    ".data": {
        "entropy": 0.0,
        "hash": "478b4c70ab0b2c0e",
        "is_executable": false,
        "is_readable": true,
        "is_writable": true,
        "is_writable_and_executable": false,
        "raw_size": 0,
        "raw_virtual_size_ratio": 0.00036231884057971015,
        "virtual_size": 2760
    },
    ".rsrc": {
        "entropy": 3.799906356020661,
        "hash": "c02e4eb1ec58991b",
        "is_executable": false,
        "is_readable": true,
        "is_writable": false,
        "is_writable_and_executable": false,
        "raw_size": 33280,
        "raw_virtual_size_ratio": 1.0075078711552434,
        "virtual_size": 33032
    },
    ".text": {
        "entropy": 0.0,
        "hash": "a2338a605c0913bb",
        "is_executable": true,
        "is_readable": true,
        "is_writable": false,
        "is_writable_and_executable": false,
        "raw_size": 0,
        "raw_virtual_size_ratio": 2.163565556036348e-05,
        "virtual_size": 46220
    },
    "file": {
        "SOC": 46592,
        "SOH": 240,
        "SOHO": 1024,
        "SOI": 3518464,
        "SOID": 69632,
        "SOS": 99,
        "SOUID": 0,
        "avg_str_len": 9.9,
        "n_execute_sections": 3,
        "n_import_funcs": 37,
        "n_imports": 27,
        "n_read_sections": 9,
        "n_sections": 9,
        "n_standart_sections": 4,
        "n_strings": 10,
        "n_symdols": 0,
        "n_write_and_execute_sections": 0,
        "n_write_sections": 2,
        "timestamp": 2730675944
    },
    "packer": "vmprotect",
    "path": "../vmprotect/data/wsqmcons.vmp.exe"
}