{
    ".data": {
        "entropy": 0.0,
        "hash": "60d0b9c3d51df7ec",
        "is_executable": false,
        "is_readable": true,
        "is_writable": true,
        "is_writable_and_executable": false,
        "raw_size": 0,
        "raw_virtual_size_ratio": 0.00042517006802721087,
        "virtual_size": 2352
    },
    ".rsrc": {
        "entropy": 4.364986010302499,
        "hash": "3cc4e691db082736",
        "is_executable": false,
        "is_readable": true,
        "is_writable": false,
        "is_writable_and_executable": false,
        "raw_size": 3072,
        "raw_virtual_size_ratio": 1.1126403477001086,
        "virtual_size": 2761
    },
    ".text": {
        "entropy": 0.0,
        "hash": "5072df0563cff521",
        "is_executable": true,
        "is_readable": true,
        "is_writable": false,
        "is_writable_and_executable": false,
        "raw_size": 0,
        "raw_virtual_size_ratio": 1.179022825881909e-05,
        "virtual_size": 84816
    },
    "file": {
        "SOC": 84992,
        "SOH": 240,
        "SOHO": 1024,
        "SOI": 3174400,
        "SOID": 35328,
        "SOS": 93,
        "SOUID": 0,
        "avg_str_len": 10.333333333333334,
        "n_execute_sections": 3,
        "n_import_funcs": 24,
        "n_imports": 14,
        "n_read_sections": 8,
        "n_sections": 8,
        "n_standart_sections": 4,
        "n_strings": 9,
        "n_symdols": 0,
        "n_write_and_execute_sections": 0,
        "n_write_sections": 1,
        "timestamp": 1492902198
    },
    "packer": "vmprotect",
    "path": "../vmprotect/data/dfrgui.vmp.exe"
}