{
    ".data": {
        "entropy": 0.0,
        "hash": "ad5f1c6e60cf4596",
        "is_executable": false,
        "is_readable": true,
        "is_writable": true,
        "is_writable_and_executable": false,
        "raw_size": 0,
        "raw_virtual_size_ratio": 0.00025406504065040653,
        "virtual_size": 3936
    },
    ".rsrc": {
        "entropy": 3.8107811698084784,
        "hash": "729f8086c544375a",
        "is_executable": false,
        "is_readable": true,
        "is_writable": false,
        "is_writable_and_executable": false,
        "raw_size": 2560,
        "raw_virtual_size_ratio": 1.2278177458033572,
        "virtual_size": 2085
    },
    ".text": {
        "entropy": 0.0,
        "hash": "899f3b021161c345",
        "is_executable": true,
        "is_readable": true,
        "is_writable": false,
        "is_writable_and_executable": false,
        "raw_size": 0,
        "raw_virtual_size_ratio": 7.41399762752076e-05,
        "virtual_size": 13488
    },
    "file": {
        "SOC": 13824,
        "SOH": 240,
        "SOHO": 1024,
        "SOI": 2940928,
        "SOID": 13312,
        "SOS": 93,
        "SOUID": 0,
        "avg_str_len": 10.333333333333334,
        "n_execute_sections": 3,
        "n_import_funcs": 31,
        "n_imports": 21,
        "n_read_sections": 8,
        "n_sections": 8,
        "n_standart_sections": 4,
        "n_strings": 9,
        "n_symdols": 0,
        "n_write_and_execute_sections": 0,
        "n_write_sections": 1,
        "timestamp": 788886058
    },
    "packer": "vmprotect",
    "path": "../vmprotect/data/ARP.vmp.EXE"
}