{
    ".data": {
        "entropy": 0.0,
        "hash": "3a1fc4260ce7f5f2",
        "is_executable": false,
        "is_readable": true,
        "is_writable": true,
        "is_writable_and_executable": false,
        "raw_size": 0,
        "raw_virtual_size_ratio": 0.0006038647342995169,
        "virtual_size": 1656
    },
    ".rsrc": {
        "entropy": 4.356944532941187,
        "hash": "2f832e7f5b813e78",
        "is_executable": false,
        "is_readable": true,
        "is_writable": false,
        "is_writable_and_executable": false,
        "raw_size": 2048,
        "raw_virtual_size_ratio": 1.0029382957884427,
        "virtual_size": 2042
    },
    ".text": {
        "entropy": 0.0,
        "hash": "c977f68c5c647151",
        "is_executable": true,
        "is_readable": true,
        "is_writable": false,
        "is_writable_and_executable": false,
        "raw_size": 0,
        "raw_virtual_size_ratio": 0.00010647359454855196,
        "virtual_size": 9392
    },
    "file": {
        "SOC": 9728,
        "SOH": 240,
        "SOHO": 1024,
        "SOI": 3035136,
        "SOID": 11264,
        "SOS": 93,
        "SOUID": 0,
        "avg_str_len": 10.333333333333334,
        "n_execute_sections": 3,
        "n_import_funcs": 17,
        "n_imports": 7,
        "n_read_sections": 8,
        "n_sections": 8,
        "n_standart_sections": 4,
        "n_strings": 9,
        "n_symdols": 0,
        "n_write_and_execute_sections": 0,
        "n_write_sections": 1,
        "timestamp": 2550999096
    },
    "packer": "vmprotect",
    "path": "../vmprotect/data/doskey.vmp.exe"
}