{
    ".data": {
        "entropy": 0.0,
        "hash": "af8a6546624678dc",
        "is_executable": false,
        "is_readable": true,
        "is_writable": true,
        "is_writable_and_executable": false,
        "raw_size": 0,
        "raw_virtual_size_ratio": 0.0004901960784313725,
        "virtual_size": 2040
    },
    ".rsrc": {
        "entropy": 4.201691888344816,
        "hash": "7dea050c9309bc84",
        "is_executable": false,
        "is_readable": true,
        "is_writable": false,
        "is_writable_and_executable": false,
        "raw_size": 2560,
        "raw_virtual_size_ratio": 1.116441343218491,
        "virtual_size": 2293
    },
    ".text": {
        "entropy": 0.0,
        "hash": "0b9e8a39cefb280b",
        "is_executable": true,
        "is_readable": true,
        "is_writable": false,
        "is_writable_and_executable": false,
        "raw_size": 0,
        "raw_virtual_size_ratio": 1.4124293785310734e-05,
        "virtual_size": 70800
    },
    "file": {
        "SOC": 71168,
        "SOH": 240,
        "SOHO": 1024,
        "SOI": 3182592,
        "SOID": 30720,
        "SOS": 93,
        "SOUID": 0,
        "avg_str_len": 10.333333333333334,
        "n_execute_sections": 3,
        "n_import_funcs": 29,
        "n_imports": 19,
        "n_read_sections": 8,
        "n_sections": 8,
        "n_standart_sections": 4,
        "n_strings": 9,
        "n_symdols": 0,
        "n_write_and_execute_sections": 0,
        "n_write_sections": 1,
        "timestamp": 2311049301
    },
    "packer": "vmprotect",
    "path": "../vmprotect/data/taskkill.vmp.exe"
}