{
    ".data": {
        "entropy": 0.0,
        "hash": "e4ab72b098dd5a1e",
        "is_executable": false,
        "is_readable": true,
        "is_writable": true,
        "is_writable_and_executable": false,
        "raw_size": 0,
        "raw_virtual_size_ratio": 0.0005681818181818182,
        "virtual_size": 1760
    },
    ".rsrc": {
        "entropy": 4.174485493347088,
        "hash": "33b1b25d342c1a38",
        "is_executable": false,
        "is_readable": true,
        "is_writable": false,
        "is_writable_and_executable": false,
        "raw_size": 2048,
        "raw_virtual_size_ratio": 1.1148611867174743,
        "virtual_size": 1837
    },
    ".text": {
        "entropy": 0.0,
        "hash": "e93959c859dd05a4",
        "is_executable": true,
        "is_readable": true,
        "is_writable": false,
        "is_writable_and_executable": false,
        "raw_size": 0,
        "raw_virtual_size_ratio": 0.0002920560747663551,
        "virtual_size": 3424
    },
    "file": {
        "SOC": 3584,
        "SOH": 240,
        "SOHO": 1024,
        "SOI": 3018752,
        "SOID": 9728,
        "SOS": 93,
        "SOUID": 0,
        "avg_str_len": 10.333333333333334,
        "n_execute_sections": 3,
        "n_import_funcs": 27,
        "n_imports": 17,
        "n_read_sections": 8,
        "n_sections": 8,
        "n_standart_sections": 4,
        "n_strings": 9,
        "n_symdols": 0,
        "n_write_and_execute_sections": 0,
        "n_write_sections": 1,
        "timestamp": 1251149629
    },
    "packer": "vmprotect",
    "path": "../vmprotect/data/TCPSVCS.vmp.EXE"
}