{
    ".data": {
        "entropy": 0.0,
        "hash": "d021444b9a688059",
        "is_executable": false,
        "is_readable": true,
        "is_writable": true,
        "is_writable_and_executable": false,
        "raw_size": 0,
        "raw_virtual_size_ratio": 0.0006009615384615385,
        "virtual_size": 1664
    },
    ".rsrc": {
        "entropy": 4.3559072308836155,
        "hash": "9f499151bcdcb892",
        "is_executable": false,
        "is_readable": true,
        "is_writable": false,
        "is_writable_and_executable": false,
        "raw_size": 50176,
        "raw_virtual_size_ratio": 1.0025976101986174,
        "virtual_size": 50046
    },
    ".text": {
        "entropy": 0.0,
        "hash": "b20d0dd98ae523b6",
        "is_executable": true,
        "is_readable": true,
        "is_writable": false,
        "is_writable_and_executable": false,
        "raw_size": 0,
        "raw_virtual_size_ratio": 0.0002729257641921397,
        "virtual_size": 3664
    },
    "file": {
        "SOC": 4096,
        "SOH": 240,
        "SOHO": 1024,
        "SOI": 3018752,
        "SOID": 57344,
        "SOS": 93,
        "SOUID": 0,
        "avg_str_len": 10.333333333333334,
        "n_execute_sections": 3,
        "n_import_funcs": 27,
        "n_imports": 17,
        "n_read_sections": 8,
        "n_sections": 8,
        "n_standart_sections": 4,
        "n_strings": 9,
        "n_symdols": 0,
        "n_write_and_execute_sections": 0,
        "n_write_sections": 1,
        "timestamp": 1167730544
    },
    "packer": "vmprotect",
    "path": "../vmprotect/data/AxInstUI.vmp.exe"
}