{
    ".data": {
        "entropy": 0.0,
        "hash": "ce2cb3fee415c91b",
        "is_executable": false,
        "is_readable": true,
        "is_writable": true,
        "is_writable_and_executable": false,
        "raw_size": 0,
        "raw_virtual_size_ratio": 0.00027533039647577095,
        "virtual_size": 3632
    },
    ".rsrc": {
        "entropy": 3.310081659034961,
        "hash": "7d4c3ecf21373473",
        "is_executable": false,
        "is_readable": true,
        "is_writable": false,
        "is_writable_and_executable": false,
        "raw_size": 1024,
        "raw_virtual_size_ratio": 1.0078740157480315,
        "virtual_size": 1016
    },
    ".text": {
        "entropy": 0.0,
        "hash": "677ab3c9536b2bcc",
        "is_executable": true,
        "is_readable": true,
        "is_writable": false,
        "is_writable_and_executable": false,
        "raw_size": 0,
        "raw_virtual_size_ratio": 1.3560425254935995e-05,
        "virtual_size": 73744
    },
    "file": {
        "SOC": 74240,
        "SOH": 240,
        "SOHO": 1024,
        "SOI": 3141632,
        "SOID": 39936,
        "SOS": 99,
        "SOUID": 0,
        "avg_str_len": 9.9,
        "n_execute_sections": 3,
        "n_import_funcs": 44,
        "n_imports": 34,
        "n_read_sections": 9,
        "n_sections": 9,
        "n_standart_sections": 4,
        "n_strings": 10,
        "n_symdols": 0,
        "n_write_and_execute_sections": 0,
        "n_write_sections": 2,
        "timestamp": 3624364375
    },
    "packer": "vmprotect",
    "path": "../vmprotect/data/sihost.vmp.exe"
}