{
    ".data": {
        "entropy": 0.0,
        "hash": "f02dacee79cc2007",
        "is_executable": false,
        "is_readable": true,
        "is_writable": true,
        "is_writable_and_executable": false,
        "raw_size": 0,
        "raw_virtual_size_ratio": 0.00035014005602240897,
        "virtual_size": 2856
    },
    ".rsrc": {
        "entropy": 4.417749092943171,
        "hash": "71d58f969501bddf",
        "is_executable": false,
        "is_readable": true,
        "is_writable": false,
        "is_writable_and_executable": false,
        "raw_size": 2048,
        "raw_virtual_size_ratio": 1.0,
        "virtual_size": 2048
    },
    ".text": {
        "entropy": 0.0,
        "hash": "29353ca9ad726626",
        "is_executable": true,
        "is_readable": true,
        "is_writable": false,
        "is_writable_and_executable": false,
        "raw_size": 0,
        "raw_virtual_size_ratio": 1.5771875591445335e-05,
        "virtual_size": 63404
    },
    "file": {
        "SOC": 63488,
        "SOH": 240,
        "SOHO": 1024,
        "SOI": 3633152,
        "SOID": 44544,
        "SOS": 99,
        "SOUID": 0,
        "avg_str_len": 9.9,
        "n_execute_sections": 3,
        "n_import_funcs": 49,
        "n_imports": 39,
        "n_read_sections": 9,
        "n_sections": 9,
        "n_standart_sections": 4,
        "n_strings": 10,
        "n_symdols": 0,
        "n_write_and_execute_sections": 0,
        "n_write_sections": 2,
        "timestamp": 3319000541
    },
    "packer": "vmprotect",
    "path": "../vmprotect/data/audit.vmp.exe"
}