{
    ".data": {
        "entropy": 0.0,
        "hash": "33cf5983cbc9c938",
        "is_executable": false,
        "is_readable": true,
        "is_writable": true,
        "is_writable_and_executable": false,
        "raw_size": 0,
        "raw_virtual_size_ratio": 5.89622641509434e-05,
        "virtual_size": 16960
    },
    ".rsrc": {
        "entropy": 4.346476087455105,
        "hash": "3f482485f1a0c1b7",
        "is_executable": false,
        "is_readable": true,
        "is_writable": false,
        "is_writable_and_executable": false,
        "raw_size": 2048,
        "raw_virtual_size_ratio": 1.0073782587309394,
        "virtual_size": 2033
    },
    ".text": {
        "entropy": 0.0,
        "hash": "665f75856fd5d4ec",
        "is_executable": true,
        "is_readable": true,
        "is_writable": false,
        "is_writable_and_executable": false,
        "raw_size": 0,
        "raw_virtual_size_ratio": 3.305129561078794e-05,
        "virtual_size": 30256
    },
    "file": {
        "SOC": 30720,
        "SOH": 240,
        "SOHO": 1024,
        "SOI": 3137536,
        "SOID": 33792,
        "SOS": 93,
        "SOUID": 0,
        "avg_str_len": 10.333333333333334,
        "n_execute_sections": 3,
        "n_import_funcs": 38,
        "n_imports": 28,
        "n_read_sections": 8,
        "n_sections": 8,
        "n_standart_sections": 4,
        "n_strings": 9,
        "n_symdols": 0,
        "n_write_and_execute_sections": 0,
        "n_write_sections": 1,
        "timestamp": 2832184582
    },
    "packer": "vmprotect",
    "path": "../vmprotect/data/compact.vmp.exe"
}