{
    ".data": {
        "entropy": 0.0,
        "hash": "54233cd8db6d1392",
        "is_executable": false,
        "is_readable": true,
        "is_writable": true,
        "is_writable_and_executable": false,
        "raw_size": 0,
        "raw_virtual_size_ratio": 0.0006038647342995169,
        "virtual_size": 1656
    },
    ".rsrc": {
        "entropy": 4.607940568240087,
        "hash": "41204711b503b296",
        "is_executable": false,
        "is_readable": true,
        "is_writable": false,
        "is_writable_and_executable": false,
        "raw_size": 3584,
        "raw_virtual_size_ratio": 1.0245854774156662,
        "virtual_size": 3498
    },
    ".text": {
        "entropy": 0.0,
        "hash": "d73f9efe9eff59e8",
        "is_executable": true,
        "is_readable": true,
        "is_writable": false,
        "is_writable_and_executable": false,
        "raw_size": 0,
        "raw_virtual_size_ratio": 0.00039556962025316455,
        "virtual_size": 2528
    },
    "file": {
        "SOC": 2560,
        "SOH": 240,
        "SOHO": 1024,
        "SOI": 2883584,
        "SOID": 9216,
        "SOS": 93,
        "SOUID": 0,
        "avg_str_len": 10.333333333333334,
        "n_execute_sections": 3,
        "n_import_funcs": 16,
        "n_imports": 6,
        "n_read_sections": 8,
        "n_sections": 8,
        "n_standart_sections": 4,
        "n_strings": 9,
        "n_symdols": 0,
        "n_write_and_execute_sections": 0,
        "n_write_sections": 1,
        "timestamp": 1562963277
    },
    "packer": "vmprotect",
    "path": "../vmprotect/data/write.vmp.exe"
}