{
    ".data": {
        "entropy": 0.28109187076190567,
        "hash": "55aa73e717d4e85e",
        "is_executable": false,
        "is_readable": true,
        "is_writable": true,
        "is_writable_and_executable": false,
        "raw_size": 512,
        "raw_virtual_size_ratio": 0.31840796019900497,
        "virtual_size": 1608
    },
    ".rsrc": {
        "entropy": 4.247984702221766,
        "hash": "316c989fa3a30237",
        "is_executable": false,
        "is_readable": true,
        "is_writable": false,
        "is_writable_and_executable": false,
        "raw_size": 2048,
        "raw_virtual_size_ratio": 1.032258064516129,
        "virtual_size": 1984
    },
    ".text": {
        "entropy": 5.267386725518333,
        "hash": "8939442785ca05b2",
        "is_executable": true,
        "is_readable": true,
        "is_writable": false,
        "is_writable_and_executable": false,
        "raw_size": 3072,
        "raw_virtual_size_ratio": 1.1770114942528735,
        "virtual_size": 2610
    },
    "file": {
        "SOC": 3072,
        "SOH": 240,
        "SOHO": 1024,
        "SOI": 28672,
        "SOID": 7680,
        "SOS": 88,
        "SOUID": 0,
        "avg_str_len": 11.0,
        "n_execute_sections": 1,
        "n_import_funcs": 24,
        "n_imports": 2,
        "n_read_sections": 6,
        "n_sections": 6,
        "n_standart_sections": 4,
        "n_strings": 8,
        "n_symdols": 0,
        "n_write_and_execute_sections": 0,
        "n_write_sections": 1,
        "timestamp": 1911604802
    },
    "packer": "origin",
    "path": "../origin/setupcl.exe"
}