^C:\USERS\THESIS\SOURCE\REPOS\STUB\STUB2\X64\RELEASE\SOURCE.OBJ|C:\USERS\THESIS\SOURCE\REPOS\STUB\STUB2\X64\RELEASE\STUB2.RES
C:\USERS\THESIS\SOURCE\REPOS\STUB\X64\RELEASE\STUB2.EXE
C:\USERS\THESIS\SOURCE\REPOS\STUB\STUB2\X64\RELEASE\STUB2.IPDB
C:\USERS\THESIS\SOURCE\REPOS\STUB\STUB2\X64\RELEASE\STUB2.IOBJ
C:\USERS\THESIS\SOURCE\REPOS\STUB\X64\RELEASE\STUB2.PDB
