{
    ".data": {
        "entropy": 0.0,
        "hash": "4448310cf7ba147a",
        "is_executable": false,
        "is_readable": true,
        "is_writable": true,
        "is_writable_and_executable": false,
        "raw_size": 0,
        "raw_virtual_size_ratio": 1.6068903458028024e-05,
        "virtual_size": 62232
    },
    ".rsrc": {
        "entropy": 3.9105027304488913,
        "hash": "d8757cac6334c3c4",
        "is_executable": false,
        "is_readable": true,
        "is_writable": false,
        "is_writable_and_executable": false,
        "raw_size": 2048,
        "raw_virtual_size_ratio": 1.1941690962099125,
        "virtual_size": 1715
    },
    ".text": {
        "entropy": 0.0,
        "hash": "2b43e04a9250a99c",
        "is_executable": true,
        "is_readable": true,
        "is_writable": false,
        "is_writable_and_executable": false,
        "raw_size": 0,
        "raw_virtual_size_ratio": 7.303534910896874e-06,
        "virtual_size": 136920
    },
    "file": {
        "SOC": 137216,
        "SOH": 240,
        "SOHO": 1024,
        "SOI": 3489792,
        "SOID": 97280,
        "SOS": 99,
        "SOUID": 0,
        "avg_str_len": 9.9,
        "n_execute_sections": 3,
        "n_import_funcs": 50,
        "n_imports": 40,
        "n_read_sections": 9,
        "n_sections": 9,
        "n_standart_sections": 4,
        "n_strings": 10,
        "n_symdols": 0,
        "n_write_and_execute_sections": 0,
        "n_write_sections": 2,
        "timestamp": 16101384
    },
    "packer": "vmprotect",
    "path": "../vmprotect/data/net1.vmp.exe"
}