{
    ".rsrc": {
        "entropy": 4.551893475479159,
        "hash": "615ece8ce160630a",
        "is_executable": false,
        "is_readable": true,
        "is_writable": false,
        "is_writable_and_executable": false,
        "raw_size": 2560,
        "raw_virtual_size_ratio": 0.625,
        "virtual_size": 4096
    },
    "file": {
        "SOC": 59904,
        "SOH": 240,
        "SOHO": 1024,
        "SOI": 9846784,
        "SOID": 35840,
        "SOS": 134,
        "SOUID": 512,
        "avg_str_len": 11.166666666666666,
        "n_execute_sections": 3,
        "n_import_funcs": 37,
        "n_imports": 37,
        "n_read_sections": 11,
        "n_sections": 11,
        "n_standart_sections": 2,
        "n_strings": 12,
        "n_symdols": 0,
        "n_write_and_execute_sections": 1,
        "n_write_sections": 4,
        "timestamp": 2662220100
    },
    "packer": "themida",
    "path": "../themida/themida/RuntimeBroker_protected.exe"
}