{
    ".data": {
        "entropy": 1.7074368345374973,
        "hash": "cf755d482493ccb4",
        "is_executable": false,
        "is_readable": true,
        "is_writable": true,
        "is_writable_and_executable": false,
        "raw_size": 4096,
        "raw_virtual_size_ratio": 0.3301096067053514,
        "virtual_size": 12408
    },
    ".rsrc": {
        "entropy": 5.497672447616024,
        "hash": "26340309d5a444e2",
        "is_executable": false,
        "is_readable": true,
        "is_writable": false,
        "is_writable_and_executable": false,
        "raw_size": 37888,
        "raw_virtual_size_ratio": 1.0080885483184334,
        "virtual_size": 37584
    },
    ".text": {
        "entropy": 6.250995636990141,
        "hash": "f11c15a297d45531",
        "is_executable": true,
        "is_readable": true,
        "is_writable": false,
        "is_writable_and_executable": false,
        "raw_size": 33792,
        "raw_virtual_size_ratio": 1.012524719841793,
        "virtual_size": 33374
    },
    "file": {
        "SOC": 33792,
        "SOH": 240,
        "SOHO": 1024,
        "SOI": 118784,
        "SOID": 65024,
        "SOS": 86,
        "SOUID": 0,
        "avg_str_len": 10.75,
        "n_execute_sections": 1,
        "n_import_funcs": 69,
        "n_imports": 4,
        "n_read_sections": 6,
        "n_sections": 6,
        "n_standart_sections": 4,
        "n_strings": 8,
        "n_symdols": 0,
        "n_write_and_execute_sections": 0,
        "n_write_sections": 1,
        "timestamp": 1100890931
    },
    "packer": "origin",
    "path": "../origin/CompMgmtLauncher.exe"
}