{
    ".rsrc": {
        "entropy": 4.20023120927117,
        "hash": "6b12c4a48dc003d0",
        "is_executable": false,
        "is_readable": true,
        "is_writable": true,
        "is_writable_and_executable": false,
        "raw_size": 4096,
        "raw_virtual_size_ratio": 1.0,
        "virtual_size": 4096
    },
    "file": {
        "SOC": 24576,
        "SOH": 240,
        "SOHO": 4096,
        "SOI": 77824,
        "SOID": 4096,
        "SOS": 60,
        "SOUID": 45056,
        "avg_str_len": 15.0,
        "n_execute_sections": 2,
        "n_import_funcs": 24,
        "n_imports": 21,
        "n_read_sections": 3,
        "n_sections": 3,
        "n_standart_sections": 1,
        "n_strings": 4,
        "n_symdols": 0,
        "n_write_and_execute_sections": 2,
        "n_write_sections": 3,
        "timestamp": 2977004095
    },
    "packer": "upx",
    "path": "../upx/data/unlodctr.exe"
}